\relax 
\providecommand\hyper@newdestlabel[2]{}
\providecommand\HyperFirstAtBeginDocument{\AtBeginDocument}
\HyperFirstAtBeginDocument{\ifx\hyper@anchor\@undefined
\global\let\oldcontentsline\contentsline
\gdef\contentsline#1#2#3#4{\oldcontentsline{#1}{#2}{#3}}
\global\let\oldnewlabel\newlabel
\gdef\newlabel#1#2{\newlabelxx{#1}#2}
\gdef\newlabelxx#1#2#3#4#5#6{\oldnewlabel{#1}{{#2}{#3}}}
\AtEndDocument{\ifx\hyper@anchor\@undefined
\let\contentsline\oldcontentsline
\let\newlabel\oldnewlabel
\fi}
\fi}
\global\let\hyper@last\relax 
\gdef\HyperFirstAtBeginDocument#1{#1}
\providecommand\HyField@AuxAddToFields[1]{}
\providecommand\HyField@AuxAddToCoFields[2]{}
\citation{AGS}
\citation{VCBCS95}
\citation{CucSma07}
\@writefile{toc}{\contentsline {section}{\numberline {1}Introduction}{1}{section.1}}
\@writefile{toc}{\contentsline {subsection}{\numberline {1.1}General abstract framework}{2}{subsection.1.1}}
\newlabel{gradientflow}{{1}{2}{General abstract framework}{equation.1.1}{}}
\citation{AGS}
\citation{cafotove10}
\citation{13-Carrillo-Choi-Hauray-MFL}
\@writefile{toc}{\contentsline {subsection}{\numberline {1.2}Example of gradient flow of nonlocal particle interactions}{3}{subsection.1.2}}
\newlabel{sec:gradflow}{{1.2}{3}{Example of gradient flow of nonlocal particle interactions}{subsection.1.2}{}}
\newlabel{fdgradientflow}{{2}{3}{Example of gradient flow of nonlocal particle interactions}{equation.1.2}{}}
\newlabel{intker}{{3}{3}{Example of gradient flow of nonlocal particle interactions}{equation.1.3}{}}
\newlabel{eq:meanfield}{{4}{3}{Example of gradient flow of nonlocal particle interactions}{equation.1.4}{}}
\citation{mann11}
\citation{heoemascszwa11}
\citation{brpi07}
\@writefile{toc}{\contentsline {subsection}{\numberline {1.3}Parametric energies and their identifications}{4}{subsection.1.3}}
\@writefile{toc}{\contentsline {subsection}{\numberline {1.4}The optimal control approach and its drawbacks}{4}{subsection.1.4}}
\newlabel{optcontr}{{5}{4}{The optimal control approach and its drawbacks}{equation.1.5}{}}
\newlabel{gradientflow2}{{6}{4}{The optimal control approach and its drawbacks}{equation.1.6}{}}
\@writefile{toc}{\contentsline {subsection}{\numberline {1.5}A variational approach towards learning parameter functions in nonlocal energies}{5}{subsection.1.5}}
\newlabel{sec:wp2}{{1.5}{5}{A variational approach towards learning parameter functions in nonlocal energies}{subsection.1.5}{}}
\newlabel{fdgradientflow2}{{7}{5}{A variational approach towards learning parameter functions in nonlocal energies}{equation.1.7}{}}
\newlabel{eq-def-error1}{{8}{5}{A variational approach towards learning parameter functions in nonlocal energies}{equation.1.8}{}}
\citation{MR1201152}
\newlabel{fdproxy}{{9}{6}{A variational approach towards learning parameter functions in nonlocal energies}{equation.1.9}{}}
\newlabel{pirlo}{{10}{6}{A variational approach towards learning parameter functions in nonlocal energies}{equation.1.10}{}}
\newlabel{ourfunctional}{{11}{6}{A variational approach towards learning parameter functions in nonlocal energies}{equation.1.11}{}}
\newlabel{est-functional-1}{{12}{6}{A variational approach towards learning parameter functions in nonlocal energies}{equation.1.12}{}}
\newlabel{midpoint1}{{13}{7}{A variational approach towards learning parameter functions in nonlocal energies}{equation.1.13}{}}
\newlabel{eq-rho-4}{{14}{7}{A variational approach towards learning parameter functions in nonlocal energies}{equation.1.14}{}}
\newlabel{midpoint2}{{15}{7}{A variational approach towards learning parameter functions in nonlocal energies}{equation.1.15}{}}
\newlabel{coercivity}{{16}{7}{A variational approach towards learning parameter functions in nonlocal energies}{equation.1.16}{}}
\newlabel{truealgo1}{{17}{8}{A variational approach towards learning parameter functions in nonlocal energies}{equation.1.17}{}}
\@writefile{toc}{\contentsline {subsection}{\numberline {1.6}Numerical implementation of the variational approach }{8}{subsection.1.6}}
\newlabel{sec:wp3}{{1.6}{8}{Numerical implementation of the variational approach}{subsection.1.6}{}}
\citation{bofohamaXX}
\citation{MR2249856}
\citation{MR2327596}
\citation{AGS}
\newlabel{finalestimate}{{18}{9}{Numerical implementation of the variational approach}{equation.1.18}{}}
\@writefile{toc}{\contentsline {section}{\numberline {2}Preliminaries}{9}{section.2}}
\newlabel{meanfield}{{2}{9}{Preliminaries}{section.2}{}}
\newlabel{e_Wp}{{19}{9}{Preliminaries}{equation.2.19}{}}
\citation{AGS}
\citation{villani}
\@writefile{toc}{\contentsline {subsection}{\numberline {2.1}The mean-field limit equation and existence of solutions}{10}{subsection.2.1}}
\newlabel{eq:contdyn}{{20}{10}{The mean-field limit equation and existence of solutions}{equation.2.20}{}}
\citation{AGS}
\citation{13-Carrillo-Choi-Hauray-MFL}
\newlabel{eq:discrdyn}{{21}{11}{The mean-field limit equation and existence of solutions}{equation.2.21}{}}
\newlabel{eq:discr1}{{22}{11}{The mean-field limit equation and existence of solutions}{equation.2.22}{}}
\newlabel{eq:empmeas}{{23}{11}{The mean-field limit equation and existence of solutions}{equation.2.23}{}}
\newlabel{pr:exist}{{2.2}{11}{}{theorem.2.2}{}}
\citation{CanCarRos10}
\@writefile{toc}{\contentsline {subsection}{\numberline {2.2}The transport map and uniqueness of mean-field solutions}{12}{subsection.2.2}}
\newlabel{eq:transpdyn}{{24}{12}{The transport map and uniqueness of mean-field solutions}{equation.2.24}{}}
\newlabel{eq:fixedpoint}{{25}{12}{The transport map and uniqueness of mean-field solutions}{equation.2.25}{}}
\newlabel{p-transportlip}{{2.3}{12}{}{theorem.2.3}{}}
\newlabel{eq:liptrans}{{26}{12}{The transport map and uniqueness of mean-field solutions}{equation.2.26}{}}
\newlabel{uniq}{{2.4}{13}{}{theorem.2.4}{}}
\newlabel{supptot}{{27}{13}{}{equation.2.27}{}}
\newlabel{stab}{{28}{13}{}{equation.2.28}{}}
\@writefile{toc}{\contentsline {section}{\numberline {3}The learning problem for the kernel function}{13}{section.3}}
\newlabel{sec:learn}{{3}{13}{The learning problem for the kernel function}{section.3}{}}
\newlabel{eq-def-error}{{29}{13}{The learning problem for the kernel function}{equation.3.29}{}}
\newlabel{trajapprox}{{3.1}{13}{}{theorem.3.1}{}}
\newlabel{eq:trajapprox}{{30}{13}{}{equation.3.30}{}}
\citation{AFP00}
\newlabel{midpoint}{{31}{15}{The learning problem for the kernel function}{equation.3.31}{}}
\@writefile{toc}{\contentsline {subsection}{\numberline {3.1}The measure $\setbox \z@ \hbox {\frozen@everymath \@emptytoks \mathsurround \z@ $\textstyle \rho $}\mathaccent "0362{\rho }$}{15}{subsection.3.1}}
\newlabel{rhosc}{{3.2}{15}{}{theorem.3.2}{}}
\newlabel{eq-rho-4}{{32}{16}{}{equation.3.32}{}}
\newlabel{lemma-AC-1}{{3.4}{16}{}{theorem.3.4}{}}
\newlabel{le-abs}{{3.5}{17}{}{theorem.3.5}{}}
\newlabel{rhocompact}{{3.6}{18}{}{theorem.3.6}{}}
\@writefile{toc}{\contentsline {subsection}{\numberline {3.2}Coercivity assumption}{18}{subsection.3.2}}
\newlabel{sec:coerc}{{3.2}{18}{Coercivity assumption}{subsection.3.2}{}}
\newlabel{finallyrho}{{33}{18}{Coercivity assumption}{equation.3.33}{}}
\newlabel{eq-rho-3}{{34}{18}{Coercivity assumption}{equation.3.34}{}}
\newlabel{eq-coercive}{{35}{19}{Coercivity assumption}{equation.3.35}{}}
\newlabel{coercN2}{{36}{19}{Coercivity assumption}{equation.3.36}{}}
\newlabel{maxbound}{{37}{20}{Coercivity assumption}{equation.3.37}{}}
\newlabel{coercint}{{38}{20}{Coercivity assumption}{}{}}
\newlabel{coerN4}{{38}{21}{Coercivity assumption}{equation.3.38}{}}
\citation{AFP00}
\newlabel{eq:inftyimplyl2}{{39}{22}{Coercivity assumption}{equation.3.39}{}}
\newlabel{uniquemin}{{3.7}{22}{}{theorem.3.7}{}}
\@writefile{toc}{\contentsline {subsection}{\numberline {3.3}Existence of minimizers of $\mathcal  E_N$}{22}{subsection.3.3}}
\newlabel{XMdef}{{3.8}{22}{}{theorem.3.8}{}}
\newlabel{ENmin}{{3.9}{23}{}{theorem.3.9}{}}
\newlabel{Faest}{{40}{23}{Existence of minimizers of $\mathcal E_N$}{equation.3.40}{}}
\@writefile{toc}{\contentsline {section}{\numberline {4}$\Gamma $-convergence of $\mathcal  E_N$ to $\mathcal  E$}{23}{section.4}}
\citation{fornahuetter}
\newlabel{VNdef}{{4.1}{24}{}{theorem.4.1}{}}
\newlabel{thm}{{4.2}{24}{}{theorem.4.2}{}}
\newlabel{lemma-semicontinuous-1}{{4.3}{24}{}{theorem.4.3}{}}
\newlabel{firstlim}{{41}{25}{$\Gamma $-convergence of $\mathcal E_N$ to $\mathcal E$}{equation.4.41}{}}
\newlabel{pippo3}{{42}{26}{$\Gamma $-convergence of $\mathcal E_N$ to $\mathcal E$}{equation.4.42}{}}
\newlabel{pippo1}{{43}{26}{$\Gamma $-convergence of $\mathcal E_N$ to $\mathcal E$}{equation.4.43}{}}
\newlabel{pippo2}{{44}{26}{$\Gamma $-convergence of $\mathcal E_N$ to $\mathcal E$}{equation.4.44}{}}
\newlabel{fond}{{45}{27}{$\Gamma $-convergence of $\mathcal E_N$ to $\mathcal E$}{equation.4.45}{}}
\@writefile{toc}{\contentsline {section}{\numberline {5}Numerical experiments}{27}{section.5}}
\newlabel{sec:num}{{5}{27}{Numerical experiments}{section.5}{}}
\@writefile{toc}{\contentsline {subsection}{\numberline {5.1}Numerical framework}{28}{subsection.5.1}}
\newlabel{numfram}{{5.1}{28}{Numerical framework}{subsection.5.1}{}}
\newlabel{eq:knots}{{46}{28}{Numerical framework}{equation.5.46}{}}
\newlabel{problem2}{{47}{30}{Numerical framework}{equation.5.47}{}}
\@writefile{toc}{\contentsline {subsection}{\numberline {5.2}Varying $N$}{30}{subsection.5.2}}
\@writefile{lot}{\contentsline {table}{\numberline {1}{\ignorespaces Parameter values for Figure \ref  {variableN} and Figure \ref  {variableN2}}}{30}{table.1}}
\newlabel{tab:fig1}{{1}{30}{Parameter values for Figure \ref {variableN} and Figure \ref {variableN2}}{table.1}{}}
\@writefile{toc}{\contentsline {subsection}{\numberline {5.3}The coercivity constant}{30}{subsection.5.3}}
\@writefile{lof}{\contentsline {figure}{\numberline {1}{\ignorespaces Iterative reconstruction of a potential with different values of $N$. In red: the unknown kernel. In blue: its reconstruction by minimization of $\mathcal  {E}_N$. From left-top to right-bottom: reconstruction with $N = 10$, $N = 20$, $N = 40$, $N = 80$ agents.}}{31}{figure.1}}
\newlabel{variableN}{{1}{31}{Iterative reconstruction of a potential with different values of $N$. In red: the unknown kernel. In blue: its reconstruction by minimization of $\mathcal {E}_N$. From left-top to right-bottom: reconstruction with $N = 10$, $N = 20$, $N = 40$, $N = 80$ agents}{figure.1}{}}
\@writefile{lof}{\contentsline {figure}{\numberline {2}{\ignorespaces Iterative reconstruction of a potential with a singularity at the origin and highly oscillatory behavior. In red: the unknown kernel. In blue: its reconstruction by minimization of $\mathcal  {E}_N$. From left-top to right-bottom: reconstruction with $N = 10$, $N = 20$, $N = 40$, $N = 80$ agents.}}{31}{figure.2}}
\newlabel{variableN2}{{2}{31}{Iterative reconstruction of a potential with a singularity at the origin and highly oscillatory behavior. In red: the unknown kernel. In blue: its reconstruction by minimization of $\mathcal {E}_N$. From left-top to right-bottom: reconstruction with $N = 10$, $N = 20$, $N = 40$, $N = 80$ agents}{figure.2}{}}
\@writefile{lof}{\contentsline {figure}{\numberline {3}{\ignorespaces Plot of $\overline  {\mathcal  {E}}_N(\setbox \z@ \hbox {\frozen@everymath \@emptytoks \mathsurround \z@ $\textstyle a$}\mathaccent "0362{a}_N)$ and $\frac  {1}{10}\delimiter "026B30D a-\setbox \z@ \hbox {\frozen@everymath \@emptytoks \mathsurround \z@ $\textstyle a$}\mathaccent "0362{a}_N\delimiter "026B30D ^2_{L_2(\mathbb  {R}_+,\rho )}$ for different values of $N$. In this experiment, we can estimate the constant $c_T$ with the value $\frac  {1}{10}$.}}{32}{figure.3}}
\newlabel{errorN}{{3}{32}{Plot of $\overline {\mathcal {E}}_N(\widehat {a}_N)$ and $\frac {1}{10}\|a-\widehat {a}_N\|^2_{L_2(\R _+,\rho )}$ for different values of $N$. In this experiment, we can estimate the constant $c_T$ with the value $\frac {1}{10}$}{figure.3}{}}
\@writefile{lof}{\contentsline {figure}{\numberline {4}{\ignorespaces Values of $\overline  {\mathcal  {E}}_N$ for fixed $N = 50$ for different values of $M \in [0,200]$.}}{32}{figure.4}}
\newlabel{Mconstr}{{4}{32}{Values of $\overline {\mathcal {E}}_N$ for fixed $N = 50$ for different values of $M \in [0,200]$}{figure.4}{}}
\@writefile{lot}{\contentsline {table}{\numberline {2}{\ignorespaces Parameter values for Figure \ref  {errorN}}}{32}{table.2}}
\newlabel{tab:fig3}{{2}{32}{Parameter values for Figure \ref {errorN}}{table.2}{}}
\@writefile{toc}{\contentsline {subsection}{\numberline {5.4}Tuning the constraint $M$}{32}{subsection.5.4}}
\@writefile{lot}{\contentsline {table}{\numberline {3}{\ignorespaces Parameter values for Figure \ref  {Mconstr1}}}{33}{table.3}}
\newlabel{tab:figM}{{3}{33}{Parameter values for Figure \ref {Mconstr1}}{table.3}{}}
\@writefile{lof}{\contentsline {figure}{\numberline {5}{\ignorespaces Iterative reconstruction of a potential with different values of $M$. On the left column: the true kernel in white and its reconstructions for different $M$; the brighter the curve, the larger the $M$. On the right column: the true trajectories of the agents in white, the trajectories associated to the reconstructed potentials with the same color.}}{33}{figure.5}}
\newlabel{Mconstr1}{{5}{33}{Iterative reconstruction of a potential with different values of $M$. On the left column: the true kernel in white and its reconstructions for different $M$; the brighter the curve, the larger the $M$. On the right column: the true trajectories of the agents in white, the trajectories associated to the reconstructed potentials with the same color}{figure.5}{}}
\citation{MFOC}
\@writefile{lot}{\contentsline {table}{\numberline {4}{\ignorespaces Parameter values for Figure \ref  {Mconstr}}}{34}{table.4}}
\newlabel{tab:fig4}{{4}{34}{Parameter values for Figure \ref {Mconstr}}{table.4}{}}
\@writefile{toc}{\contentsline {subsection}{\numberline {5.5}Reconstruction with $N$ fixed}{34}{subsection.5.5}}
\@writefile{lot}{\contentsline {table}{\numberline {5}{\ignorespaces Parameter values for Figure \ref  {fixedN}}}{34}{table.5}}
\newlabel{tab:fig5}{{5}{34}{Parameter values for Figure \ref {fixedN}}{table.5}{}}
\@writefile{toc}{\contentsline {section}{\numberline {6}Appendix}{34}{section.6}}
\@writefile{toc}{\contentsline {subsection}{\numberline {6.1}Technical lemmas for the mean-field limit}{34}{subsection.6.1}}
\newlabel{ap1}{{6.1}{34}{Technical lemmas for the mean-field limit}{subsection.6.1}{}}
\newlabel{p-rewritten}{{6.1}{34}{}{theorem.6.1}{}}
\@writefile{lof}{\contentsline {figure}{\numberline {6}{\ignorespaces Reconstruction of $a$ obtained by averaging 5 solutions of the minimization of $\mathcal  {E}_N$ for $N = 50$. In red: the unknown kernel. In blue: the average of reconstructions. In black: 95\% confidence interval.}}{35}{figure.6}}
\newlabel{fixedN}{{6}{35}{Reconstruction of $a$ obtained by averaging 5 solutions of the minimization of $\mathcal {E}_N$ for $N = 50$. In red: the unknown kernel. In blue: the average of reconstructions. In black: 95\% confidence interval}{figure.6}{}}
\newlabel{p-estkernel}{{6.2}{35}{}{theorem.6.2}{}}
\newlabel{p-Floclip}{{6.3}{35}{}{theorem.6.3}{}}
\newlabel{p-Fmuloclip}{{6.4}{35}{}{theorem.6.4}{}}
\citation{MFOC}
\citation{CanCarRos10}
\newlabel{p-lipkernel}{{6.6}{36}{}{theorem.6.6}{}}
\newlabel{eq:bsupp}{{49}{36}{}{equation.6.49}{}}
\citation{Kin-Sta}
\newlabel{eq:inftynormW1}{{50}{37}{}{equation.6.50}{}}
\@writefile{toc}{\contentsline {subsection}{\numberline {6.2}Proof of Proposition \ref  {pr:exist}}{37}{subsection.6.2}}
\newlabel{ap2}{{6.2}{37}{Proof of Proposition \ref {pr:exist}}{subsection.6.2}{}}
\citation{AGS}
\citation{KelleyTop}
\newlabel{Rest}{{51}{38}{Proof of Proposition \ref {pr:exist}}{equation.6.51}{}}
\newlabel{eq:unifconv}{{52}{38}{Proof of Proposition \ref {pr:exist}}{equation.6.52}{}}
\citation{Fil}
\@writefile{toc}{\contentsline {subsection}{\numberline {6.3}Existence and uniqueness of solutions for \textup  {\hbox {\mathsurround \z@ \normalfont  (\ignorespaces \ref  {eq:transpdyn}\unskip \@@italiccorr )}}}{39}{subsection.6.3}}
\newlabel{ap3}{{6.3}{39}{Existence and uniqueness of solutions for \eqref {eq:transpdyn}}{subsection.6.3}{}}
\newlabel{cara}{{53}{39}{Existence and uniqueness of solutions for \eqref {eq:transpdyn}}{equation.6.53}{}}
\newlabel{cara-global}{{6.7}{39}{}{theorem.6.7}{}}
\newlabel{l1}{{54}{39}{}{equation.6.54}{}}
\newlabel{ttz}{{55}{39}{}{equation.6.55}{}}
\newlabel{gron}{{56}{39}{}{equation.6.56}{}}
\citation{Fil}
\newlabel{le:uniquecara}{{6.8}{40}{}{theorem.6.8}{}}
\newlabel{gronvalla}{{57}{40}{}{equation.6.57}{}}
\citation{CanCarRos10}
\citation{CanCarRos10}
\newlabel{eq:uniquecara}{{58}{41}{Existence and uniqueness of solutions for \eqref {eq:transpdyn}}{equation.6.58}{}}
\@writefile{toc}{\contentsline {subsection}{\numberline {6.4}Continuous dependence on the initial data}{41}{subsection.6.4}}
\newlabel{ap4}{{6.4}{41}{Continuous dependence on the initial data}{subsection.6.4}{}}
\newlabel{primstim}{{6.10}{41}{}{theorem.6.10}{}}
\bibstyle{abbrv}
\bibdata{biblio}
\bibcite{AFP00}{1}
\bibcite{AGS}{2}
\bibcite{MR2327596}{3}
\bibcite{MR2249856}{4}
\bibcite{bofohamaXX}{5}
\newlabel{start}{{59}{42}{Continuous dependence on the initial data}{equation.6.59}{}}
\newlabel{stima2}{{60}{42}{Continuous dependence on the initial data}{equation.6.60}{}}
\bibcite{brpi07}{6}
\bibcite{CanCarRos10}{7}
\bibcite{13-Carrillo-Choi-Hauray-MFL}{8}
\bibcite{cafotove10}{9}
\bibcite{CucSma07}{10}
\bibcite{MR1201152}{11}
\bibcite{Fil}{12}
\bibcite{fornahuetter}{13}
\bibcite{MFOC}{14}
\bibcite{heoemascszwa11}{15}
\bibcite{KelleyTop}{16}
\bibcite{Kin-Sta}{17}
\bibcite{mann11}{18}
\bibcite{VCBCS95}{19}
\bibcite{villani}{20}
\@writefile{toc}{\contentsline {chapter}{biblio}{44}{section*.1}}
