\relax 
\providecommand\hyper@newdestlabel[2]{}
\providecommand\HyperFirstAtBeginDocument{\AtBeginDocument}
\HyperFirstAtBeginDocument{\ifx\hyper@anchor\@undefined
\global\let\oldcontentsline\contentsline
\gdef\contentsline#1#2#3#4{\oldcontentsline{#1}{#2}{#3}}
\global\let\oldnewlabel\newlabel
\gdef\newlabel#1#2{\newlabelxx{#1}#2}
\gdef\newlabelxx#1#2#3#4#5#6{\oldnewlabel{#1}{{#2}{#3}}}
\AtEndDocument{\ifx\hyper@anchor\@undefined
\let\contentsline\oldcontentsline
\let\newlabel\oldnewlabel
\fi}
\fi}
\global\let\hyper@last\relax 
\gdef\HyperFirstAtBeginDocument#1{#1}
\providecommand\HyField@AuxAddToFields[1]{}
\providecommand\HyField@AuxAddToCoFields[2]{}
\@writefile{toc}{\contentsline {section}{\numberline {1}The framework}{1}{section.1}}
\@writefile{toc}{\contentsline {section}{\numberline {2}Numerical experiments}{1}{section.2}}
\@writefile{toc}{\contentsline {subsection}{\numberline {2.1}The algorithm}{1}{subsection.2.1}}
\@writefile{toc}{\contentsline {subsubsection}{\numberline {2.1.1}Refinement procedure}{2}{subsubsection.2.1.1}}
\@writefile{toc}{\contentsline {subsubsection}{\numberline {2.1.2}Known issues}{3}{subsubsection.2.1.2}}
\@writefile{toc}{\contentsline {subsection}{\numberline {2.2}Smooth kernel}{4}{subsection.2.2}}
\newlabel{fig:7_2}{{2.2}{4}{Smooth kernel}{subsection.2.2}{}}
\newlabel{fig:7_3}{{2.2}{4}{Smooth kernel}{subsection.2.2}{}}
\newlabel{fig:7_4}{{2.2}{4}{Smooth kernel}{subsection.2.2}{}}
\newlabel{fig:7_5}{{2.2}{4}{Smooth kernel}{subsection.2.2}{}}
\newlabel{fig:7_6}{{2.2}{4}{Smooth kernel}{subsection.2.2}{}}
\newlabel{fig:7_7}{{2.2}{4}{Smooth kernel}{subsection.2.2}{}}
\@writefile{lof}{\contentsline {figure}{\numberline {1}{\ignorespaces }}{4}{figure.1}}
\newlabel{fig:7}{{1}{4}{}{figure.1}{}}
\@writefile{toc}{\contentsline {subsection}{\numberline {2.3}Oscillatory kernel}{4}{subsection.2.3}}
\newlabel{fig:8_2}{{2.3}{5}{Oscillatory kernel}{subsection.2.3}{}}
\newlabel{fig:8_3}{{2.3}{5}{Oscillatory kernel}{subsection.2.3}{}}
\newlabel{fig:8_4}{{2.3}{5}{Oscillatory kernel}{subsection.2.3}{}}
\newlabel{fig:8_5}{{2.3}{5}{Oscillatory kernel}{subsection.2.3}{}}
\newlabel{fig:8_6}{{2.3}{5}{Oscillatory kernel}{subsection.2.3}{}}
\newlabel{fig:8_7}{{2.3}{5}{Oscillatory kernel}{subsection.2.3}{}}
\@writefile{lof}{\contentsline {figure}{\numberline {2}{\ignorespaces }}{5}{figure.2}}
\newlabel{fig:8}{{2}{5}{}{figure.2}{}}
\@writefile{toc}{\contentsline {subsection}{\numberline {2.4}Discontinuous kernel}{5}{subsection.2.4}}
\newlabel{fig:9_2}{{2.4}{6}{Discontinuous kernel}{subsection.2.4}{}}
\newlabel{fig:9_3}{{2.4}{6}{Discontinuous kernel}{subsection.2.4}{}}
\newlabel{fig:9_4}{{2.4}{6}{Discontinuous kernel}{subsection.2.4}{}}
\newlabel{fig:9_5}{{2.4}{6}{Discontinuous kernel}{subsection.2.4}{}}
\newlabel{fig:9_6}{{2.4}{6}{Discontinuous kernel}{subsection.2.4}{}}
\newlabel{fig:9_7}{{2.4}{6}{Discontinuous kernel}{subsection.2.4}{}}
\@writefile{lof}{\contentsline {figure}{\numberline {3}{\ignorespaces }}{6}{figure.3}}
\newlabel{fig:9}{{3}{6}{}{figure.3}{}}
