\relax 
\providecommand\hyper@newdestlabel[2]{}
\providecommand\HyperFirstAtBeginDocument{\AtBeginDocument}
\HyperFirstAtBeginDocument{\ifx\hyper@anchor\@undefined
\global\let\oldcontentsline\contentsline
\gdef\contentsline#1#2#3#4{\oldcontentsline{#1}{#2}{#3}}
\global\let\oldnewlabel\newlabel
\gdef\newlabel#1#2{\newlabelxx{#1}#2}
\gdef\newlabelxx#1#2#3#4#5#6{\oldnewlabel{#1}{{#2}{#3}}}
\AtEndDocument{\ifx\hyper@anchor\@undefined
\let\contentsline\oldcontentsline
\let\newlabel\oldnewlabel
\fi}
\fi}
\global\let\hyper@last\relax 
\gdef\HyperFirstAtBeginDocument#1{#1}
\providecommand\HyField@AuxAddToFields[1]{}
\providecommand\HyField@AuxAddToCoFields[2]{}
\citation{CS}
\citation{lennard24}
\citation{reynolds1987flocks}
\citation{vicsek2012collective}
\citation{AGS}
\@writefile{toc}{\contentsline {section}{\numberline {1}Introduction}{1}{section.1}}
\citation{AGS}
\citation{villani}
\@writefile{toc}{\contentsline {section}{\numberline {2}Preliminaries}{2}{section.2}}
\newlabel{meanfield}{{2}{2}{Preliminaries}{section.2}{}}
\newlabel{e_Wp}{{1}{2}{Preliminaries}{equation.2.1}{}}
\citation{MFOC}
\@writefile{toc}{\contentsline {subsection}{\numberline {2.1}The mean-field limit and an existence result}{3}{subsection.2.1}}
\newlabel{eq:contdyn}{{2}{3}{The mean-field limit and an existence result}{equation.2.2}{}}
\newlabel{eq:discrdyn}{{3}{3}{The mean-field limit and an existence result}{equation.2.3}{}}
\newlabel{eq:discr1}{{4}{3}{The mean-field limit and an existence result}{equation.2.4}{}}
\newlabel{eq:empmeas}{{5}{3}{The mean-field limit and an existence result}{equation.2.5}{}}
\newlabel{p-rewritten}{{2.2}{3}{}{theorem.2.2}{}}
\newlabel{p-estkernel}{{2.3}{4}{}{theorem.2.3}{}}
\newlabel{p-Floclip}{{2.4}{4}{}{theorem.2.4}{}}
\newlabel{p-Fmuloclip}{{2.5}{4}{}{theorem.2.5}{}}
\citation{MFOC}
\citation{CanCarRos10}
\newlabel{p-lipkernel}{{2.7}{5}{}{theorem.2.7}{}}
\newlabel{eq:bsupp}{{6}{5}{}{equation.2.6}{}}
\newlabel{eq:inftynormW1}{{7}{5}{}{equation.2.7}{}}
\citation{Kin-Sta}
\newlabel{pr:exist}{{2.8}{6}{}{theorem.2.8}{}}
\newlabel{Rest}{{8}{6}{The mean-field limit and an existence result}{equation.2.8}{}}
\citation{KelleyTop}
\newlabel{eq:unifconv}{{9}{7}{The mean-field limit and an existence result}{equation.2.9}{}}
\citation{Fil}
\@writefile{toc}{\contentsline {subsection}{\numberline {2.2}The transport map and a uniqueness result}{8}{subsection.2.2}}
\newlabel{eq:transpdyn}{{10}{8}{The transport map and a uniqueness result}{equation.2.10}{}}
\newlabel{cara}{{11}{8}{The transport map and a uniqueness result}{equation.2.11}{}}
\newlabel{cara-global}{{2.9}{8}{}{theorem.2.9}{}}
\newlabel{l1}{{12}{8}{}{equation.2.12}{}}
\newlabel{ttz}{{13}{8}{}{equation.2.13}{}}
\citation{Fil}
\newlabel{gron}{{14}{9}{}{equation.2.14}{}}
\newlabel{le:uniquecara}{{2.10}{9}{}{theorem.2.10}{}}
\newlabel{gronvalla}{{15}{9}{}{equation.2.15}{}}
\citation{CanCarRos10}
\newlabel{eq:uniquecara}{{16}{10}{The transport map and a uniqueness result}{equation.2.16}{}}
\citation{CanCarRos10}
\citation{CanCarRos10}
\newlabel{eq:fixedpoint}{{17}{11}{The transport map and a uniqueness result}{equation.2.17}{}}
\newlabel{p-transportlip}{{2.12}{11}{}{theorem.2.12}{}}
\newlabel{eq:liptrans}{{18}{11}{The transport map and a uniqueness result}{equation.2.18}{}}
\newlabel{primstim}{{2.13}{11}{}{theorem.2.13}{}}
\newlabel{uniq}{{2.14}{12}{}{theorem.2.14}{}}
\newlabel{supptot}{{19}{12}{}{equation.2.19}{}}
\newlabel{stab}{{20}{12}{}{equation.2.20}{}}
\newlabel{start}{{21}{12}{The transport map and a uniqueness result}{equation.2.21}{}}
\newlabel{stima2}{{22}{12}{The transport map and a uniqueness result}{equation.2.22}{}}
\@writefile{toc}{\contentsline {section}{\numberline {3}The error functional $E$}{12}{section.3}}
\citation{fornahuetter}
\newlabel{eq-def-error}{{23}{13}{The error functional $E$}{equation.3.23}{}}
\newlabel{initiconv}{{24}{13}{The error functional $E$}{equation.3.24}{}}
\newlabel{finalconv}{{25}{13}{The error functional $E$}{equation.3.25}{}}
\newlabel{midpoint}{{26}{14}{The error functional $E$}{equation.3.26}{}}
\citation{AFP00}
\@writefile{toc}{\contentsline {subsection}{\numberline {3.1}The measure $\rho $}{15}{subsection.3.1}}
\newlabel{rhosc}{{3.1}{15}{}{theorem.3.1}{}}
\newlabel{eq-rho-4}{{27}{15}{}{equation.3.27}{}}
\newlabel{lemma-AC-1}{{3.3}{16}{}{theorem.3.3}{}}
\newlabel{le-abs}{{3.4}{16}{}{theorem.3.4}{}}
\newlabel{rhocompact}{{3.5}{17}{}{theorem.3.5}{}}
\citation{AFP00}
\@writefile{toc}{\contentsline {subsection}{\numberline {3.2}Coercivity assumptions and the existence of minimizers of $E_N$}{18}{subsection.3.2}}
\newlabel{eq-rho-3}{{28}{18}{Coercivity assumptions and the existence of minimizers of $E_N$}{equation.3.28}{}}
\newlabel{eq-coercive}{{29}{18}{Coercivity assumptions and the existence of minimizers of $E_N$}{equation.3.29}{}}
\newlabel{eq:inftyimplyl2}{{30}{18}{Coercivity assumptions and the existence of minimizers of $E_N$}{equation.3.30}{}}
\newlabel{uniquemin}{{3.6}{18}{}{theorem.3.6}{}}
\newlabel{XMdef}{{3.7}{19}{}{theorem.3.7}{}}
\newlabel{ENmin}{{3.8}{19}{}{theorem.3.8}{}}
\newlabel{Faest}{{31}{19}{Coercivity assumptions and the existence of minimizers of $E_N$}{equation.3.31}{}}
\@writefile{toc}{\contentsline {section}{\numberline {4}$\Gamma $-convergence of the $E_N$ to $E$}{20}{section.4}}
\newlabel{VNdef}{{4.1}{20}{}{theorem.4.1}{}}
\newlabel{thm}{{4.2}{20}{}{theorem.4.2}{}}
\citation{fornahuetter}
\newlabel{lemma-semicontinuous-1}{{4.3}{21}{}{theorem.4.3}{}}
\newlabel{firstlim}{{32}{22}{$\Gamma $-convergence of the $E_N$ to $E$}{equation.4.32}{}}
\bibstyle{abbrv}
\bibdata{biblio}
\bibcite{AFP00}{1}
\bibcite{AGS}{2}
\bibcite{CanCarRos10}{3}
\bibcite{CS}{4}
\bibcite{Fil}{5}
\bibcite{fornahuetter}{6}
\bibcite{MFOC}{7}
\bibcite{KelleyTop}{8}
\bibcite{Kin-Sta}{9}
\bibcite{lennard24}{10}
\bibcite{reynolds1987flocks}{11}
\bibcite{vicsek2012collective}{12}
\newlabel{fond}{{33}{24}{$\Gamma $-convergence of the $E_N$ to $E$}{equation.4.33}{}}
\bibcite{villani}{13}
\@writefile{toc}{\contentsline {chapter}{biblio}{25}{section*.1}}
