%!PS-Adobe-3.0 EPSF-3.0
%%Creator: MATLAB, The MathWorks, Inc. Version 8.0.0.783 (R2012b). Operating System: Darwin 13.3.0 Darwin Kernel Version 13.3.0: Tue Jun  3 21:27:35 PDT 2014; root:xnu-2422.110.17~1/RELEASE_X86_64 x86_64.
%%Title: /Users/mattia/Downloads/Dropbox/Latex/dynamicslearning/pictures/Example9/Fig2.eps
%%CreationDate: 07/30/2014  15:55:15
%%DocumentNeededFonts: Helvetica
%%DocumentProcessColors: Cyan Magenta Yellow Black
%%LanguageLevel: 2
%%Pages: 1
%%BoundingBox:    26   186   585   606
%%EndComments

%%BeginProlog
% MathWorks dictionary
/MathWorks 160 dict begin
% definition operators
/bdef {bind def} bind def
/ldef {load def} bind def
/xdef {exch def} bdef
/xstore {exch store} bdef
% operator abbreviations
/c  /clip ldef
/cc /concat ldef
/cp /closepath ldef
/gr /grestore ldef
/gs /gsave ldef
/mt /moveto ldef
/np /newpath ldef
/cm /currentmatrix ldef
/sm /setmatrix ldef
/rm /rmoveto ldef
/rl /rlineto ldef
/s {show newpath} bdef
/sc {setcmykcolor} bdef
/sr /setrgbcolor ldef
/sg /setgray ldef
/w /setlinewidth ldef
/j /setlinejoin ldef
/cap /setlinecap ldef
/rc {rectclip} bdef
/rf {rectfill} bdef
% page state control
/pgsv () def
/bpage {/pgsv save def} bdef
/epage {pgsv restore} bdef
/bplot /gsave ldef
/eplot {stroke grestore} bdef
% orientation switch
/portraitMode 0 def /landscapeMode 1 def /rotateMode 2 def
% coordinate system mappings
/dpi2point 0 def
% font control
/FontSize 0 def
/FMS {/FontSize xstore findfont [FontSize 0 0 FontSize neg 0 0]
  makefont setfont} bdef
/reencode {exch dup where {pop load} {pop StandardEncoding} ifelse
  exch dup 3 1 roll findfont dup length dict begin
  { 1 index /FID ne {def}{pop pop} ifelse } forall
  /Encoding exch def currentdict end definefont pop} bdef
/isroman {findfont /CharStrings get /Agrave known} bdef
/FMSR {3 1 roll 1 index dup isroman {reencode} {pop pop} ifelse
  exch FMS} bdef
/csm {1 dpi2point div -1 dpi2point div scale neg translate
 dup landscapeMode eq {pop -90 rotate}
  {rotateMode eq {90 rotate} if} ifelse} bdef
% line types: solid, dotted, dashed, dotdash
/SO { [] 0 setdash } bdef
/DO { [.5 dpi2point mul 4 dpi2point mul] 0 setdash } bdef
/DA { [6 dpi2point mul] 0 setdash } bdef
/DD { [.5 dpi2point mul 4 dpi2point mul 6 dpi2point mul 4
  dpi2point mul] 0 setdash } bdef
% macros for lines and objects
/L {lineto stroke} bdef
/MP {3 1 roll moveto 1 sub {rlineto} repeat} bdef
/AP {{rlineto} repeat} bdef
/PDlw -1 def
/W {/PDlw currentlinewidth def setlinewidth} def
/PP {closepath eofill} bdef
/DP {closepath stroke} bdef
/MR {4 -2 roll moveto dup  0 exch rlineto exch 0 rlineto
  neg 0 exch rlineto closepath} bdef
/FR {MR stroke} bdef
/PR {MR fill} bdef
/L1i {{currentfile picstr readhexstring pop} image} bdef
/tMatrix matrix def
/MakeOval {newpath tMatrix currentmatrix pop translate scale
0 0 1 0 360 arc tMatrix setmatrix} bdef
/FO {MakeOval stroke} bdef
/PO {MakeOval fill} bdef
/PD {currentlinewidth 2 div 0 360 arc fill
   PDlw -1 eq not {PDlw w /PDlw -1 def} if} def
/FA {newpath tMatrix currentmatrix pop translate scale
  0 0 1 5 -2 roll arc tMatrix setmatrix stroke} bdef
/PA {newpath tMatrix currentmatrix pop	translate 0 0 moveto scale
  0 0 1 5 -2 roll arc closepath tMatrix setmatrix fill} bdef
/FAn {newpath tMatrix currentmatrix pop translate scale
  0 0 1 5 -2 roll arcn tMatrix setmatrix stroke} bdef
/PAn {newpath tMatrix currentmatrix pop translate 0 0 moveto scale
  0 0 1 5 -2 roll arcn closepath tMatrix setmatrix fill} bdef
/vradius 0 def /hradius 0 def /lry 0 def
/lrx 0 def /uly 0 def /ulx 0 def /rad 0 def
/MRR {/vradius xdef /hradius xdef /lry xdef /lrx xdef /uly xdef
  /ulx xdef newpath tMatrix currentmatrix pop ulx hradius add uly
  vradius add translate hradius vradius scale 0 0 1 180 270 arc 
  tMatrix setmatrix lrx hradius sub uly vradius add translate
  hradius vradius scale 0 0 1 270 360 arc tMatrix setmatrix
  lrx hradius sub lry vradius sub translate hradius vradius scale
  0 0 1 0 90 arc tMatrix setmatrix ulx hradius add lry vradius sub
  translate hradius vradius scale 0 0 1 90 180 arc tMatrix setmatrix
  closepath} bdef
/FRR {MRR stroke } bdef
/PRR {MRR fill } bdef
/MlrRR {/lry xdef /lrx xdef /uly xdef /ulx xdef /rad lry uly sub 2 div def
  newpath tMatrix currentmatrix pop ulx rad add uly rad add translate
  rad rad scale 0 0 1 90 270 arc tMatrix setmatrix lrx rad sub lry rad
  sub translate rad rad scale 0 0 1 270 90 arc tMatrix setmatrix
  closepath} bdef
/FlrRR {MlrRR stroke } bdef
/PlrRR {MlrRR fill } bdef
/MtbRR {/lry xdef /lrx xdef /uly xdef /ulx xdef /rad lrx ulx sub 2 div def
  newpath tMatrix currentmatrix pop ulx rad add uly rad add translate
  rad rad scale 0 0 1 180 360 arc tMatrix setmatrix lrx rad sub lry rad
  sub translate rad rad scale 0 0 1 0 180 arc tMatrix setmatrix
  closepath} bdef
/FtbRR {MtbRR stroke } bdef
/PtbRR {MtbRR fill } bdef
/stri 6 array def /dtri 6 array def
/smat 6 array def /dmat 6 array def
/tmat1 6 array def /tmat2 6 array def /dif 3 array def
/asub {/ind2 exch def /ind1 exch def dup dup
  ind1 get exch ind2 get sub exch } bdef
/tri_to_matrix {
  2 0 asub 3 1 asub 4 0 asub 5 1 asub
  dup 0 get exch 1 get 7 -1 roll astore } bdef
/compute_transform {
  dmat dtri tri_to_matrix tmat1 invertmatrix 
  smat stri tri_to_matrix tmat2 concatmatrix } bdef
/ds {stri astore pop} bdef
/dt {dtri astore pop} bdef
/db {2 copy /cols xdef /rows xdef mul dup 3 mul string
  currentfile 
  3 index 0 eq {/ASCIIHexDecode filter}
  {/ASCII85Decode filter 3 index 2 eq {/RunLengthDecode filter} if }
  ifelse exch readstring pop
  dup 0 3 index getinterval /rbmap xdef
  dup 2 index dup getinterval /gbmap xdef
  1 index dup 2 mul exch getinterval /bbmap xdef pop pop}bdef
/it {gs np dtri aload pop moveto lineto lineto cp c
  cols rows 8 compute_transform 
  rbmap gbmap bbmap true 3 colorimage gr}bdef
/il {newpath moveto lineto stroke}bdef
currentdict end def
%%EndProlog

%%BeginSetup
MathWorks begin

0 cap

end
%%EndSetup

%%Page: 1 1
%%BeginPageSetup
%%PageBoundingBox:    26   186   585   606
MathWorks begin
bpage
%%EndPageSetup

%%BeginObject: obj1
bplot

/dpi2point 12 def
portraitMode 0312 7272 csm

    0     0  6708  5040 rc
85 dict begin %Colortable dictionary
/c0 { 0.000000 0.000000 0.000000 sr} bdef
/c1 { 1.000000 1.000000 1.000000 sr} bdef
/c2 { 0.900000 0.000000 0.000000 sr} bdef
/c3 { 0.000000 0.820000 0.000000 sr} bdef
/c4 { 0.000000 0.000000 0.800000 sr} bdef
/c5 { 0.910000 0.820000 0.320000 sr} bdef
/c6 { 1.000000 0.260000 0.820000 sr} bdef
/c7 { 0.000000 0.820000 0.820000 sr} bdef
c0
1 j
1 sg
   0    0 6709 5041 rf
6 w
0 4108 5199 0 0 -4108 872 4486 4 MP
PP
-5199 0 0 4108 5199 0 0 -4108 872 4486 5 MP stroke
4 w
DO
SO
6 w
0 sg
 872 4486 mt 6071 4486 L
 872 4486 mt  872  378 L
 872 4486 mt  872 4434 L
%%IncludeResource: font Helvetica
/Helvetica /ISOLatin1Encoding 120 FMSR

 839 4631 mt 
(0) s
1391 4486 mt 1391 4434 L
1325 4631 mt 
(10) s
1911 4486 mt 1911 4434 L
1845 4631 mt 
(20) s
2431 4486 mt 2431 4434 L
2365 4631 mt 
(30) s
2951 4486 mt 2951 4434 L
2885 4631 mt 
(40) s
3471 4486 mt 3471 4434 L
3405 4631 mt 
(50) s
3991 4486 mt 3991 4434 L
3925 4631 mt 
(60) s
4511 4486 mt 4511 4434 L
4445 4631 mt 
(70) s
5031 4486 mt 5031 4434 L
4965 4631 mt 
(80) s
5551 4486 mt 5551 4434 L
5485 4631 mt 
(90) s
6071 4486 mt 6071 4434 L
5971 4631 mt 
(100) s
 872 4486 mt  923 4486 L
 534 4530 mt 
(-0.01) s
 872 3899 mt  923 3899 L
 771 3943 mt 
(0) s
 872 3312 mt  923 3312 L
 604 3356 mt 
(0.01) s
 872 2725 mt  923 2725 L
 604 2769 mt 
(0.02) s
 872 2138 mt  923 2138 L
 604 2182 mt 
(0.03) s
 872 1551 mt  923 1551 L
 604 1595 mt 
(0.04) s
 872  964 mt  923  964 L
 604 1008 mt 
(0.05) s
 872  378 mt  923  378 L
 604  422 mt 
(0.06) s
gs 872 378 5200 4109 rc
/c8 { 0.000000 0.000000 1.000000 sr} bdef
c8
1 0 1 0 1 0 1 0 1 0 1 0 1 0 1 0 
1 0 1 0 1 0 1 0 1 0 1 0 1 0 1 0 
1 0 1 0 1 0 1 0 1 0 1 0 1 0 1 0 
1 0 1 0 1 0 1 0 1 0 1 0 1 0 1 0 
1 0 1 0 1 0 1 0 1 0 1 0 1 0 1 0 
1 0 1 0 1 0 1 0 1 0 1 0 1 0 1 0 
1 0 1 0 1 0 1 0 1 0 1 0 1 0 1 0 
1 0 1 0 1 0 1 0 1 0 1 0 1 0 1 0 
1 0 1 0 1 0 1 0 1 0 1 0 1 0 1 0 
1 0 1 0 1 0 1 0 1 0 1 0 1 0 1 0 
1 0 1 0 1 0 1 0 1 0 1 0 1 0 1 0 
1 0 1 0 1 0 1 0 1 0 1 0 1 0 1 0 
1 0 1 0 1 0 1 0 1 0 1 0 1 0 1 0 
1 0 1 0 1 0 1 0 1 0 1 0 1 0 1 0 
1 0 1 0 1 0 1 0 1 0 1 0 1 0 1 0 
1 0 1 0 1 0 1 0 1 0 1 0 1 0 1 0 
1 0 1 0 1 0 1 0 1 0 1 0 1 0 1 0 
1 0 1 0 1 0 1 0 1 0 1 0 1 0 1 0 
1 0 1 0 1 0 1 0 1 0 1 0 1 0 1 0 
1 0 1 0 1 0 1 0 1 0 1 0 1 0 1 0 
1 0 1 1 1 0 1 0 1 0 1 0 1 0 1 0 
1 0 1 0 1 0 1 0 1 0 1 0 1 0 1 0 
1 0 1 0 1 0 1 0 1 0 1 0 1 0 1 0 
1 0 1 0 1 0 1 0 1 0 1 0 1 0 1 0 
1 0 1 0 1 0 1 0 1 0 1 0 1 0 1 0 
1 0 1 0 1 0 1 0 1 0 1 0 1 0 1 0 
1 0 1 0 1 0 1 0 1 0 1 0 1 0 1 0 
1 0 1 0 1 0 1 0 1 0 1 0 1 0 1 0 
1 0 1 0 1 0 1 0 1 0 1 0 1 0 1 0 
1 0 1 0 1 0 1 0 1 0 1 0 1 0 1 0 
1 0 1 0 1 0 1 0 1 0 1 0 1 0 1 0 
1 0 1 0 1 0 1 0 1 0 1 0 1 0 1 0 
1 0 1 0 1 0 1 0 1 0 1 0 1 0 1 0 
1 0 1 0 1 0 1 0 1 0 1 0 1 0 1 0 
1 0 1 0 1 0 1 0 1 0 1 0 1 0 1 0 
1 0 1 0 1 0 1 0 1 0 1 0 1 0 1 0 
1 0 1 0 1 0 1 0 1 0 1 0 1 0 1 0 
1 0 1 0 1 0 5772 3898 300 MP stroke
1 0 1 0 1 0 1 0 1 0 1 0 1 0 1 0 
1 0 1 0 1 0 1 0 1 0 1 0 1 0 1 0 
1 0 1 0 1 0 1 0 1 0 1 0 1 0 1 0 
1 0 1 0 1 0 1 0 1 0 1 0 1 0 1 0 
1 0 1 0 1 0 1 0 1 0 1 0 1 0 1 0 
1 0 1 0 1 0 1 0 1 0 1 0 1 0 1 0 
1 0 1 0 1 0 1 0 1 0 1 0 1 0 1 0 
1 0 1 0 1 0 1 0 1 0 1 0 1 0 1 0 
1 0 1 0 1 0 1 0 1 0 1 0 1 0 1 0 
1 0 1 0 1 0 1 0 1 0 1 0 1 0 1 0 
1 0 1 0 1 0 1 0 1 0 1 0 1 0 1 0 
1 0 1 0 1 0 1 0 1 0 1 0 1 0 1 0 
1 0 1 0 1 0 1 0 1 0 1 0 1 0 1 0 
1 0 1 0 1 0 1 0 1 0 1 0 1 0 1 0 
1 0 1 0 1 0 1 0 1 0 1 0 1 0 1 0 
1 0 1 0 1 0 1 0 1 0 1 0 1 0 1 0 
1 0 1 0 1 0 1 0 1 0 1 0 1 0 1 0 
1 0 1 0 1 0 1 0 1 0 1 0 1 0 1 0 
1 0 1 1 1 0 1 0 1 0 1 0 1 0 1 0 
1 0 1 0 1 0 1 0 1 0 1 0 1 0 1 0 
1 0 1 0 1 0 1 0 1 0 1 0 1 0 1 0 
1 0 1 0 1 0 1 0 1 0 1 0 1 0 1 0 
1 0 1 0 1 0 1 0 1 0 1 0 1 1 1 0 
1 0 1 0 1 0 1 0 1 0 1 0 1 0 1 0 
1 0 1 0 1 0 1 0 1 0 1 0 1 0 1 0 
1 0 1 0 1 1 1 0 1 0 1 0 1 0 1 0 
1 0 1 0 1 0 1 0 1 0 1 0 1 0 1 0 
1 0 1 0 1 1 1 0 1 0 1 0 1 0 1 0 
1 0 1 0 1 0 1 0 1 0 1 0 1 0 1 1 
1 0 1 0 1 0 1 0 1 0 1 0 1 0 1 0 
1 0 1 0 1 0 1 1 1 0 1 0 1 0 1 0 
1 0 1 0 1 0 1 0 1 0 1 0 1 1 1 0 
1 0 1 0 1 0 1 0 1 0 1 0 1 0 1 0 
1 1 1 0 1 0 1 0 1 0 1 0 1 0 1 0 
1 0 1 1 1 0 1 0 1 0 1 0 1 0 1 0 
1 0 1 0 1 1 1 0 1 0 1 0 1 0 1 0 
1 0 1 0 1 1 1 0 1 0 1 0 1 0 1 0 
1 0 1 0 1 1 5473 3886 300 MP stroke
1 0 1 0 1 0 1 0 1 0 1 0 1 0 1 1 
1 0 1 0 1 0 1 0 1 0 1 1 1 0 1 0 
1 0 1 0 1 0 1 0 1 0 1 1 1 0 1 0 
1 0 1 0 1 0 1 1 1 0 1 0 1 0 1 0 
1 0 1 0 1 1 1 0 1 0 1 0 1 0 1 0 
1 1 1 0 1 0 1 0 1 0 1 0 1 1 1 0 
1 0 1 0 1 0 1 0 1 1 1 0 1 0 1 0 
1 0 1 0 1 1 1 0 1 0 1 0 1 0 1 1 
1 0 1 0 1 0 1 0 1 1 1 0 1 0 1 0 
1 0 1 0 1 1 1 0 1 0 1 0 1 0 1 1 
1 0 1 0 1 0 1 0 1 0 1 1 1 0 1 0 
1 0 1 1 1 0 1 0 1 0 1 0 1 1 1 0 
1 0 1 0 1 0 1 1 1 0 1 0 1 0 1 0 
1 1 1 0 1 0 1 0 1 0 1 1 1 0 1 0 
1 0 1 1 1 0 1 0 1 0 1 0 1 1 1 0 
1 0 1 0 1 1 1 0 1 0 1 0 1 0 1 1 
1 0 1 0 1 0 1 1 1 0 1 0 1 0 1 1 
1 0 1 0 1 0 1 1 1 0 1 0 1 0 1 1 
1 0 1 0 1 0 1 0 1 1 1 0 1 0 1 0 
1 1 1 0 1 0 1 0 1 1 1 0 1 0 1 1 
1 0 1 0 1 0 1 0 1 1 1 0 1 0 1 1 
1 0 1 0 1 0 1 1 1 0 1 0 1 0 1 1 
1 0 1 0 1 0 1 1 1 0 1 0 1 1 1 0 
1 0 1 0 1 1 1 0 1 0 1 0 1 1 1 0 
1 0 1 1 1 0 1 0 1 0 1 1 1 0 1 0 
1 1 1 0 1 0 1 0 1 1 1 0 1 0 1 1 
1 0 1 0 1 1 1 0 1 0 1 0 1 1 1 0 
1 0 1 1 1 0 1 0 1 0 1 1 1 0 1 0 
1 1 1 0 1 0 1 1 1 0 1 0 1 0 1 1 
1 0 1 0 1 1 1 0 1 0 1 1 1 0 1 0 
1 1 1 0 1 0 1 1 1 0 1 0 1 1 1 0 
1 0 1 1 1 0 1 0 1 0 1 1 1 0 1 0 
1 1 1 0 1 0 1 1 1 0 1 1 1 0 1 0 
1 1 1 0 1 0 1 0 1 1 1 0 1 0 1 1 
1 0 1 1 1 0 1 0 1 1 1 0 1 0 1 0 
1 1 1 0 1 1 1 0 1 0 1 1 1 0 1 0 
1 1 1 0 1 0 1 0 1 1 1 0 1 0 1 1 
1 0 1 0 1 1 5174 3813 300 MP stroke
1 0 1 1 1 0 1 0 1 1 1 0 1 0 1 0 
1 1 1 0 1 0 1 1 1 0 1 0 1 1 1 0 
1 0 1 1 1 0 1 0 1 1 1 0 1 0 1 1 
1 0 1 0 1 0 1 1 1 0 1 0 1 1 1 0 
1 0 1 1 1 0 1 0 1 1 1 0 1 0 1 1 
1 0 1 0 1 0 1 1 1 0 1 0 1 1 1 0 
1 0 1 1 1 0 1 0 1 1 1 0 1 0 1 0 
1 1 1 0 1 0 1 1 1 0 1 0 1 0 1 1 
1 0 1 0 1 1 1 0 1 0 1 1 1 0 1 0 
1 0 1 1 1 0 1 0 1 1 1 0 1 0 1 1 
1 0 1 0 1 0 1 1 1 0 1 0 1 0 1 1 
1 0 1 0 1 1 1 0 1 0 1 1 1 0 1 0 
1 0 1 1 1 0 1 0 1 0 1 1 1 0 1 0 
1 1 1 0 1 0 1 1 1 0 1 0 1 0 1 1 
1 0 1 0 1 0 1 1 1 0 1 0 1 1 1 0 
1 0 1 0 1 1 1 0 1 0 1 0 1 1 1 0 
1 0 1 1 1 0 1 0 1 0 1 1 1 0 1 0 
1 0 1 1 1 0 1 0 1 0 1 1 1 0 1 0 
1 1 1 0 1 0 1 0 1 1 1 0 1 0 1 0 
1 1 1 0 1 0 1 0 1 1 1 0 1 0 1 0 
1 1 1 0 1 0 1 0 1 1 1 0 1 0 1 0 
1 1 1 0 1 0 1 0 1 1 1 0 1 0 1 0 
1 1 1 0 1 0 1 0 1 1 1 0 1 0 1 0 
1 1 1 0 1 0 1 0 1 1 1 0 1 0 1 0 
1 1 1 0 1 0 1 0 1 1 1 0 1 0 1 0 
1 1 1 0 1 0 1 0 1 0 1 1 1 0 1 0 
1 0 1 1 1 0 1 0 1 0 1 1 1 0 1 0 
1 0 1 1 1 0 1 0 1 0 1 0 1 1 1 0 
1 0 1 0 1 1 1 0 1 0 1 0 1 0 1 1 
1 0 1 0 1 0 1 1 1 0 1 0 1 0 1 1 
1 0 1 0 1 0 1 0 1 1 1 0 1 0 1 0 
1 1 1 0 1 0 1 0 1 0 1 1 1 0 1 0 
1 0 1 0 1 1 1 0 1 0 1 0 1 1 1 0 
1 0 1 0 1 0 1 0 1 1 1 0 1 0 1 0 
1 1 1 0 1 0 1 0 1 0 1 1 1 0 1 0 
1 0 1 0 1 1 1 0 1 0 1 0 1 0 1 1 
1 0 1 0 1 0 1 0 1 1 1 0 1 0 1 0 
1 0 1 1 1 0 4875 3735 300 MP stroke
1 0 1 0 1 0 1 1 1 0 1 0 1 0 1 0 
1 1 1 0 1 0 1 0 1 0 1 1 1 0 1 0 
1 0 1 0 1 0 1 1 1 0 1 0 1 0 1 0 
1 1 1 0 1 0 1 0 1 0 1 1 1 0 1 0 
1 0 1 0 1 0 1 1 1 0 1 0 1 0 1 0 
1 0 1 1 1 0 1 0 1 0 1 0 1 0 1 1 
1 0 1 0 1 0 1 0 1 1 1 0 1 0 1 0 
1 0 1 0 1 1 1 0 1 0 1 0 1 0 1 0 
1 1 1 0 1 0 1 0 1 0 1 0 1 1 1 0 
1 0 1 0 1 0 1 0 1 1 1 0 1 0 1 0 
1 0 1 0 1 1 1 0 1 0 1 0 1 0 1 0 
1 0 1 1 1 0 1 0 1 0 1 0 1 0 1 1 
1 0 1 0 1 0 1 0 1 0 1 0 1 1 1 0 
1 0 1 0 1 0 1 0 1 1 1 0 1 0 1 0 
1 0 1 0 1 0 1 0 1 1 1 0 1 0 1 0 
1 0 1 0 1 0 1 0 1 0 1 1 1 0 1 0 
1 0 1 0 1 0 1 0 1 0 1 0 1 0 1 0 
1 1 1 0 1 0 1 0 1 0 1 0 1 0 1 0 
1 0 1 0 1 0 1 0 1 0 1 0 1 0 1 0 
1 0 1 1 1 0 1 0 1 0 1 0 1 0 1 0 
1 0 1 0 1 0 1 0 1 0 1 0 1 0 1 0 
1 0 1 0 1 0 1 0 1 0 1 0 1 0 1 0 
1 0 1 0 1 0 1 0 1 0 1 0 1 0 1 0 
1 0 1 0 1 -1 1 0 1 0 1 0 1 0 1 0 
1 0 1 0 1 0 1 0 1 0 1 0 1 0 1 0 
1 0 1 0 1 0 1 0 1 -1 1 0 1 0 1 0 
1 0 1 0 1 0 1 0 1 0 1 0 1 0 1 -1 
1 0 1 0 1 0 1 0 1 0 1 0 1 0 1 0 
1 -1 1 0 1 0 1 0 1 0 1 0 1 0 1 0 
1 -1 1 0 1 0 1 0 1 0 1 0 1 -1 1 0 
1 0 1 0 1 0 1 0 1 0 1 -1 1 0 1 0 
1 0 1 0 1 -1 1 0 1 0 1 0 1 0 1 0 
1 -1 1 0 1 0 1 0 1 -1 1 0 1 0 1 0 
1 0 1 -1 1 0 1 0 1 0 1 0 1 -1 1 0 
1 0 1 0 1 -1 1 0 1 0 1 0 1 -1 1 0 
1 0 1 0 1 -1 1 0 1 0 1 0 1 -1 1 0 
1 0 1 0 1 -1 1 0 1 0 1 -1 1 0 1 0 
1 0 1 -1 1 0 4576 3731 300 MP stroke
1 0 1 -1 1 0 1 0 1 -1 1 0 1 0 1 0 
1 -1 1 0 1 0 1 -1 1 0 1 0 1 -1 1 0 
1 0 1 -1 1 0 1 0 1 -1 1 0 1 0 1 -1 
1 0 1 0 1 -1 1 0 1 0 1 -1 1 0 1 -1 
1 0 1 0 1 -1 1 0 1 0 1 -1 1 0 1 -1 
1 0 1 0 1 -1 1 0 1 -1 1 0 1 0 1 -1 
1 0 1 0 1 -1 1 0 1 -1 1 0 1 -1 1 0 
1 0 1 -1 1 0 1 -1 1 0 1 0 1 -1 1 0 
1 -1 1 0 1 -1 1 0 1 -1 1 0 1 -1 1 0 
1 -1 1 0 1 0 1 -1 1 0 1 -1 1 0 1 -1 
1 0 1 -1 1 0 1 -1 1 0 1 -1 1 0 1 0 
1 -1 1 -1 1 0 1 -1 1 0 1 -1 1 0 1 -1 
1 0 1 -1 1 0 1 -1 1 0 1 -1 1 0 1 -1 
1 0 1 -1 1 0 1 -1 1 0 1 -1 1 -1 1 0 
1 0 1 -1 1 -1 1 0 1 -1 1 0 1 -1 1 -1 
1 0 1 -1 1 0 1 -1 1 -1 1 0 1 0 1 -1 
1 -1 1 0 1 -1 1 0 1 -1 1 -1 1 0 1 -1 
1 -1 1 0 1 -1 1 0 1 -1 1 0 1 -1 1 -1 
1 0 1 -1 1 -1 1 0 1 -1 1 -1 1 0 1 -1 
1 0 1 -1 1 -1 1 0 1 -1 1 -1 1 0 1 -1 
1 -1 1 0 1 -1 1 -1 1 0 1 -1 1 -1 1 0 
1 -1 1 -1 1 0 1 -1 1 -1 1 0 1 -1 1 -1 
1 -1 1 0 1 -1 1 0 1 -1 1 -1 1 -1 1 0 
1 -1 1 -1 1 -1 1 0 1 -1 1 -1 1 -1 1 0 
1 -1 1 -1 1 0 1 -1 1 -1 1 -1 1 0 1 -1 
1 -1 1 -1 1 0 1 -1 1 -1 1 0 1 -1 1 -1 
1 -1 1 -1 1 0 1 -1 1 -1 1 -1 1 -1 1 -1 
1 0 1 -1 1 -1 1 0 1 -1 1 -1 1 -1 1 -1 
1 -1 1 0 1 -1 1 -1 1 -1 1 -1 1 0 1 -1 
1 -1 1 -1 1 -1 1 0 1 -1 1 -1 1 -1 1 -1 
1 -1 1 -1 1 0 1 -1 1 -1 1 0 1 -1 1 -1 
1 -1 1 -1 1 0 1 -1 1 -1 1 -1 1 0 1 -1 
1 0 1 -1 1 -1 1 -1 1 0 1 -1 1 -1 1 0 
1 -1 1 0 1 -1 1 -1 1 0 1 -1 1 0 1 -1 
1 0 1 -1 1 0 1 -1 1 -1 1 0 1 -1 1 0 
1 -1 1 0 1 0 1 -1 1 0 1 -1 1 0 1 -1 
1 0 1 0 1 -1 1 0 1 -1 1 0 1 0 1 -1 
1 0 1 0 1 -1 4277 3901 300 MP stroke
1 0 1 0 1 -1 1 0 1 0 1 -1 1 0 1 0 
1 0 1 0 1 -1 1 0 1 0 1 0 1 -1 1 0 
1 0 1 0 1 0 1 -1 1 0 1 0 1 0 1 0 
1 0 1 0 1 0 1 0 1 -1 1 0 1 0 1 0 
1 0 1 0 1 0 1 0 1 0 1 0 1 0 1 0 
1 0 1 0 1 0 1 0 1 0 1 0 1 0 1 0 
1 1 1 0 1 0 1 0 1 0 1 0 1 0 1 0 
1 1 1 0 1 0 1 0 1 0 1 0 1 1 1 0 
1 0 1 0 1 1 1 0 1 0 1 0 1 1 1 0 
1 0 1 1 1 0 1 0 1 0 1 1 1 0 1 0 
1 1 1 0 1 1 1 0 1 0 1 1 1 0 1 1 
1 0 1 0 1 1 1 0 1 1 1 0 1 1 1 0 
1 1 1 0 1 1 1 0 1 1 1 0 1 1 1 0 
1 1 1 1 1 0 1 1 1 0 1 1 1 1 1 0 
1 1 1 1 1 0 1 1 1 0 1 1 1 1 1 0 
1 1 1 1 1 1 1 0 1 1 1 1 1 1 1 0 
1 1 1 1 1 0 1 1 1 1 1 1 1 1 1 1 
1 1 1 0 1 1 1 1 1 1 1 1 1 1 1 0 
1 1 1 1 1 1 1 1 1 1 1 1 1 1 1 1 
1 1 1 1 1 1 1 1 1 1 1 1 1 1 1 1 
1 1 1 1 1 1 1 1 0 1 2 2 1 0 1 1 
0 1 2 2 1 1 1 1 1 1 0 1 2 2 1 1 
1 1 1 1 1 1 1 1 0 1 2 2 1 1 1 1 
0 1 2 2 1 1 0 1 2 2 1 1 0 1 2 2 
1 0 -1 0 2 2 1 1 0 1 1 1 1 1 0 1 
2 2 1 1 0 1 1 1 1 1 0 1 1 1 1 1 
1 1 1 1 0 1 1 1 1 1 0 1 1 1 1 1 
0 1 1 1 1 1 0 1 1 1 0 1 2 2 0 1 
2 2 0 1 1 1 1 0 -1 0 2 2 0 1 1 1 
1 1 0 1 1 1 0 1 2 2 0 1 1 1 0 1 
2 2 0 1 1 1 0 1 2 2 1 1 0 1 1 1 
0 1 2 2 0 1 1 1 0 1 1 1 0 1 2 2 
0 1 1 1 0 1 1 1 0 1 1 1 1 1 0 1 
1 1 1 1 0 1 1 1 0 1 1 1 0 1 1 1 
0 1 2 2 0 1 1 1 0 1 1 1 0 1 1 1 
0 1 1 1 0 1 1 1 0 1 1 1 0 1 1 1 
1 1 0 1 1 1 1 1 0 1 1 1 0 1 1 1 
0 1 1 1 0 1 4014 3692 300 MP stroke
1 1 0 1 1 1 0 1 1 1 0 1 1 1 0 1 
1 1 0 1 1 1 0 1 1 1 1 2 0 1 1 1 
0 1 1 1 0 1 1 1 0 1 1 1 0 1 1 1 
0 1 1 1 0 1 1 1 0 1 1 1 0 1 1 1 
0 1 1 2 0 1 1 1 0 1 1 1 1 1 0 1 
1 1 0 1 1 1 0 1 1 1 0 2 1 1 0 1 
1 1 0 1 1 1 0 1 1 1 0 1 1 2 0 1 
1 1 0 1 1 1 0 1 1 1 0 1 1 2 0 1 
1 1 1 1 0 1 1 1 0 1 1 2 0 1 1 1 
0 1 1 1 0 1 1 2 0 1 1 1 0 1 1 1 
0 1 1 2 0 1 1 1 0 1 1 1 0 2 1 1 
0 1 1 1 1 1 0 2 1 1 0 1 1 1 0 1 
1 2 0 1 1 1 0 1 1 1 0 2 1 1 0 1 
1 1 0 2 1 1 0 1 1 1 0 2 1 1 0 1 
1 1 0 2 1 1 1 1 0 1 1 2 0 1 1 1 
0 1 1 2 0 1 1 1 0 2 1 1 0 1 1 1 
0 2 1 1 0 1 1 2 0 1 1 1 0 1 1 2 
0 1 1 1 0 2 1 1 1 1 0 2 1 1 0 1 
1 2 0 1 1 1 0 2 1 1 0 1 1 2 0 1 
1 1 0 2 1 1 0 1 1 2 0 1 1 1 0 2 
1 1 0 2 1 1 0 1 1 2 1 1 0 1 1 2 
0 1 1 2 0 1 1 1 0 2 1 1 0 1 1 2 
0 1 1 2 0 1 1 1 0 2 1 1 0 2 1 1 
0 2 1 1 0 1 1 2 0 1 1 2 1 1 0 2 
1 1 0 1 1 2 0 1 1 2 0 1 1 2 0 1 
1 2 0 1 1 1 0 2 1 1 0 2 1 1 0 2 
1 1 0 2 1 1 0 2 1 1 0 2 1 1 1 2 
0 1 1 1 0 2 1 1 0 2 1 1 0 2 1 1 
0 2 1 1 0 1 1 2 0 1 1 2 0 1 1 2 
0 1 1 1 0 2 1 1 0 2 1 1 0 1 1 2 
1 1 0 1 1 2 0 1 1 2 0 1 1 1 0 2 
1 1 0 1 1 2 0 1 1 1 0 2 1 1 0 1 
1 2 0 1 1 1 0 2 1 1 0 1 1 2 0 1 
1 1 1 2 0 1 1 1 0 2 1 1 0 1 1 1 
0 2 1 1 0 1 1 2 0 1 1 1 0 1 1 2 
0 1 1 1 0 1 1 2 0 1 1 1 0 1 1 2 
0 1 1 1 1 1 0 2 1 1 0 1 1 1 0 1 
1 2 0 1 1 1 3858 3313 300 MP stroke
0 1 1 2 0 1 1 1 0 1 1 1 0 1 1 2 
0 1 1 1 0 1 1 1 0 1 1 2 0 1 1 1 
1 1 0 1 1 1 0 2 1 1 0 1 1 1 0 1 
1 1 0 1 1 1 0 2 1 1 0 1 1 1 0 1 
1 1 0 1 1 1 0 1 1 2 0 1 1 1 0 1 
1 1 1 1 0 1 1 1 0 1 1 1 0 1 1 1 
0 1 1 1 0 1 1 1 0 2 1 1 0 1 1 1 
0 1 1 1 0 1 1 1 0 1 1 1 0 1 1 1 
0 1 1 1 1 1 0 1 1 1 0 1 1 1 0 1 
1 1 0 1 1 1 0 1 1 1 0 1 2 2 0 1 
1 1 0 1 1 1 0 1 1 1 0 1 1 1 0 1 
1 1 1 1 0 1 1 1 1 1 0 1 1 1 0 1 
1 1 0 1 1 1 0 1 2 2 0 1 1 1 0 1 
1 1 0 1 2 2 0 1 1 1 1 1 1 1 0 1 
1 1 0 1 1 1 1 1 0 1 1 1 0 1 1 1 
1 1 0 1 1 1 1 1 0 1 1 1 0 1 2 2 
1 1 1 1 0 1 1 1 1 1 0 1 1 1 1 1 
0 1 1 1 1 1 0 1 2 2 0 1 2 2 1 1 
1 1 1 1 0 1 1 1 1 1 1 1 0 1 2 2 
1 1 0 1 2 2 1 1 1 1 0 1 2 2 1 0 
0 1 2 2 1 1 1 1 1 1 1 1 1 1 1 1 
0 1 2 2 1 1 1 1 1 0 1 1 1 1 1 1 
1 1 1 1 1 1 1 1 1 1 1 1 1 1 1 1 
1 1 1 0 1 1 1 1 1 1 1 1 1 1 1 0 
1 1 1 1 1 1 1 1 1 0 1 1 1 1 1 0 
1 1 1 1 1 0 1 1 1 1 1 0 1 1 1 1 
1 0 1 1 1 0 1 1 1 0 1 1 1 0 1 1 
1 1 1 0 1 1 1 0 1 0 1 1 1 0 1 1 
1 0 1 0 1 1 1 0 1 1 1 0 1 0 1 1 
1 0 1 0 1 1 1 0 1 0 1 0 1 1 1 0 
1 0 1 0 1 1 1 0 1 0 1 0 1 0 1 1 
1 0 1 0 1 0 1 0 1 0 1 0 1 0 1 0 
1 0 1 0 1 0 1 0 1 0 1 0 1 0 1 0 
1 0 1 0 1 0 1 0 1 0 1 0 1 0 1 0 
1 -1 1 0 1 0 1 0 1 0 1 0 1 -1 1 0 
1 0 1 0 1 -1 1 0 1 0 1 0 1 -1 1 0 
1 0 1 -1 1 0 1 0 1 -1 1 0 1 0 1 -1 
1 0 1 -1 1 0 3618 3088 300 MP stroke
1 -1 1 0 1 -1 1 0 1 0 1 -1 1 0 1 -1 
1 -1 1 0 1 -1 1 0 1 -1 1 -1 1 0 1 -1 
1 0 1 -1 1 0 1 -1 1 -1 1 -1 1 0 1 -1 
1 -1 1 -1 1 0 1 -1 1 -1 1 0 1 -1 1 -1 
1 -1 1 -1 1 -1 1 0 1 -1 1 -1 1 -1 1 -1 
1 -1 1 -1 1 0 1 -1 1 -1 1 -1 1 -1 0 -1 
2 -2 1 -1 1 -1 1 -1 1 -1 1 -1 1 -1 1 -1 
1 -1 1 -1 1 -1 1 -1 0 -1 2 -2 1 -1 1 -1 
1 -1 0 -1 2 -2 1 -1 1 -1 1 -1 0 -1 2 -2 
1 -1 0 -1 2 -2 1 -1 0 -1 2 -2 1 -1 0 -1 
2 -2 1 -1 1 -1 0 -1 2 -2 0 -1 2 -2 0 -1 
2 -2 0 -1 2 -2 0 -1 1 -1 1 -1 0 -1 1 -1 
1 -1 1 -1 0 -1 1 -1 0 -1 2 -2 0 -1 1 -1 
1 -1 0 -1 1 -1 0 -1 1 -1 1 -1 0 -1 1 -1 
0 -1 1 -1 0 -1 2 -2 1 -1 0 -1 1 -1 0 -1 
1 -1 0 -1 2 -2 0 -1 1 -1 0 -1 1 -1 0 -1 
1 -1 0 -1 1 -1 0 -1 2 -2 0 -1 1 -1 0 -1 
1 -1 1 -1 0 -1 1 -1 0 -1 1 -1 0 -1 1 -1 
0 -1 1 -1 0 -1 1 -1 0 -1 1 -1 0 -1 1 -1 
0 -1 1 -1 0 -1 1 -1 0 -1 1 -1 0 -1 1 -1 
0 -1 1 -1 1 -1 0 -1 1 -1 0 -1 1 -1 0 -1 
1 -1 0 -1 1 -1 0 -1 1 -1 0 -2 1 -1 0 -1 
1 -1 0 -1 1 -1 0 -1 1 -1 0 -1 1 -1 0 -1 
1 -1 0 -2 1 -1 1 -1 0 -1 1 -1 0 -1 1 -1 
0 -1 1 -1 0 -1 1 -1 0 -1 1 -2 0 -1 1 -1 
0 -1 1 -1 0 -1 1 -1 0 -1 1 -1 0 -1 1 -1 
0 -1 1 -1 0 -1 1 -1 1 -1 0 -1 1 -1 0 -1 
1 -1 0 -1 1 -1 0 -1 2 -2 0 -1 1 -1 0 -1 
1 -1 0 -1 1 -1 0 -1 1 -1 0 -1 2 -2 0 -1 
1 -1 1 -1 0 -1 2 -2 0 -1 1 -1 0 -1 2 -2 
0 -1 1 -1 1 -1 0 -1 1 -1 0 -1 2 -2 0 -1 
2 -2 1 -1 1 -1 0 -1 2 -2 0 -1 2 -2 1 -1 
0 -1 2 -2 1 -1 1 -1 0 -1 2 -2 1 0 0 -1 
2 -2 1 -1 1 -1 1 -1 1 -1 1 -1 1 -1 1 -1 
1 -1 1 -1 1 -1 1 -1 1 -1 1 -1 1 -1 1 -1 
1 0 1 -1 1 -1 1 -1 1 -1 1 -1 1 0 1 -1 
1 0 1 -1 1 -1 1 0 1 -1 1 -1 1 0 1 -1 
1 0 1 -1 1 -1 3382 3395 300 MP stroke
1 0 1 -1 1 0 1 0 1 -1 1 0 1 0 1 -1 
1 0 1 -1 1 0 1 0 1 0 1 -1 1 0 1 0 
1 0 1 0 1 -1 1 0 1 0 1 0 1 0 1 0 
1 0 1 0 1 0 1 0 1 0 1 0 1 0 1 0 
1 0 1 0 1 0 1 0 1 1 1 0 1 0 1 0 
1 1 1 0 1 0 1 0 1 1 1 0 1 0 1 1 
1 0 1 1 1 0 1 1 1 0 1 0 1 1 1 0 
1 1 1 0 1 1 1 1 1 0 1 1 1 1 1 0 
1 1 1 1 1 1 1 0 1 1 1 1 1 0 1 1 
1 1 1 1 1 1 1 1 1 1 1 1 1 1 1 1 
1 1 1 0 1 1 1 1 0 1 2 2 1 1 1 1 
1 1 1 1 0 1 2 2 1 1 1 1 1 1 1 1 
0 1 2 2 1 1 0 1 1 1 1 1 0 1 2 2 
0 1 2 2 0 1 2 2 1 1 1 1 0 1 1 1 
1 1 0 1 1 1 0 1 1 1 1 1 0 1 1 1 
0 1 1 1 1 1 0 1 1 1 0 1 1 1 1 1 
1 1 0 1 1 1 0 1 1 1 0 1 1 1 0 1 
1 1 0 1 1 1 0 1 2 2 0 1 1 1 0 1 
1 1 0 1 1 1 0 1 1 1 0 1 1 1 1 1 
0 1 1 1 0 1 1 1 0 1 1 2 0 1 1 1 
0 1 1 1 0 1 1 1 0 1 1 1 0 1 1 1 
0 1 1 1 0 2 1 1 0 1 1 1 0 1 1 1 
1 1 0 2 1 1 0 1 1 1 0 1 1 1 0 2 
1 1 0 1 1 1 0 1 1 1 0 2 1 1 0 1 
1 1 0 2 1 1 0 1 1 1 0 1 1 2 0 1 
1 1 1 2 0 1 1 1 0 1 1 2 0 1 1 1 
0 2 1 1 0 1 1 1 0 2 1 1 0 1 1 2 
0 1 1 1 0 2 1 1 0 2 1 1 0 1 1 2 
0 1 1 1 1 2 0 1 1 2 0 1 1 1 0 2 
1 1 0 2 1 1 0 2 1 1 0 1 1 2 0 1 
1 2 0 1 1 2 0 1 1 2 0 1 1 2 0 1 
1 2 0 1 1 2 1 1 0 2 1 1 0 2 1 1 
0 2 1 1 0 2 1 1 0 2 1 2 0 1 1 2 
0 1 1 2 0 1 1 2 0 2 1 1 0 2 1 2 
0 1 1 2 0 1 1 2 1 2 0 1 1 2 0 2 
1 1 0 2 1 2 0 1 1 2 0 2 1 1 0 2 
1 2 0 1 1 2 0 2 1 2 0 1 1 2 0 2 
1 1 0 2 1 2 3172 3093 300 MP stroke
0 2 1 1 1 2 0 2 1 2 0 2 1 1 0 2 
1 2 0 2 1 2 0 1 1 2 0 2 1 2 0 2 
1 1 0 2 1 2 0 2 1 2 0 2 1 2 0 1 
1 2 0 2 1 2 0 2 1 2 1 2 0 2 1 2 
0 1 1 2 0 2 1 2 0 2 1 2 0 2 1 2 
0 2 1 2 0 2 1 2 0 2 1 2 0 2 1 2 
0 2 1 2 0 2 1 2 0 2 1 2 1 2 0 2 
1 2 0 2 1 2 0 2 1 2 0 2 1 2 0 2 
1 2 0 2 1 2 0 3 1 2 0 2 1 2 0 2 
1 2 0 2 1 2 0 2 1 3 0 2 1 2 1 2 
0 2 1 2 0 2 1 3 0 2 1 2 0 2 1 2 
0 2 1 3 0 2 1 2 0 2 1 3 0 2 1 2 
0 2 1 2 0 3 1 2 0 2 1 2 0 3 1 2 
1 2 0 3 1 2 0 2 1 2 0 3 1 2 0 2 
1 3 0 2 1 2 0 3 1 2 0 2 1 3 0 2 
1 2 0 3 1 2 0 2 1 3 0 2 1 2 0 3 
1 2 1 3 0 2 1 2 0 3 1 2 0 3 1 2 
0 3 1 2 0 2 1 3 0 2 1 3 0 2 1 3 
0 2 1 3 0 2 1 3 0 2 1 3 0 2 1 3 
0 2 1 3 1 2 0 3 1 2 0 3 1 2 0 3 
1 2 0 3 1 2 0 3 1 3 0 2 1 3 0 2 
1 3 0 2 1 3 0 3 1 2 0 3 1 3 0 2 
1 3 0 2 1 3 1 3 0 2 1 3 0 3 1 2 
0 3 1 3 0 2 1 3 0 3 1 2 0 3 1 3 
0 3 1 2 0 3 1 3 0 2 1 3 0 3 1 3 
0 2 1 3 0 3 1 3 1 2 0 3 1 3 0 3 
1 3 0 2 1 3 0 3 1 3 0 3 1 2 0 3 
1 3 0 3 1 3 0 3 1 2 0 3 1 3 0 3 
1 3 0 3 1 3 0 2 1 3 1 3 0 3 1 3 
0 3 1 3 0 3 1 3 0 3 1 3 0 2 1 3 
0 3 1 3 0 3 1 3 0 3 1 3 0 3 1 3 
0 3 1 3 0 3 1 3 0 3 1 3 1 3 0 3 
1 3 0 3 1 3 0 3 1 3 0 3 1 3 0 3 
1 3 0 3 1 3 0 3 1 3 0 3 1 3 0 3 
1 3 0 3 1 3 0 3 1 3 0 3 1 3 1 2 
0 3 1 3 0 3 1 3 0 3 1 3 0 3 1 2 
0 3 1 3 0 3 1 3 0 2 1 3 0 3 1 3 
0 3 1 2 0 3 3017 2357 300 MP stroke
1 3 0 3 1 2 0 3 1 3 1 3 0 2 1 3 
0 3 1 2 0 3 1 3 0 2 1 3 0 3 1 2 
0 3 1 3 0 2 1 3 0 3 1 2 0 3 1 3 
0 2 1 3 0 2 1 3 0 2 1 3 1 3 0 2 
1 3 0 2 1 3 0 2 1 3 0 2 1 3 0 2 
1 3 0 2 1 3 0 2 1 3 0 2 1 3 0 2 
1 2 0 3 1 2 0 3 1 2 0 3 1 2 1 2 
0 3 1 2 0 2 1 3 0 2 1 3 0 2 1 2 
0 3 1 2 0 2 1 2 0 3 1 2 0 2 1 3 
0 2 1 2 0 2 1 3 0 2 1 2 0 2 1 3 
1 2 0 2 1 2 0 2 1 3 0 2 1 2 0 2 
1 2 0 3 1 2 0 2 1 2 0 2 1 2 0 2 
1 2 0 3 1 2 0 2 1 2 0 2 1 2 0 2 
1 2 1 2 0 2 1 2 0 2 1 2 0 2 1 2 
0 2 1 2 0 2 1 2 0 2 1 2 0 2 1 2 
0 2 1 2 0 2 1 2 0 2 1 2 0 2 1 2 
0 2 1 2 0 1 1 2 1 2 0 2 1 2 0 2 
1 2 0 1 1 2 0 2 1 2 0 2 1 1 0 2 
1 2 0 2 1 2 0 1 1 2 0 2 1 2 0 1 
1 2 0 2 1 2 0 1 1 2 1 2 0 1 1 2 
0 2 1 2 0 1 1 2 0 2 1 1 0 2 1 1 
0 2 1 2 0 1 1 2 0 2 1 1 0 2 1 1 
0 2 1 1 0 2 1 2 0 1 1 2 1 1 0 2 
1 1 0 2 1 1 0 2 1 1 0 2 1 1 0 2 
1 1 0 2 1 1 0 2 1 1 0 1 1 2 0 1 
1 2 0 1 1 2 0 1 1 1 0 2 1 1 1 1 
0 2 1 1 0 1 1 2 0 1 1 2 0 1 1 1 
0 1 1 2 0 1 1 1 0 2 1 1 0 1 1 1 
0 2 1 1 0 1 1 1 0 2 1 1 0 1 1 1 
1 1 0 2 1 1 0 1 1 1 0 1 1 2 0 1 
1 1 0 1 1 1 0 1 1 1 0 1 1 2 0 1 
1 1 0 1 1 1 0 1 1 1 0 1 1 1 0 1 
1 1 1 1 0 1 1 1 0 1 1 1 0 1 1 1 
0 1 1 1 0 1 1 1 0 1 1 1 0 1 1 1 
0 1 1 1 0 1 1 1 0 1 1 1 1 1 0 1 
1 1 1 1 0 1 1 1 1 1 0 1 1 1 0 1 
1 1 1 1 0 1 1 1 0 1 2 2 0 1 2 2 
0 1 2 2 1 0 2856 1825 300 MP stroke
-1 0 2 2 1 1 0 1 2 2 1 1 1 1 0 1 
2 2 1 1 1 1 1 1 1 1 1 1 1 1 1 1 
1 1 1 1 1 1 1 0 1 1 1 1 1 1 1 1 
1 1 1 0 1 1 1 0 1 1 1 1 1 0 1 1 
1 0 1 1 1 1 1 0 1 0 1 1 1 0 1 1 
1 0 1 0 1 1 1 0 1 0 1 0 1 1 1 0 
1 0 1 0 1 0 1 0 1 0 1 0 1 0 1 0 
1 0 1 0 1 0 1 0 1 0 1 -1 1 0 1 0 
1 0 1 0 1 -1 1 0 1 0 1 -1 1 0 1 -1 
1 0 1 -1 1 0 1 -1 1 0 1 -1 1 0 1 -1 
1 0 1 -1 1 -1 1 -1 1 0 1 -1 1 -1 1 -1 
1 -1 1 -1 1 -1 1 0 1 -1 1 -1 1 -1 1 -1 
1 -1 1 -1 0 -1 2 -2 1 -1 1 -1 0 -1 2 -2 
1 0 -1 0 2 -2 1 -1 0 -1 2 -2 1 -1 0 -1 
1 -1 1 -1 0 -1 2 -2 0 -1 1 -1 1 -1 0 -1 
1 -1 1 -1 1 -1 0 -1 1 -1 0 -1 1 -1 1 -1 
0 -1 1 -1 0 -1 1 -1 0 -1 1 -1 0 -1 1 -1 
1 -1 0 -1 1 -1 0 -1 1 -1 0 -1 1 -1 0 -1 
1 -1 1 -1 0 -1 1 -1 0 -1 1 -1 0 -1 1 -1 
0 -1 1 -1 0 -1 1 -1 0 -2 1 -1 0 -1 1 -1 
0 -1 1 -1 0 -1 1 -1 0 -1 1 -1 0 -2 1 -1 
0 -1 1 -1 1 -1 0 -1 1 -2 0 -1 1 -1 0 -1 
1 -1 0 -2 1 -1 0 -1 1 -1 0 -1 1 -2 0 -1 
1 -1 0 -1 1 -2 0 -1 1 -1 0 -2 1 -1 0 -1 
1 -1 0 -2 1 -1 1 -1 0 -2 1 -1 0 -2 1 -1 
0 -1 1 -2 0 -1 1 -1 0 -2 1 -1 0 -2 1 -1 
0 -1 1 -2 0 -1 1 -2 0 -1 1 -2 0 -1 1 -2 
0 -1 1 -1 0 -2 1 -1 1 -2 0 -1 1 -2 0 -1 
1 -2 0 -2 1 -1 0 -2 1 -1 0 -2 1 -1 0 -2 
1 -1 0 -2 1 -2 0 -1 1 -2 0 -1 1 -2 0 -2 
1 -1 0 -2 1 -2 0 -1 1 -2 1 -2 0 -1 1 -2 
0 -2 1 -1 0 -2 1 -2 0 -1 1 -2 0 -2 1 -2 
0 -1 1 -2 0 -2 1 -2 0 -1 1 -2 0 -2 1 -2 
0 -2 1 -1 0 -2 1 -2 0 -2 1 -2 1 -1 0 -2 
1 -2 0 -2 1 -2 0 -2 1 -2 0 -2 1 -1 0 -2 
1 -2 0 -2 1 -2 0 -2 1 -2 0 -2 1 -2 0 -2 
1 -2 0 -2 1 -2 0 -2 1 -2 0 -2 1 -2 1 -2 
0 -2 1 -2 0 -2 2646 2095 300 MP stroke
1 -2 0 -2 1 -2 0 -2 1 -2 0 -2 1 -2 0 -2 
1 -2 0 -2 1 -2 0 -2 1 -3 0 -2 1 -2 0 -2 
1 -2 0 -2 1 -2 0 -2 1 -3 1 -2 0 -2 1 -2 
0 -2 1 -3 0 -2 1 -2 0 -2 1 -2 0 -3 1 -2 
0 -2 1 -2 0 -3 1 -2 0 -2 1 -2 0 -3 1 -2 
0 -2 1 -3 0 -2 1 -2 0 -3 1 -2 1 -2 0 -3 
1 -2 0 -2 1 -3 0 -2 1 -2 0 -3 1 -2 0 -3 
1 -2 0 -2 1 -3 0 -2 1 -3 0 -2 1 -3 0 -2 
1 -3 0 -2 1 -2 0 -3 1 -2 0 -3 1 -2 1 -3 
0 -2 1 -3 0 -3 1 -2 0 -3 1 -2 0 -3 1 -2 
0 -3 1 -2 0 -3 1 -2 0 -3 1 -3 0 -2 1 -3 
0 -2 1 -3 0 -2 1 -3 0 -2 1 -3 0 -2 1 -3 
1 -2 0 -3 1 -2 0 -3 1 -2 0 -3 1 -2 0 -3 
1 -2 0 -3 1 -2 0 -3 1 -2 0 -3 1 -2 0 -3 
1 -2 0 -3 1 -2 0 -3 1 -2 0 -3 1 -2 0 -2 
1 -3 1 -2 0 -3 1 -2 0 -3 1 -2 0 -3 1 -2 
0 -2 1 -3 0 -2 1 -3 0 -2 1 -3 0 -2 1 -2 
0 -3 1 -2 0 -3 1 -2 0 -2 1 -3 0 -2 1 -3 
0 -2 1 -2 1 -3 0 -2 1 -2 0 -3 1 -2 0 -3 
1 -2 0 -2 1 -3 0 -2 1 -2 0 -3 1 -2 0 -2 
1 -3 0 -2 1 -2 0 -3 1 -2 0 -2 1 -3 0 -2 
1 -2 0 -3 1 -2 1 -2 0 -3 1 -2 0 -2 1 -2 
0 -3 1 -2 0 -2 1 -3 0 -2 1 -2 0 -2 1 -3 
0 -2 1 -2 0 -3 1 -2 0 -2 1 -2 0 -3 1 -2 
0 -2 1 -2 0 -3 1 -2 1 -2 0 -2 1 -3 0 -2 
1 -2 0 -2 1 -2 0 -3 1 -2 0 -2 1 -2 0 -3 
1 -2 0 -2 1 -2 0 -2 1 -3 0 -2 1 -2 0 -2 
1 -2 0 -2 1 -3 0 -2 1 -2 0 -2 1 -2 1 -3 
0 -2 1 -2 0 -2 1 -2 0 -2 1 -2 0 -3 1 -2 
0 -2 1 -2 0 -2 1 -2 0 -2 1 -3 0 -2 1 -2 
0 -2 1 -2 0 -2 1 -2 0 -2 1 -2 0 -3 1 -2 
1 -2 0 -2 1 -2 0 -2 1 -2 0 -2 1 -2 0 -2 
1 -2 0 -3 1 -2 0 -2 1 -2 0 -2 1 -2 0 -2 
1 -2 0 -2 1 -2 0 -2 1 -2 0 -2 1 -2 0 -2 
1 -2 1 -2 0 -2 1 -2 0 -2 1 -2 0 -2 1 -2 
0 -2 1 -2 0 -2 1 -2 0 -2 1 -2 0 -2 1 -2 
0 -2 1 -2 0 -2 1 -2 0 -2 1 -2 0 -2 1 -2 
0 -2 1 -2 1 -2 2490 2773 300 MP stroke
0 -2 1 -2 0 -2 1 -2 0 -2 1 -2 0 -2 1 -2 
0 -2 1 -2 0 -2 1 -1 0 -2 1 -2 0 -2 1 -2 
0 -2 1 -2 0 -2 1 -2 0 -2 1 -2 0 -1 1 -2 
1 -2 0 -2 1 -2 0 -2 1 -2 0 -2 1 -2 0 -1 
1 -2 0 -2 1 -2 0 -2 1 -2 0 -2 1 -1 0 -2 
1 -2 0 -2 1 -2 0 -2 1 -2 0 -1 1 -2 0 -2 
1 -2 1 -2 0 -1 1 -2 0 -2 1 -2 0 -2 1 -2 
0 -1 1 -2 0 -2 1 -2 0 -2 1 -1 0 -2 1 -2 
0 -2 1 -1 0 -2 1 -2 0 -2 1 -2 0 -1 1 -2 
0 -2 1 -2 1 -1 0 -2 1 -2 0 -2 1 -1 0 -2 
1 -2 0 -2 1 -1 0 -2 1 -2 0 -1 1 -2 0 -2 
1 -2 0 -1 1 -2 0 -2 1 -1 0 -2 1 -2 0 -2 
1 -1 0 -2 1 -2 1 -1 0 -2 1 -2 0 -1 1 -2 
0 -2 1 -1 0 -2 1 -2 0 -1 1 -2 0 -2 1 -1 
0 -2 1 -2 0 -1 1 -2 0 -2 1 -1 0 -2 1 -1 
0 -2 1 -2 0 -1 1 -2 1 -2 0 -1 1 -2 0 -1 
1 -2 0 -2 1 -1 0 -2 1 -1 0 -2 1 -2 0 -1 
1 -2 0 -1 1 -2 0 -1 1 -2 0 -2 1 -1 0 -2 
1 -1 0 -2 1 -1 0 -2 1 -1 1 -2 0 -2 1 -1 
0 -2 1 -1 0 -2 1 -1 0 -2 1 -1 0 -2 1 -1 
0 -2 1 -1 0 -2 1 -1 0 -2 1 -1 0 -2 1 -1 
0 -2 1 -1 0 -2 1 -1 0 -2 1 -1 1 -2 0 -1 
1 -2 0 -1 1 -2 0 -1 1 -2 0 -1 1 -2 0 -1 
1 -1 0 -2 1 -1 0 -2 1 -1 0 -2 1 -1 0 -2 
1 -1 0 -1 1 -2 0 -1 1 -2 0 -1 1 -1 1 -2 
0 -1 1 -2 0 -1 1 -2 0 -1 1 -1 0 -2 1 -1 
0 -1 1 -2 0 -1 1 -2 0 -1 1 -1 0 -2 1 -1 
0 -1 1 -2 0 -1 1 -2 0 -1 1 -1 0 -2 1 -1 
1 -1 0 -2 1 -1 0 -1 1 -2 0 -1 1 -1 0 -2 
1 -1 0 -1 1 -2 0 -1 1 -1 0 -1 1 -2 0 -1 
1 -1 0 -2 1 -1 0 -1 1 -2 0 -1 1 -1 0 -1 
1 -2 1 -1 0 -1 1 -1 0 -2 1 -1 0 -1 1 -1 
0 -2 1 -1 0 -1 1 -1 0 -2 1 -1 0 -1 1 -1 
0 -2 1 -1 0 -1 1 -1 0 -2 1 -1 0 -1 1 -1 
0 -1 1 -2 1 -1 0 -1 1 -1 0 -1 1 -2 0 -1 
1 -1 0 -1 1 -1 0 -2 1 -1 0 -1 1 -1 0 -1 
1 -1 0 -2 1 -1 0 -1 1 -1 0 -1 1 -1 0 -1 
1 -2 0 -1 1 -1 2335 3236 300 MP stroke
1 -1 0 -1 1 -1 0 -1 1 -2 0 -1 1 -1 0 -1 
1 -1 0 -1 1 -1 0 -1 1 -1 0 -2 1 -1 0 -1 
1 -1 0 -1 1 -1 0 -1 1 -1 0 -1 1 -1 0 -1 
1 -1 0 -2 1 -1 1 -1 0 -1 1 -1 0 -1 1 -1 
0 -1 1 -1 0 -1 1 -1 0 -1 1 -1 0 -1 1 -1 
0 -1 1 -1 0 -1 1 -1 0 -1 1 -1 0 -1 1 -1 
0 -1 1 -1 0 -1 1 -1 1 -1 0 -1 1 -1 0 -1 
1 -1 0 -1 1 -1 0 -1 1 -1 0 -1 1 -1 0 -1 
1 -1 0 -1 1 -1 0 -1 1 -1 0 -1 1 -1 0 -1 
1 -1 1 -1 0 -1 1 -1 1 -1 0 -1 1 -1 0 -1 
1 -1 0 -1 1 -1 0 -1 2 -2 0 -1 1 -1 0 -1 
1 -1 0 -1 1 -1 1 -1 0 -1 1 -1 0 -1 1 -1 
1 -1 1 -1 0 -1 1 -1 0 -1 1 -1 0 -1 2 -2 
0 -1 1 -1 0 -1 2 -2 0 -1 1 -1 1 -1 0 -1 
1 -1 0 -1 2 -2 1 -1 0 -1 2 -2 0 -1 2 -2 
0 -1 1 -1 1 -1 0 -1 1 -1 1 -1 0 -1 2 -2 
0 -1 2 -2 1 -1 1 -1 0 -1 2 -2 0 -1 2 -2 
1 -1 0 -1 2 -2 1 -1 0 -1 2 -2 1 -1 1 -1 
1 -1 1 -1 0 -1 2 -2 1 -1 1 -1 0 -1 2 -2 
1 -1 1 -1 1 -1 1 -1 1 -1 1 -1 1 -1 1 -1 
0 -1 2 -2 1 -1 1 -1 1 -1 1 -1 1 -1 1 -1 
1 -1 1 -1 1 -1 1 -1 1 -1 1 0 1 -1 1 -1 
1 -1 1 -1 1 -1 1 -1 1 -1 1 -1 1 0 1 -1 
1 -1 1 -1 1 -1 1 -1 1 0 1 -1 1 -1 1 -1 
1 -1 1 0 1 -1 1 -1 1 0 1 -1 1 -1 1 0 
1 -1 1 -1 1 0 1 -1 1 -1 1 0 1 -1 1 -1 
1 0 1 -1 1 0 1 -1 1 0 1 -1 1 0 1 -1 
1 0 1 -1 1 -1 1 0 1 -1 1 0 1 -1 1 0 
1 -1 1 0 1 -1 1 0 1 -1 1 -1 1 0 1 -1 
1 0 1 -1 1 0 1 -1 1 -1 1 0 1 -1 1 0 
1 -1 1 -1 1 0 1 -1 1 -1 1 0 1 -1 1 0 
1 -1 1 0 1 -1 1 -1 1 0 1 -1 1 -1 1 0 
1 -1 1 -1 1 0 1 -1 1 0 1 -1 1 -1 1 -1 
1 0 1 -1 1 -1 1 0 1 -1 1 -1 1 -1 1 0 
1 -1 1 -1 1 0 1 -1 1 -1 1 0 1 -1 1 -1 
1 -1 1 0 1 -1 1 -1 1 -1 1 0 1 -1 1 -1 
1 0 1 -1 1 -1 1 -1 1 -1 1 0 1 -1 1 -1 
1 -1 1 -1 1 0 2087 3512 300 MP stroke
1 -1 1 -1 1 0 1 -1 1 -1 1 -1 1 -1 1 -1 
1 0 1 -1 1 -1 1 -1 1 -1 1 -1 1 0 1 -1 
1 -1 1 -1 1 -1 1 -1 1 0 1 -1 1 -1 1 -1 
1 -1 1 -1 1 -1 1 0 1 -1 1 -1 1 -1 1 -1 
1 -1 1 -1 1 -1 1 -1 1 -1 1 -1 1 -1 1 0 
1 -1 1 -1 1 -1 1 -1 1 -1 1 -1 1 -1 1 -1 
1 -1 1 -1 1 -1 1 -1 1 -1 1 0 1 -1 1 -1 
1 -1 1 -1 1 -1 1 -1 1 -1 1 -1 1 -1 1 -1 
1 -1 1 -1 1 -1 1 -1 1 -1 1 -1 1 -1 1 -1 
1 -1 1 -1 1 -1 1 -1 1 -1 1 -1 1 -1 1 -1 
1 -1 1 -1 1 -1 1 -1 0 -1 2 -2 1 -1 1 -1 
1 -1 1 -1 1 -1 1 -1 1 -1 1 -1 1 -1 1 -1 
1 -1 0 -1 2 -2 1 -1 1 -1 1 -1 1 -1 0 -1 
2 -2 1 0 1 -1 0 -1 2 -2 1 -1 1 -1 1 -1 
0 -1 2 -2 1 -1 1 -1 1 -1 1 -1 1 -1 1 -1 
0 -1 2 -2 1 -1 1 -1 0 -1 2 -2 1 -1 1 -1 
1 -1 0 -1 2 -2 1 0 -1 0 2 -2 1 -1 1 -1 
0 -1 2 -2 1 -1 1 -1 0 -1 2 -2 1 -1 0 -1 
2 -2 1 0 -1 0 2 -2 1 -1 1 -1 0 -1 2 -2 
1 -1 0 -1 2 -2 1 -1 0 -1 2 -2 1 -1 1 -1 
1 -1 0 -1 2 -2 1 -1 0 -1 2 -2 0 -1 2 -2 
1 -1 0 -1 2 -2 1 -1 1 -1 1 -1 0 -1 2 -2 
0 -1 2 -2 1 -1 0 -1 2 -2 0 -1 2 -2 1 -1 
0 -1 1 -1 1 -1 1 -1 1 -1 0 -1 1 -1 1 -1 
0 -1 2 -2 0 -1 2 -2 1 -1 0 -1 1 -1 1 -1 
0 -1 1 -1 1 -1 1 -1 0 -1 2 -2 1 -1 0 -1 
1 -1 1 -1 0 -1 1 -1 1 -1 0 -1 1 -1 1 -1 
0 -1 1 -1 1 -1 0 -1 1 -1 1 0 -1 0 2 -2 
0 -1 2 -2 0 -1 1 -1 1 -1 0 -1 1 -1 1 -1 
0 -1 1 -1 1 -1 0 -1 1 -1 0 -1 2 -2 1 -1 
1 -1 0 -1 1 -1 0 -1 2 -2 0 -1 2 -2 0 -1 
1 -1 1 -1 0 -1 1 -1 0 -1 2 -2 0 -1 1 -1 
1 0 -1 0 2 -2 0 -1 1 -1 1 -1 0 -1 1 -1 
0 -1 2 -2 0 -1 1 -1 1 -1 0 -1 1 -1 0 -1 
2 -2 0 -1 1 -1 1 -1 1 -1 0 -1 1 -1 0 -1 
1 -1 1 -1 0 -1 1 -1 0 -1 1 -1 1 -1 0 -1 
1 -1 0 -1 1 -1 1 -1 0 -1 1 -1 0 -1 1 -1 
1 0 -1 0 2 -2 1823 3830 300 MP stroke
0 -1 1 -1 0 -1 2 -2 0 -1 1 -1 0 -1 1 -1 
1 -1 0 -1 1 -1 0 -1 1 -1 0 -1 2 -2 0 -1 
1 -1 1 -1 0 -1 2 -2 0 -1 1 -1 0 -1 1 -1 
0 -1 2 -2 0 -1 1 -1 0 -1 1 -1 0 -1 2 -2 
0 -1 1 -1 0 -1 1 -1 1 -1 1 -1 0 -1 1 -1 
0 -1 1 -1 0 -1 1 -1 0 -1 2 -2 0 -1 1 -1 
0 -1 1 -1 0 -1 1 -1 0 -1 2 -2 0 -1 1 -1 
1 -1 0 -1 1 -1 0 -1 1 -1 0 -1 2 -2 0 -1 
1 -1 0 -1 1 -1 0 -1 1 -1 0 -1 1 -1 0 -1 
2 -2 0 -1 1 -1 0 -1 1 -1 1 -1 0 -1 1 -1 
0 -1 1 -1 0 -1 2 -2 0 -1 1 -1 0 -1 1 -1 
0 -1 1 -1 0 -1 1 -1 0 -1 1 -1 0 -1 1 -1 
0 -1 1 -1 1 -1 1 -1 0 -1 1 -1 0 -1 1 -1 
0 -1 1 -1 0 -1 1 -1 0 -1 1 -1 0 -1 1 -1 
0 -1 1 -1 0 -1 1 -1 0 -1 1 -1 0 -1 1 -1 
0 -1 2 -2 1 -1 0 -1 1 -1 0 -1 1 -1 0 -1 
1 -1 0 -1 1 -1 0 -1 1 -1 0 -1 1 -1 0 -1 
1 -1 0 -1 1 -1 0 -1 1 -1 0 -1 1 -1 0 -1 
1 -1 0 -1 1 -1 1 -1 0 -1 2 -2 0 -1 1 -1 
0 -1 1 -1 0 -1 2 -2 0 -1 1 -1 0 -1 2 -2 
0 -1 2 -2 0 -1 1 -1 1 0 -1 0 2 -2 1 -1 
0 -1 2 -2 1 -1 0 -1 2 -2 1 -1 1 -1 0 -1 
2 -2 1 -1 1 0 1 -1 1 -1 1 -1 1 -1 1 -1 
1 -1 1 -1 1 -1 1 -1 1 -1 1 0 1 -1 1 -1 
1 0 1 -1 1 0 1 -1 1 -1 1 0 1 -1 1 0 
1 -1 1 0 1 0 1 -1 1 0 1 0 1 0 1 -1 
1 0 1 0 1 0 1 0 1 -1 1 0 1 0 1 0 
1 0 1 0 1 0 1 1 1 0 1 0 1 0 1 0 
1 0 1 1 1 0 1 0 1 1 1 0 1 1 1 0 
1 0 1 1 1 0 1 1 1 0 1 1 1 1 1 0 
1 1 1 1 1 1 1 0 1 1 1 1 1 1 1 0 
1 1 1 1 1 1 1 1 1 1 0 1 2 2 1 1 
1 1 1 1 1 1 1 1 0 1 2 2 1 1 0 1 
2 2 1 1 0 1 1 1 1 1 0 1 1 1 1 1 
1 1 0 1 1 1 1 1 0 1 1 1 0 1 1 1 
1 1 0 1 1 1 0 1 1 1 0 1 1 1 0 1 
2 2 0 1 1 1 0 1 1 1 1 1 0 1 1 1 
0 1 1 1 0 1 1600 3976 300 MP stroke
1 1 0 1 1 1 0 1 1 1 0 1 1 1 0 2 
1 1 0 1 1 1 0 1 1 1 0 1 1 1 0 1 
1 2 0 1 1 1 1 1 0 1 1 1 0 2 1 1 
0 1 1 1 0 1 1 2 0 1 1 1 0 1 1 2 
0 1 1 1 0 1 1 2 0 1 1 1 0 2 1 1 
0 1 1 2 0 1 1 1 1 2 0 1 1 1 0 2 
1 1 0 2 1 1 0 1 1 2 0 1 1 2 0 1 
1 2 0 1 1 1 0 2 1 1 0 2 1 1 0 2 
1 1 0 2 1 1 0 2 1 1 1 2 0 2 1 1 
0 2 1 1 0 2 1 1 0 2 1 2 0 1 1 2 
0 1 1 2 0 2 1 1 0 2 1 2 0 1 1 2 
0 2 1 1 0 2 1 2 0 2 1 1 1 2 0 2 
1 2 0 1 1 2 0 2 1 2 0 1 1 2 0 2 
1 2 0 2 1 1 0 2 1 2 0 2 1 2 0 2 
1 2 0 1 1 2 0 2 1 2 0 2 1 2 1 2 
0 2 1 2 0 2 1 2 0 2 1 1 0 2 1 2 
0 2 1 2 0 2 1 2 0 2 1 2 0 3 1 2 
0 2 1 2 0 2 1 2 0 2 1 2 0 2 1 2 
1 2 0 2 1 3 0 2 1 2 0 2 1 2 0 2 
1 2 0 3 1 2 0 2 1 2 0 2 1 3 0 2 
1 2 0 2 1 3 0 2 1 2 0 2 1 3 0 2 
1 2 1 2 0 3 1 2 0 2 1 3 0 2 1 2 
0 3 1 2 0 2 1 3 0 2 1 3 0 2 1 2 
0 3 1 2 0 3 1 2 0 3 1 2 0 2 1 3 
0 2 1 3 1 2 0 3 1 2 0 3 1 2 0 3 
1 2 0 3 1 3 0 2 1 3 0 2 1 3 0 2 
1 3 0 3 1 2 0 3 1 2 0 3 1 3 0 2 
1 3 0 3 1 2 0 3 1 3 1 2 0 3 1 3 
0 2 1 3 0 3 1 3 0 2 1 3 0 3 1 3 
0 2 1 3 0 3 1 3 0 3 1 2 0 3 1 3 
0 3 1 3 0 3 1 2 0 3 1 3 1 3 0 3 
1 3 0 3 1 3 0 3 1 2 0 3 1 3 0 3 
1 3 0 3 1 3 0 3 1 3 0 3 1 3 0 3 
1 3 0 3 1 3 0 3 1 3 0 3 1 3 1 3 
0 4 1 3 0 3 1 3 0 3 1 3 0 3 1 3 
0 3 1 4 0 3 1 3 0 3 1 3 0 3 1 4 
0 3 1 3 0 3 1 3 0 4 1 3 0 3 1 3 
1 4 0 3 1 3 1444 3334 300 MP stroke
0 3 1 4 0 3 1 3 0 4 1 3 0 3 1 4 
0 3 1 3 0 4 1 3 0 3 1 4 0 3 1 4 
0 3 1 3 0 4 1 3 0 4 1 3 1 3 0 4 
1 3 0 4 1 3 0 4 1 3 0 4 1 3 0 4 
1 3 0 4 1 3 0 4 1 3 0 4 1 4 0 3 
1 4 0 3 1 4 0 4 1 3 0 4 1 3 1 4 
0 4 1 3 0 4 1 4 0 3 1 4 0 4 1 3 
0 4 1 4 0 4 1 3 0 4 1 4 0 3 1 4 
0 4 1 4 0 4 1 3 0 4 1 4 0 4 1 4 
1 3 0 4 1 4 0 4 1 4 0 4 1 3 0 4 
1 4 0 4 1 4 0 4 1 4 0 4 1 4 0 4 
1 3 0 4 1 4 0 4 1 4 0 4 1 4 0 4 
1 4 1 4 0 4 1 4 0 4 1 4 0 4 1 5 
0 4 1 4 0 4 1 4 0 4 1 4 0 4 1 4 
0 4 1 5 0 4 1 4 0 4 1 4 0 4 1 4 
0 5 1 4 1 4 0 4 1 4 0 5 1 4 0 4 
1 4 0 5 1 4 0 4 1 4 0 5 1 4 0 4 
1 5 0 4 1 4 0 5 1 4 0 4 1 5 0 4 
1 4 0 5 1 4 1 4 0 5 1 4 0 5 1 4 
0 5 1 4 0 4 1 5 0 4 1 5 0 4 1 5 
0 4 1 5 0 4 1 5 0 4 1 5 0 4 1 5 
0 4 1 5 0 4 1 5 1 5 0 4 1 5 0 4 
1 5 0 5 1 4 0 5 1 4 0 5 1 5 0 4 
1 5 0 5 1 4 0 5 1 5 0 5 1 4 0 5 
1 5 0 4 1 5 0 5 1 5 1 4 0 5 1 5 
0 5 1 5 0 4 1 5 0 5 1 5 0 5 1 5 
0 4 1 5 0 5 1 5 0 5 1 5 0 5 1 5 
0 4 1 5 0 5 1 5 0 5 1 5 1 5 0 5 
1 5 0 5 1 5 0 5 1 5 0 5 1 5 0 5 
1 5 0 5 1 5 0 5 1 5 0 5 1 5 0 5 
1 5 0 6 1 5 0 5 1 5 0 5 1 5 1 5 
0 5 1 6 0 5 1 5 0 5 1 5 0 6 1 5 
0 5 1 5 0 5 1 6 0 5 1 5 0 5 1 6 
0 5 1 5 0 5 1 6 0 5 1 5 0 6 1 5 
1 5 0 5 1 6 0 5 1 5 0 5 1 5 0 5 
1 5 0 6 1 5 0 5 1 5 0 5 1 5 0 5 
1 5 0 5 1 5 0 5 1 4 0 5 1 5 0 5 
1 5 1 5 0 5 1289 2028 300 MP stroke
1 4 0 5 1 5 0 5 1 4 0 5 1 5 0 4 
1 5 0 5 1 4 0 5 1 5 0 4 1 5 0 4 
1 5 0 4 1 5 0 4 1 5 0 4 1 5 0 4 
1 4 1 5 0 4 1 5 0 4 1 4 0 5 1 4 
0 4 1 4 0 5 1 4 0 4 1 4 0 4 1 4 
0 5 1 4 0 4 1 4 0 4 1 4 0 4 1 4 
0 4 1 4 1 4 0 4 1 4 0 4 1 4 0 4 
1 4 0 3 1 4 0 4 1 4 0 4 1 3 0 4 
1 4 0 4 1 3 0 4 1 4 0 3 1 4 0 4 
1 3 0 4 1 3 1 4 0 4 1 3 0 4 1 3 
0 4 1 3 0 3 1 4 0 3 1 4 0 3 1 3 
0 4 1 3 0 3 1 4 0 3 1 3 0 4 1 3 
0 3 1 3 0 3 1 4 1 3 0 3 1 3 0 3 
1 3 0 3 1 3 0 3 1 3 0 3 1 3 0 3 
1 3 0 3 1 3 0 3 1 3 0 3 1 3 0 2 
1 3 0 3 1 3 0 3 1 2 1 3 0 3 1 2 
0 3 1 3 0 2 1 3 0 3 1 2 0 3 1 2 
0 3 1 3 0 2 1 3 0 2 1 3 0 2 1 2 
0 3 1 2 0 3 1 2 0 2 1 3 1 2 0 2 
1 3 0 2 1 2 0 2 1 3 0 2 1 2 0 2 
1 2 0 3 1 2 0 2 1 2 0 2 1 2 0 2 
1 2 0 2 1 2 0 2 1 2 0 2 1 2 1 2 
0 2 1 2 0 2 1 1 0 2 1 2 0 2 1 2 
0 1 1 2 0 2 1 2 0 1 1 2 0 2 1 1 
0 2 1 2 0 1 1 2 0 1 1 2 0 1 1 2 
1 1 0 2 1 1 0 2 1 1 0 2 1 1 0 1 
1 2 0 1 1 2 0 1 1 1 0 1 1 2 0 1 
1 1 0 1 1 2 0 1 1 1 0 1 1 1 0 1 
1 2 1 1 0 1 1 1 0 1 1 1 0 1 1 1 
0 1 1 1 0 1 1 1 0 1 2 2 0 1 1 1 
0 1 2 2 0 1 2 2 1 1 1 1 1 1 1 1 
1 1 1 1 1 1 1 1 1 1 1 1 1 1 1 0 
1 1 1 0 1 1 1 0 1 0 1 1 1 0 1 0 
1 0 1 0 1 0 1 0 1 0 1 0 1 0 1 -1 
1 0 1 -1 1 0 1 -1 1 0 1 -1 1 -1 1 -1 
1 -1 1 -1 1 -1 1 0 0 -1 2 -2 1 -1 0 -1 
2 -2 0 -1 2 -2 0 -1 2 -2 0 -1 1 -1 0 -1 
1 -1 0 -1 1 -1 1107 1356 300 MP stroke
1 -1 0 -1 1 -1 0 -1 1 -1 0 -1 1 -1 0 -1 
1 -1 0 -1 1 -1 0 -1 1 -1 0 -2 1 -1 0 -1 
1 -1 0 -1 1 -2 0 -1 1 -1 0 -2 1 -1 0 -1 
1 -2 1 -1 0 -1 1 -2 0 -1 1 -2 0 -1 1 -2 
0 -1 1 -2 0 -1 1 -2 0 -1 1 -2 0 -1 1 -2 
0 -2 1 -1 0 -2 1 -2 0 -1 1 -2 0 -2 1 -2 
0 -1 1 -2 1 -2 0 -2 1 -1 0 -2 1 -2 0 -2 
1 -2 0 -2 1 -2 0 -2 1 -2 0 -2 1 -2 0 -2 
1 -2 0 -2 1 -2 0 -2 1 -2 0 -2 1 -2 0 -2 
1 -2 0 -3 1 -2 0 -2 1 -2 1 -2 0 -3 1 -2 
0 -2 1 -2 0 -3 1 -2 0 -2 1 -3 0 -2 1 -3 
0 -2 1 -2 0 -3 1 -2 0 -3 1 -2 0 -3 1 -2 
0 -3 1 -2 0 -3 1 -3 0 -2 1 -3 1 -3 0 -2 
1 -3 0 -3 1 -2 0 -3 1 -3 0 -2 1 -3 0 -3 
1 -3 0 -3 1 -3 0 -2 1 -3 0 -3 1 -3 0 -3 
1 -3 0 -3 1 -3 0 -3 1 -3 0 -3 1 -3 1 -3 
0 -3 1 -3 0 -3 1 -3 0 -3 1 -4 0 -3 1 -3 
0 -3 1 -3 0 -4 1 -3 0 -3 1 -3 0 -4 1 -3 
0 -3 1 -4 0 -3 1 -4 0 -3 1 -3 0 -4 1 -3 
1 -4 0 -3 1 -4 0 -3 1 -4 0 -3 1 -4 0 -3 
1 -4 0 -4 1 -3 0 -4 1 -4 0 -3 1 -4 0 -4 
1 -3 0 -4 1 -4 0 -4 1 -4 0 -3 1 -4 0 -4 
1 -4 1 -4 0 -4 1 -4 0 -3 1 -4 0 -4 1 -4 
0 -4 1 -4 0 -4 1 -4 0 -5 1 -4 0 -4 1 -4 
0 -4 1 -4 0 -4 1 -4 0 -5 1 -4 0 -4 1 -4 
0 -5 1 -4 1 -4 0 -4 1 -5 0 -4 1 -4 0 -5 
1 -4 0 -5 1 -4 0 -4 1 -5 0 -4 1 -5 0 -4 
1 -5 0 -4 1 -5 0 -5 1 -4 0 -5 1 -4 0 -5 
1 -5 0 -4 1 -5 1 -5 0 -4 1 -5 0 -5 1 -5 
0 -4 1 -5 0 -5 1 -5 0 -5 1 -5 0 -4 1 -5 
0 -5 1 -5 0 -5 1 -5 0 -5 1 -5 0 -5 1 -5 
0 -5 1 -5 0 -5 1 -5 1 -6 0 -5 1 -5 0 -5 
1 -5 0 -5 1 -6 0 -5 1 -5 0 -5 1 -6 0 -5 
1 -5 0 -6 1 -5 0 -5 1 -6 0 -5 1 -5 0 -6 
1 -5 0 -6 1 -5 0 -6 1 -5 1 -6 0 -5 1 -6 
0 -5 1 -6 0 -6 1 -5 0 -6 1 -6 0 -5 1 -6 
0 -6 1 -5 0 -6 1 -6 0 -6 1 -5 0 -6 1 -6 
0 -6 1 -6 0 -6 952 2378 300 MP stroke
1 -5 0 -6 1 -6 1 -6 0 -6 1 -6 0 -6 1 -6 
0 -6 1 -6 0 -6 1 -6 0 -6 1 -6 0 -7 1 -6 
0 -6 1 -6 0 -6 1 -6 0 -7 1 -6 0 -6 1 -6 
0 -7 1 -6 0 -6 1 -7 1 -6 0 -6 1 -7 0 -6 
1 -7 0 -6 1 -6 0 -7 1 -6 0 -7 1 -6 0 -7 
1 -6 0 -7 1 -7 0 -6 1 -7 0 -6 1 -7 0 -7 
1 -6 0 -7 1 -7 0 -6 1 -7 1 -7 0 -7 1 -7 
0 -6 1 -7 0 -7 1 -7 0 -7 1 -7 0 -7 1 -6 
0 -7 1 -7 0 -7 1 -7 0 -7 1 -7 0 -7 1 -7 
0 -8 1 -7 0 -7 1 -7 0 -7 1 -7 1 -7 0 -8 
1 -7 0 -7 1 -7 0 -7 1 -8 0 -7 1 -7 0 -8 
1 -7 0 -7 1 -8 0 -7 1 -7 0 -8 1 -7 0 -8 
1 -7 0 -8 1 -7 0 -8 1 -7 0 -8 1 -7 1 -8 
0 -8 1 -7 0 -8 1 -7 0 -8 1 -8 0 -7 1 -8 
0 -8 1 -8 0 -7 1 -8 0 -8 1 -8 0 -8 1 -7 
0 -8 1 -8 0 -8 1 -8 0 -8 1 -8 0 -8 1 -8 
1 -8 0 -8 1 -8 0 -8 1 -8 0 -8 1 -8 0 -8 
1 -8 0 -8 1 -9 0 -8 1 -8 0 -8 1 -8 0 -9 
1 -8 0 -8 1 -9 0 -8 1 -8 0 -8 1 -9 0 -8 
1 -9 0 -8 872 3478 155 MP stroke
/c9 { 1.000000 0.000000 0.000000 sr} bdef
c9
1 0 1 0 1 0 1 0 1 0 1 0 1 0 1 0 
1 0 1 0 1 0 1 0 1 0 1 0 1 0 1 0 
1 0 1 0 1 0 1 0 1 0 1 0 1 0 1 0 
1 0 1 0 1 0 1 0 1 0 1 0 1 0 1 0 
1 0 1 0 1 0 1 0 1 0 1 0 1 0 1 0 
1 0 1 1 1 0 1 0 1 0 1 0 1 0 1 0 
1 0 1 0 1 0 1 0 1 0 1 0 1 0 1 0 
1 0 1 0 1 0 1 0 1 0 1 0 1 0 1 0 
1 0 1 0 1 0 1 0 1 0 1 0 1 0 1 0 
1 0 1 0 1 0 1 0 1 0 1 0 1 0 1 0 
1 0 1 0 1 0 1 0 1 0 1 0 1 0 1 1 
1 0 1 0 1 0 1 0 1 0 1 0 1 0 1 0 
1 0 1 0 1 0 1 0 1 0 1 0 1 0 1 0 
1 0 1 0 1 0 1 0 1 0 1 0 1 0 1 0 
1 0 1 0 1 0 1 0 1 0 1 0 1 0 1 0 
1 0 1 0 1 0 1 0 1 0 1 0 1 0 1 0 
1 0 1 0 1 0 1 1 1 0 1 0 1 0 1 0 
1 0 1 0 1 0 1 0 1 0 1 0 1 0 1 0 
1 0 1 0 1 0 1 0 1 0 1 0 1 0 1 0 
1 0 1 0 1 0 1 0 1 0 1 0 1 0 1 0 
1 0 1 0 1 0 1 0 1 0 1 0 1 0 1 0 
1 0 1 0 1 0 1 0 1 0 1 1 1 0 1 0 
1 0 1 0 1 0 1 0 1 0 1 0 1 0 1 0 
1 0 1 0 1 0 1 0 1 0 1 0 1 0 1 0 
1 0 1 0 1 0 1 0 1 0 1 0 1 0 1 0 
1 0 1 0 1 0 1 0 1 0 1 0 1 0 1 0 
1 0 1 0 1 0 1 0 1 0 1 1 1 0 1 0 
1 0 1 0 1 0 1 0 1 0 1 0 1 0 1 0 
1 0 1 0 1 0 1 0 1 0 1 0 1 0 1 0 
1 0 1 0 1 0 1 0 1 0 1 0 1 0 1 0 
1 0 1 0 1 0 1 0 1 0 1 0 1 0 1 0 
1 0 1 0 1 0 1 0 1 1 1 0 1 0 1 0 
1 0 1 0 1 0 1 0 1 0 1 0 1 0 1 0 
1 0 1 0 1 0 1 0 1 0 1 0 1 0 1 0 
1 0 1 0 1 0 1 0 1 0 1 0 1 0 1 0 
1 0 1 0 1 0 1 0 1 0 1 0 1 0 1 0 
1 0 1 0 1 1 1 0 1 0 1 0 1 0 1 0 
1 0 1 0 1 0 5772 3859 300 MP stroke
1 0 1 0 1 0 1 0 1 0 1 0 1 0 1 0 
1 0 1 0 1 0 1 0 1 0 1 0 1 0 1 0 
1 0 1 0 1 0 1 0 1 0 1 0 1 0 1 0 
1 0 1 0 1 1 1 0 1 0 1 0 1 0 1 0 
1 0 1 0 1 0 1 0 1 0 1 0 1 0 1 0 
1 0 1 0 1 0 1 0 1 0 1 0 1 0 1 0 
1 0 1 0 1 0 1 0 1 0 1 0 1 0 1 0 
1 0 1 0 1 0 1 0 1 0 1 1 1 0 1 0 
1 0 1 0 1 0 1 0 1 0 1 0 1 0 1 0 
1 0 1 0 1 0 1 0 1 0 1 0 1 0 1 0 
1 0 1 0 1 0 1 0 1 0 1 0 1 0 1 0 
1 0 1 0 1 0 1 0 1 0 1 0 1 1 1 0 
1 0 1 0 1 0 1 0 1 0 1 0 1 0 1 0 
1 0 1 0 1 0 1 0 1 0 1 0 1 0 1 0 
1 0 1 0 1 0 1 0 1 0 1 0 1 0 1 0 
1 0 1 0 1 0 1 0 1 0 1 0 1 1 1 0 
1 0 1 0 1 0 1 0 1 0 1 0 1 0 1 0 
1 0 1 0 1 0 1 0 1 0 1 0 1 0 1 0 
1 0 1 0 1 0 1 0 1 0 1 0 1 0 1 0 
1 0 1 0 1 0 1 0 1 0 1 1 1 0 1 0 
1 0 1 0 1 0 1 0 1 0 1 0 1 0 1 0 
1 0 1 0 1 0 1 0 1 0 1 0 1 0 1 0 
1 0 1 0 1 0 1 0 1 0 1 0 1 0 1 0 
1 0 1 0 1 0 1 0 1 1 1 0 1 0 1 0 
1 0 1 0 1 0 1 0 1 0 1 0 1 0 1 0 
1 0 1 0 1 0 1 0 1 0 1 0 1 0 1 0 
1 0 1 0 1 0 1 0 1 0 1 0 1 0 1 0 
1 0 1 1 1 0 1 0 1 0 1 0 1 0 1 0 
1 0 1 0 1 0 1 0 1 0 1 0 1 0 1 0 
1 0 1 0 1 0 1 0 1 0 1 0 1 0 1 0 
1 0 1 0 1 0 1 0 1 0 1 1 1 0 1 0 
1 0 1 0 1 0 1 0 1 0 1 0 1 0 1 0 
1 0 1 0 1 0 1 0 1 0 1 0 1 0 1 0 
1 0 1 0 1 0 1 0 1 0 1 0 1 0 1 0 
1 1 1 0 1 0 1 0 1 0 1 0 1 0 1 0 
1 0 1 0 1 0 1 0 1 0 1 0 1 0 1 0 
1 0 1 0 1 0 1 0 1 0 1 0 1 0 1 0 
1 0 1 0 1 1 5473 3849 300 MP stroke
1 0 1 0 1 0 1 0 1 0 1 0 1 0 1 0 
1 0 1 0 1 0 1 0 1 0 1 0 1 0 1 0 
1 0 1 0 1 0 1 0 1 0 1 0 1 0 1 0 
1 0 1 1 1 0 1 0 1 0 1 0 1 0 1 0 
1 0 1 0 1 0 1 0 1 0 1 0 1 0 1 0 
1 0 1 0 1 0 1 0 1 0 1 0 1 0 1 0 
1 0 1 0 1 1 1 0 1 0 1 0 1 0 1 0 
1 0 1 0 1 0 1 0 1 0 1 0 1 0 1 0 
1 0 1 0 1 0 1 0 1 0 1 0 1 0 1 0 
1 0 1 0 1 1 1 0 1 0 1 0 1 0 1 0 
1 0 1 0 1 0 1 0 1 0 1 0 1 0 1 0 
1 0 1 0 1 0 1 0 1 0 1 0 1 0 1 0 
1 0 1 0 1 1 1 0 1 0 1 0 1 0 1 0 
1 0 1 0 1 0 1 0 1 0 1 0 1 0 1 0 
1 0 1 0 1 0 1 0 1 0 1 0 1 0 1 0 
1 1 1 0 1 0 1 0 1 0 1 0 1 0 1 0 
1 0 1 0 1 0 1 0 1 0 1 0 1 0 1 0 
1 0 1 0 1 0 1 0 1 0 1 0 1 0 1 1 
1 0 1 0 1 0 1 0 1 0 1 0 1 0 1 0 
1 0 1 0 1 0 1 0 1 0 1 0 1 0 1 0 
1 0 1 0 1 0 1 0 1 0 1 1 1 0 1 0 
1 0 1 0 1 0 1 0 1 0 1 0 1 0 1 0 
1 0 1 0 1 0 1 0 1 0 1 0 1 0 1 0 
1 0 1 1 1 0 1 0 1 0 1 0 1 0 1 0 
1 0 1 0 1 0 1 0 1 0 1 0 1 0 1 0 
1 0 1 0 1 0 1 0 1 0 1 0 1 1 1 0 
1 0 1 0 1 0 1 0 1 0 1 0 1 0 1 0 
1 0 1 0 1 0 1 0 1 0 1 0 1 0 1 0 
1 0 1 0 1 1 1 0 1 0 1 0 1 0 1 0 
1 0 1 0 1 0 1 0 1 0 1 0 1 0 1 0 
1 0 1 0 1 0 1 0 1 0 1 0 1 1 1 0 
1 0 1 0 1 0 1 0 1 0 1 0 1 0 1 0 
1 0 1 0 1 0 1 0 1 0 1 0 1 0 1 0 
1 1 1 0 1 0 1 0 1 0 1 0 1 0 1 0 
1 0 1 0 1 0 1 0 1 0 1 0 1 0 1 0 
1 0 1 0 1 0 1 1 1 0 1 0 1 0 1 0 
1 0 1 0 1 0 1 0 1 0 1 0 1 0 1 0 
1 0 1 0 1 0 5174 3836 300 MP stroke
1 0 1 0 1 1 1 0 1 0 1 0 1 0 1 0 
1 0 1 0 1 0 1 0 1 0 1 0 1 0 1 0 
1 0 1 0 1 0 1 0 1 1 1 0 1 0 1 0 
1 0 1 0 1 0 1 0 1 0 1 0 1 0 1 0 
1 0 1 0 1 0 1 0 1 0 1 1 1 0 1 0 
1 0 1 0 1 0 1 0 1 0 1 0 1 0 1 0 
1 0 1 0 1 0 1 0 1 0 1 0 1 1 1 0 
1 0 1 0 1 0 1 0 1 0 1 0 1 0 1 0 
1 0 1 0 1 0 1 0 1 0 1 0 1 0 1 1 
1 0 1 0 1 0 1 0 1 0 1 0 1 0 1 0 
1 0 1 0 1 0 1 0 1 0 1 0 1 0 1 1 
1 0 1 0 1 0 1 0 1 0 1 0 1 0 1 0 
1 0 1 0 1 0 1 0 1 0 1 0 1 0 1 1 
1 0 1 0 1 0 1 0 1 0 1 0 1 0 1 0 
1 0 1 0 1 0 1 0 1 0 1 0 1 1 1 0 
1 0 1 0 1 0 1 0 1 0 1 0 1 0 1 0 
1 0 1 0 1 0 1 0 1 0 1 1 1 0 1 0 
1 0 1 0 1 0 1 0 1 0 1 0 1 0 1 0 
1 0 1 0 1 0 1 0 1 1 1 0 1 0 1 0 
1 0 1 0 1 0 1 0 1 0 1 0 1 0 1 0 
1 0 1 0 1 0 1 1 1 0 1 0 1 0 1 0 
1 0 1 0 1 0 1 0 1 0 1 0 1 0 1 0 
1 0 1 1 1 0 1 0 1 0 1 0 1 0 1 0 
1 0 1 0 1 0 1 0 1 0 1 0 1 0 1 1 
1 0 1 0 1 0 1 0 1 0 1 0 1 0 1 0 
1 0 1 0 1 0 1 0 1 0 1 1 1 0 1 0 
1 0 1 0 1 0 1 0 1 0 1 0 1 0 1 0 
1 0 1 0 1 1 1 0 1 0 1 0 1 0 1 0 
1 0 1 0 1 0 1 0 1 0 1 0 1 0 1 1 
1 0 1 0 1 0 1 0 1 0 1 0 1 0 1 0 
1 0 1 0 1 0 1 0 1 1 1 0 1 0 1 0 
1 0 1 0 1 0 1 0 1 0 1 0 1 0 1 0 
1 0 1 1 1 0 1 0 1 0 1 0 1 0 1 0 
1 0 1 0 1 0 1 0 1 0 1 0 1 1 1 0 
1 0 1 0 1 0 1 0 1 0 1 0 1 0 1 0 
1 0 1 0 1 1 1 0 1 0 1 0 1 0 1 0 
1 0 1 0 1 0 1 0 1 0 1 0 1 1 1 0 
1 0 1 0 1 0 4875 3815 300 MP stroke
1 0 1 0 1 0 1 0 1 0 1 0 1 0 1 1 
1 0 1 0 1 0 1 0 1 0 1 0 1 0 1 0 
1 0 1 0 1 1 1 0 1 0 1 0 1 0 1 0 
1 0 1 0 1 0 1 0 1 0 1 1 1 0 1 0 
1 0 1 0 1 0 1 0 1 0 1 0 1 0 1 0 
1 0 1 1 1 0 1 0 1 0 1 0 1 0 1 0 
1 0 1 0 1 0 1 0 1 1 1 0 1 0 1 0 
1 0 1 0 1 0 1 0 1 0 1 0 1 1 1 0 
1 0 1 0 1 0 1 0 1 0 1 0 1 0 1 0 
1 0 1 1 1 0 1 0 1 0 1 0 1 0 1 0 
1 0 1 0 1 0 1 1 1 0 1 0 1 0 1 0 
1 0 1 0 1 0 1 0 1 0 1 0 1 1 1 0 
1 0 1 0 1 0 1 0 1 0 1 0 1 0 1 0 
1 1 1 0 1 0 1 0 1 0 1 0 1 0 1 0 
1 0 1 0 1 1 1 0 1 0 1 0 1 0 1 0 
1 0 1 0 1 0 1 1 1 0 1 0 1 0 1 0 
1 0 1 0 1 0 1 0 1 0 1 1 1 0 1 0 
1 0 1 0 1 0 1 0 1 0 1 0 1 0 1 1 
1 0 1 0 1 0 1 0 1 0 1 0 1 0 1 0 
1 1 1 0 1 0 1 0 1 0 1 0 1 0 1 0 
1 0 1 1 1 0 1 0 1 0 1 0 1 0 1 0 
1 0 1 0 1 1 1 0 1 0 1 0 1 0 1 0 
1 0 1 0 1 0 1 0 1 1 1 0 1 0 1 0 
1 0 1 0 1 0 1 0 1 1 1 0 1 0 1 0 
1 0 1 0 1 0 1 0 1 0 1 1 1 0 1 0 
1 0 1 0 1 0 1 0 1 0 1 0 1 1 1 0 
1 0 1 0 1 0 1 0 1 0 1 0 1 1 1 0 
1 0 1 0 1 0 1 0 1 0 1 0 1 1 1 0 
1 0 1 0 1 0 1 0 1 0 1 0 1 0 1 1 
1 0 1 0 1 0 1 0 1 0 1 0 1 0 1 1 
1 0 1 0 1 0 1 0 1 0 1 0 1 0 1 1 
1 0 1 0 1 0 1 0 1 0 1 0 1 0 1 1 
1 0 1 0 1 0 1 0 1 0 1 0 1 1 1 0 
1 0 1 0 1 0 1 0 1 0 1 0 1 1 1 0 
1 0 1 0 1 0 1 0 1 0 1 1 1 0 1 0 
1 0 1 0 1 0 1 0 1 0 1 1 1 0 1 0 
1 0 1 0 1 0 1 0 1 1 1 0 1 0 1 0 
1 0 1 0 1 0 4576 3783 300 MP stroke
1 0 1 1 1 0 1 0 1 0 1 0 1 0 1 0 
1 1 1 0 1 0 1 0 1 0 1 0 1 0 1 1 
1 0 1 0 1 0 1 0 1 0 1 0 1 1 1 0 
1 0 1 0 1 0 1 0 1 0 1 1 1 0 1 0 
1 0 1 0 1 0 1 0 1 1 1 0 1 0 1 0 
1 0 1 0 1 0 1 1 1 0 1 0 1 0 1 0 
1 0 1 1 1 0 1 0 1 0 1 0 1 0 1 0 
1 1 1 0 1 0 1 0 1 0 1 0 1 0 1 1 
1 0 1 0 1 0 1 0 1 0 1 1 1 0 1 0 
1 0 1 0 1 0 1 1 1 0 1 0 1 0 1 0 
1 0 1 1 1 0 1 0 1 0 1 0 1 0 1 0 
1 1 1 0 1 0 1 0 1 0 1 0 1 1 1 0 
1 0 1 0 1 0 1 0 1 1 1 0 1 0 1 0 
1 0 1 0 1 1 1 0 1 0 1 0 1 0 1 0 
1 1 1 0 1 0 1 0 1 0 1 0 1 1 1 0 
1 0 1 0 1 0 1 1 1 0 1 0 1 0 1 0 
1 0 1 0 1 1 1 0 1 0 1 0 1 0 1 1 
1 0 1 0 1 0 1 0 1 0 1 1 1 0 1 0 
1 0 1 0 1 1 1 0 1 0 1 0 1 0 1 0 
1 1 1 0 1 0 1 0 1 0 1 1 1 0 1 0 
1 0 1 0 1 0 1 1 1 0 1 0 1 0 1 0 
1 1 1 0 1 0 1 0 1 0 1 1 1 0 1 0 
1 0 1 0 1 0 1 1 1 0 1 0 1 0 1 0 
1 1 1 0 1 0 1 0 1 0 1 1 1 0 1 0 
1 0 1 0 1 1 1 0 1 0 1 0 1 0 1 1 
1 0 1 0 1 0 1 0 1 1 1 0 1 0 1 0 
1 0 1 1 1 0 1 0 1 0 1 0 1 1 1 0 
1 0 1 0 1 0 1 1 1 0 1 0 1 0 1 1 
1 0 1 0 1 0 1 0 1 1 1 0 1 0 1 0 
1 0 1 1 1 0 1 0 1 0 1 1 1 0 1 0 
1 0 1 0 1 1 1 0 1 0 1 0 1 0 1 1 
1 0 1 0 1 0 1 1 1 0 1 0 1 0 1 1 
1 0 1 0 1 0 1 0 1 1 1 0 1 0 1 0 
1 1 1 0 1 0 1 0 1 0 1 1 1 0 1 0 
1 0 1 1 1 0 1 0 1 0 1 1 1 0 1 0 
1 0 1 1 1 0 1 0 1 0 1 0 1 1 1 0 
1 0 1 0 1 1 1 0 1 0 1 0 1 1 1 0 
1 0 1 0 1 1 4277 3727 300 MP stroke
1 0 1 0 1 0 1 1 1 0 1 0 1 0 1 1 
1 0 1 0 1 0 1 0 1 1 1 0 1 0 1 1 
1 0 1 0 1 0 1 1 1 0 1 0 1 0 1 1 
1 0 1 0 1 0 1 1 1 0 1 0 1 0 1 1 
1 0 1 0 1 1 1 0 1 0 1 0 1 0 1 1 
1 0 1 0 1 1 1 0 1 0 1 0 1 1 1 0 
1 0 1 0 1 1 1 0 1 0 1 1 1 0 1 0 
1 0 1 1 1 0 1 0 1 1 1 0 1 0 1 0 
1 1 1 0 1 0 1 0 1 1 1 0 1 0 1 1 
1 0 1 0 1 0 1 1 1 0 1 0 1 1 1 0 
1 0 1 1 1 0 1 0 1 0 1 1 1 0 1 0 
1 1 1 0 1 0 1 0 1 1 1 0 1 0 1 1 
1 0 1 0 1 1 1 0 1 0 1 0 1 1 1 0 
1 0 1 1 1 0 1 0 1 1 1 0 1 0 1 1 
1 0 1 0 1 0 1 1 1 0 1 0 1 1 1 0 
1 0 1 1 1 0 1 0 1 1 1 0 1 0 1 1 
1 0 1 0 1 1 1 0 1 0 1 1 1 0 1 0 
1 1 1 0 1 0 1 1 1 0 1 0 1 1 1 0 
1 0 1 1 1 0 1 0 1 1 1 0 1 0 1 1 
1 0 1 0 1 1 1 0 1 0 1 1 1 0 1 0 
1 1 1 0 1 1 1 0 1 0 1 1 1 0 1 0 
1 1 1 0 1 0 1 1 1 0 1 0 1 1 1 0 
1 1 1 0 1 0 1 1 1 0 1 0 1 1 1 0 
1 0 1 1 1 0 1 1 1 0 1 0 1 1 1 0 
1 0 1 1 1 0 1 1 1 0 1 0 1 1 1 0 
1 1 1 0 1 0 1 1 1 0 1 0 1 1 1 0 
1 1 1 0 1 0 1 1 1 0 1 1 1 0 1 0 
1 1 1 0 1 1 1 0 1 0 1 1 1 0 1 1 
1 0 1 0 1 1 1 0 1 1 1 0 1 1 1 0 
1 0 1 1 1 0 1 1 1 0 1 0 1 1 1 0 
1 1 1 0 1 1 1 0 1 0 1 1 1 0 1 1 
1 0 1 1 1 0 1 0 1 1 1 0 1 1 1 0 
1 1 1 0 1 0 1 1 1 0 1 1 1 0 1 1 
1 0 1 1 1 0 1 1 1 0 1 1 1 0 1 0 
1 1 1 0 1 1 1 0 1 1 1 0 1 1 1 0 
1 1 1 0 1 1 1 0 1 0 1 1 1 0 1 1 
1 0 1 1 1 0 1 1 1 0 1 1 1 0 1 1 
1 0 1 1 1 0 3978 3623 300 MP stroke
1 1 1 0 1 1 1 0 1 1 1 0 1 1 1 0 
1 1 1 0 1 1 1 0 1 1 1 0 1 1 1 0 
1 1 1 0 1 1 1 0 1 1 1 1 1 0 1 1 
1 0 1 0 1 1 1 1 1 0 1 1 1 0 1 1 
1 0 1 1 1 0 1 1 1 1 1 0 1 0 1 1 
1 1 1 0 1 1 1 0 1 1 1 0 1 1 1 1 
1 0 1 1 1 0 1 1 1 0 1 1 1 0 1 1 
1 1 1 0 1 1 1 0 1 1 1 1 1 0 1 1 
1 0 1 1 1 0 1 1 1 1 1 0 1 1 1 0 
1 1 1 1 1 0 1 1 1 0 1 1 1 1 1 0 
1 1 1 0 1 1 1 1 1 0 1 1 1 1 1 0 
1 1 1 0 1 1 1 1 1 0 1 1 1 1 1 0 
1 1 1 1 1 0 1 1 1 1 1 0 1 1 1 0 
1 1 1 1 1 0 1 1 1 1 1 0 1 1 1 1 
1 0 1 1 1 1 1 0 1 1 1 1 1 0 1 1 
1 1 1 0 1 1 1 1 1 1 1 0 1 1 1 1 
1 0 1 1 1 1 1 0 1 1 1 1 1 1 1 0 
1 1 1 1 1 1 1 0 1 1 1 0 1 1 1 1 
1 1 1 1 1 0 1 1 1 1 1 1 1 0 1 1 
1 1 1 1 1 0 1 1 1 1 1 0 1 1 1 1 
1 1 1 1 1 0 1 1 1 1 1 1 1 1 1 0 
1 1 1 1 1 1 1 0 1 1 1 1 1 1 1 1 
1 1 1 0 1 1 1 1 1 1 1 0 1 1 1 1 
1 1 1 1 1 1 1 1 1 0 1 1 1 1 1 1 
1 1 1 0 1 1 1 1 1 1 1 1 1 1 1 1 
1 1 1 1 1 0 1 1 1 1 1 1 1 1 1 1 
1 0 1 1 1 1 1 1 1 1 1 1 1 1 1 1 
1 1 1 1 1 1 1 1 1 0 1 1 1 1 1 1 
1 1 1 1 1 1 1 1 1 1 1 1 1 1 1 1 
1 1 1 1 1 1 1 1 1 1 1 1 1 1 1 1 
1 1 1 1 1 1 1 1 1 1 1 1 1 0 1 1 
1 1 1 1 0 1 2 2 1 1 1 1 1 1 1 1 
1 1 1 1 1 1 1 1 1 1 1 1 1 1 1 1 
1 1 1 1 1 1 1 1 0 1 2 2 1 1 1 1 
1 0 -1 0 2 2 1 1 1 1 1 1 1 1 1 1 
0 1 2 2 1 1 1 1 1 1 1 1 1 1 1 1 
1 1 0 1 2 2 1 1 1 1 1 1 0 1 2 2 
1 1 1 1 1 1 3680 3392 300 MP stroke
1 1 1 1 0 1 2 2 1 1 1 1 0 1 2 2 
1 1 1 1 0 1 2 2 1 1 1 1 1 1 1 1 
0 1 2 2 1 1 0 1 2 2 1 1 0 1 2 2 
1 1 1 1 1 1 0 1 2 2 1 1 0 1 2 2 
1 1 0 1 2 2 0 1 2 2 1 1 1 1 1 1 
0 1 2 2 0 1 2 2 1 1 0 1 1 1 1 1 
0 1 2 2 0 1 2 2 1 1 1 1 0 1 2 2 
0 1 2 2 0 1 2 2 0 1 2 2 0 1 2 2 
0 1 2 2 1 1 1 1 0 1 1 1 0 1 2 2 
0 1 2 2 0 1 1 1 1 1 0 1 1 1 1 1 
0 1 1 1 1 1 1 1 0 1 1 1 0 1 2 2 
0 1 1 1 0 1 2 2 0 1 1 1 1 1 0 1 
1 1 0 1 1 1 1 1 0 1 1 1 1 1 0 1 
2 2 0 1 1 1 0 1 2 2 0 1 1 1 0 1 
1 1 1 1 0 1 1 1 0 1 1 1 0 1 1 1 
1 1 1 1 0 1 1 1 0 1 1 1 0 1 2 2 
0 1 1 1 0 1 1 1 0 1 1 1 0 1 2 2 
0 1 1 1 0 1 1 1 0 1 1 1 0 1 1 1 
1 0 -1 0 2 2 0 1 1 1 0 1 1 1 0 1 
1 1 0 1 1 1 0 1 1 1 0 1 1 1 0 1 
2 2 0 1 1 1 0 1 1 1 0 1 1 1 1 1 
0 1 1 1 0 1 1 1 0 1 1 1 0 1 1 1 
0 1 1 1 0 1 1 1 0 1 1 1 0 1 1 1 
0 1 1 1 0 1 1 1 0 1 1 1 0 1 1 1 
1 1 0 1 1 1 0 1 1 1 0 1 1 1 0 1 
1 1 0 1 1 1 0 1 1 1 0 1 1 1 0 1 
1 1 0 1 1 1 0 1 1 2 0 1 1 1 0 1 
1 1 1 1 0 1 1 1 0 1 1 1 0 1 1 1 
0 1 1 1 0 1 1 2 0 1 1 1 0 1 1 1 
0 1 1 1 0 1 1 1 0 1 1 1 0 2 1 1 
0 1 1 1 1 1 0 1 1 1 0 1 1 2 0 1 
1 1 0 1 1 1 0 1 1 1 0 1 1 2 0 1 
1 1 0 1 1 1 0 1 1 1 0 2 1 1 0 1 
1 1 0 1 1 1 1 2 0 1 1 1 0 1 1 1 
0 1 1 2 0 1 1 1 0 1 1 1 0 2 1 1 
0 1 1 1 0 1 1 2 0 1 1 1 0 1 1 1 
0 2 1 1 0 1 1 1 1 2 0 1 1 1 0 1 
1 2 0 1 1 1 3480 3052 300 MP stroke
0 1 1 1 0 2 1 1 0 1 1 1 0 2 1 1 
0 1 1 2 0 1 1 1 0 1 1 2 0 1 1 1 
0 1 1 2 1 1 0 1 1 2 0 1 1 1 0 2 
1 1 0 1 1 1 0 2 1 1 0 1 1 2 0 1 
1 1 0 2 1 1 0 1 1 2 0 1 1 1 0 2 
1 1 0 1 1 2 1 1 0 1 1 2 0 1 1 2 
0 1 1 1 0 2 1 1 0 1 1 2 0 1 1 2 
0 1 1 1 0 2 1 1 0 2 1 1 0 1 1 2 
0 1 1 2 0 1 1 1 1 2 0 1 1 2 0 1 
1 2 0 1 1 1 0 2 1 1 0 2 1 1 0 2 
1 1 0 2 1 1 0 2 1 1 0 2 1 1 0 1 
1 2 0 1 1 2 0 1 1 2 1 1 0 2 1 1 
0 2 1 1 0 2 1 1 0 2 1 1 0 2 1 2 
0 1 1 2 0 1 1 2 0 1 1 2 0 1 1 2 
0 1 1 2 0 1 1 2 0 2 1 1 1 2 0 1 
1 2 0 1 1 2 0 2 1 1 0 2 1 1 0 2 
1 2 0 1 1 2 0 1 1 2 0 2 1 1 0 2 
1 2 0 1 1 2 0 1 1 2 0 2 1 1 1 2 
0 2 1 1 0 2 1 2 0 1 1 2 0 2 1 1 
0 2 1 2 0 1 1 2 0 2 1 2 0 1 1 2 
0 2 1 1 0 2 1 2 0 2 1 1 0 2 1 2 
1 1 0 2 1 2 0 2 1 1 0 2 1 2 0 2 
1 1 0 2 1 2 0 2 1 2 0 1 1 2 0 2 
1 2 0 2 1 1 0 2 1 2 0 2 1 2 0 1 
1 2 1 2 0 2 1 2 0 2 1 1 0 2 1 2 
0 2 1 2 0 2 1 1 0 2 1 2 0 2 1 2 
0 2 1 2 0 2 1 1 0 2 1 2 0 2 1 2 
0 2 1 2 0 2 1 2 1 2 0 2 1 2 0 1 
1 2 0 2 1 2 0 2 1 2 0 2 1 2 0 2 
1 2 0 2 1 2 0 2 1 2 0 2 1 2 0 2 
1 2 0 2 1 2 0 2 1 2 1 2 0 2 1 2 
0 2 1 2 0 2 1 2 0 2 1 2 0 2 1 3 
0 2 1 2 0 2 1 2 0 2 1 2 0 2 1 2 
0 2 1 2 0 3 1 2 0 2 1 2 1 2 0 2 
1 2 0 2 1 3 0 2 1 2 0 2 1 2 0 2 
1 2 0 3 1 2 0 2 1 2 0 2 1 3 0 2 
1 2 0 2 1 2 0 3 1 2 0 2 1 2 1 2 
0 3 1 2 0 2 3325 2545 300 MP stroke
1 2 0 3 1 2 0 2 1 2 0 3 1 2 0 2 
1 3 0 2 1 2 0 2 1 3 0 2 1 2 0 3 
1 2 0 2 1 3 0 2 1 2 1 3 0 2 1 2 
0 3 1 2 0 2 1 3 0 2 1 3 0 2 1 2 
0 3 1 2 0 2 1 3 0 2 1 3 0 2 1 3 
0 2 1 2 0 3 1 2 0 3 1 2 1 3 0 2 
1 3 0 2 1 2 0 3 1 2 0 3 1 2 0 3 
1 2 0 3 1 2 0 3 1 2 0 3 1 2 0 3 
1 3 0 2 1 3 0 2 1 3 0 2 1 3 1 2 
0 3 1 3 0 2 1 3 0 2 1 3 0 3 1 2 
0 3 1 2 0 3 1 3 0 2 1 3 0 3 1 2 
0 3 1 2 0 3 1 3 0 2 1 3 0 3 1 2 
1 3 0 3 1 3 0 2 1 3 0 3 1 2 0 3 
1 3 0 3 1 2 0 3 1 3 0 3 1 2 0 3 
1 3 0 3 1 2 0 3 1 3 0 3 1 2 0 3 
1 3 1 3 0 3 1 3 0 2 1 3 0 3 1 3 
0 3 1 2 0 3 1 3 0 3 1 3 0 3 1 3 
0 3 1 2 0 3 1 3 0 3 1 3 0 3 1 3 
0 3 1 3 1 3 0 3 1 2 0 3 1 3 0 3 
1 3 0 3 1 3 0 3 1 3 0 3 1 3 0 3 
1 3 0 3 1 3 0 3 1 3 0 3 1 3 0 3 
1 3 0 3 1 3 1 3 0 3 1 3 0 3 1 3 
0 4 1 3 0 3 1 3 0 3 1 3 0 3 1 3 
0 3 1 3 0 3 1 4 0 3 1 3 0 3 1 3 
0 3 1 3 0 4 1 3 1 3 0 3 1 3 0 3 
1 4 0 3 1 3 0 3 1 3 0 4 1 3 0 3 
1 3 0 3 1 4 0 3 1 3 0 3 1 4 0 3 
1 3 0 3 1 -975 0 -978 1 0 1 0 1 0 1 0 
1 0 1 0 1 0 1 0 1 0 1 0 1 0 1 0 
1 0 1 0 1 0 1 0 1 0 1 0 1 0 1 0 
1 0 1 0 1 0 1 0 1 0 1 0 1 0 1 0 
1 0 1 0 1 0 1 0 1 0 1 0 1 0 1 0 
1 0 1 0 1 0 1 0 1 0 1 0 1 0 1 0 
1 0 1 0 1 0 1 0 1 0 1 0 1 0 1 0 
1 0 1 0 1 0 1 0 1 0 1 0 1 0 1 0 
1 0 1 0 1 0 1 0 1 0 1 0 1 0 1 0 
1 0 1 0 1 0 1 0 1 0 1 0 1 0 1 0 
1 0 1 0 1 0 3132 3899 300 MP stroke
1 0 1 0 1 0 1 0 1 0 1 0 1 0 1 0 
1 0 1 0 1 0 1 0 1 0 1 0 1 0 1 0 
1 0 1 0 1 0 1 0 1 0 1 0 1 0 1 0 
1 0 1 0 1 0 1 0 1 0 1 0 1 0 1 0 
1 0 1 0 1 0 1 0 1 0 1 0 1 0 1 0 
1 0 1 0 1 0 1 0 1 0 1 0 1 0 1 0 
1 0 1 0 1 0 1 0 1 0 1 0 1 0 1 0 
1 0 1 0 1 0 1 0 1 0 1 0 1 0 1 0 
1 0 1 0 1 0 1 0 1 0 1 0 1 0 1 0 
1 0 1 0 1 0 1 0 1 0 1 0 1 0 1 0 
1 0 1 0 1 0 1 0 1 0 1 0 1 0 1 0 
1 0 1 0 1 0 1 0 1 0 1 0 1 0 1 0 
1 0 1 0 1 0 1 0 1 0 1 0 1 0 1 0 
1 0 1 0 1 0 1 0 1 0 1 0 1 0 1 0 
1 0 1 0 1 0 1 0 1 0 1 0 1 0 1 0 
1 0 1 0 1 0 1 0 1 0 1 0 1 0 1 0 
1 0 1 0 1 0 1 0 1 0 1 0 1 0 1 0 
1 0 1 0 1 0 1 0 1 0 1 0 1 0 1 0 
1 0 1 0 1 0 1 0 1 0 1 0 1 0 1 0 
1 0 1 0 1 0 1 0 1 0 1 0 1 0 1 0 
1 0 1 0 1 0 1 0 1 0 1 0 1 0 1 0 
1 0 1 0 1 0 1 0 1 0 1 0 1 0 1 0 
1 0 1 0 1 0 1 0 1 1677 0 1677 1 0 1 0 
1 -1 1 0 1 0 1 0 1 -1 1 0 1 -1 1 -1 
1 0 1 -1 1 -1 1 -1 1 -1 1 -1 1 -1 0 -1 
2 -2 1 -1 0 -1 2 -2 0 -1 1 -1 1 -1 0 -1 
1 -1 0 -1 1 -1 0 -1 1 -1 0 -1 1 -1 0 -1 
1 -1 1 -1 0 -1 1 -1 0 -1 1 -1 0 -2 1 -1 
0 -1 1 -1 0 -1 1 -2 0 -1 1 -1 0 -1 1 -2 
0 -1 1 -1 0 -2 1 -1 0 -2 1 -1 0 -1 1 -2 
0 -1 1 -2 1 -1 0 -2 1 -1 0 -2 1 -2 0 -1 
1 -2 0 -1 1 -2 0 -2 1 -1 0 -2 1 -2 0 -1 
1 -2 0 -2 1 -2 0 -2 1 -1 0 -2 1 -2 0 -2 
1 -2 0 -2 1 -1 1 -2 0 -2 1 -2 0 -2 1 -2 
0 -2 1 -2 0 -2 1 -2 0 -2 1 -2 0 -2 1 -3 
0 -2 1 -2 0 -2 1 -2 0 -2 1 -2 0 -3 1 -2 
0 -2 1 -2 0 -3 1 -2 1 -2 0 -3 1 -2 0 -2 
1 -2 0 -3 1 -2 2879 718 300 MP stroke
0 -3 1 -2 0 -2 1 -3 0 -2 1 -3 0 -2 1 -3 
0 -2 1 -3 0 -2 1 -3 0 -2 1 -3 0 -2 1 -3 
0 -3 1 -2 1 -3 0 -2 1 -3 0 -3 1 -2 0 -3 
1 -3 0 -2 1 -3 0 -3 1 -3 0 -2 1 -3 0 -3 
1 -3 0 -3 1 -2 0 -3 1 -3 0 -3 1 -3 0 -3 
1 -2 0 -3 1 -3 1 -3 0 -3 1 -3 0 -3 1 -3 
0 -3 1 -3 0 -3 1 -3 0 -3 1 -3 0 -3 1 -3 
0 -3 1 -3 0 -3 1 -3 0 -3 1 -3 0 -3 1 -3 
0 -3 1 -4 0 -3 1 -3 1 -3 0 -3 1 -3 0 -3 
1 -4 0 -3 1 -3 0 -3 1 -3 0 -4 1 -3 0 -3 
1 -3 0 -4 1 -3 0 -3 1 -3 0 -4 1 -3 0 -3 
1 -4 0 -3 1 -3 0 -3 1 -4 1 -3 0 -3 1 -4 
0 -3 1 -4 0 -3 1 -3 0 -4 1 -3 0 -3 1 -4 
0 -3 1 -4 0 -3 1 -4 0 -3 1 -3 0 -4 1 -3 
0 -4 1 -3 0 -4 1 -3 0 -4 1 -3 1 -4 0 -3 
1 -4 0 -3 1 -4 0 -3 1 -4 0 -3 1 -4 0 -3 
1 -4 0 -3 1 -4 0 -3 1 -4 0 -3 1 -4 0 -3 
1 -4 0 -4 1 -3 0 -4 1 -3 0 -4 1 -3 1 -4 
0 -4 1 -3 0 -4 1 -3 0 -4 1 -4 0 -3 1 -4 
0 -3 1 -4 0 -4 1 -3 0 -4 1 -4 0 -3 1 -4 
0 -3 1 -4 0 -4 1 -3 0 -4 1 -4 0 -3 1 -4 
1 -4 0 -3 1 -4 0 -4 1 -3 0 -4 1 -4 0 -3 
1 -4 0 -4 1 -3 0 -4 1 -4 0 -3 1 -4 0 -4 
1 -3 0 -4 1 -4 0 -3 1 -4 0 -4 1 -3 0 -4 
1 -4 1 -3 0 -4 1 -4 0 -3 1 -4 0 -4 1 -3 
0 -4 1 -4 0 -3 1 -4 0 -4 1 -4 0 -3 1 -4 
0 -4 1 -3 0 -4 1 -4 0 -3 1 -4 0 -4 1 -3 
0 -4 1 -4 1 -3 0 -4 1 -4 0 -3 1 -4 0 -4 
1 -3 0 -4 1 -4 0 -3 1 -4 0 -4 1 -3 0 -4 
1 -4 0 -3 1 -4 0 -4 1 -3 0 -4 1 -4 0 -3 
1 -4 0 -4 1 -3 1 -4 0 -4 1 -3 0 -4 1 -3 
0 -4 1 -4 0 -3 1 -4 0 -4 1 -3 0 -4 1 -4 
0 -3 1 -4 0 -3 1 -4 0 -4 1 -3 0 -4 1 -3 
0 -4 1 -4 0 -3 1 -4 0 -3 1 -4 1 -4 0 -3 
1 -4 0 -3 1 -4 0 -4 1 -3 0 -4 1 -3 0 -4 
1 -3 0 -4 1 -3 0 -4 1 -4 0 -3 1 -4 0 -3 
1 -4 0 -3 1 -4 0 -3 1 -4 0 -3 1 -4 1 -3 
0 -4 1 -3 0 -4 2724 1729 300 MP stroke
1 -3 0 -4 1 -3 0 -4 1 -3 0 -4 1 -3 0 -4 
1 -3 0 -4 1 -3 0 -4 1 -3 0 -4 1 -3 0 -4 
1 -3 0 -4 1 -3 0 -3 1 -4 1 -3 0 -4 1 -3 
0 -4 1 -3 0 -3 1 -4 0 -3 1 -4 0 -3 1 -3 
0 -4 1 -3 0 -4 1 -3 0 -3 1 -4 0 -3 1 -3 
0 -4 1 -3 0 -3 1 -4 0 -3 1 -3 1 -4 0 -3 
1 -3 0 -4 1 -3 0 -3 1 -4 0 -3 1 -3 0 -4 
1 -3 0 -3 1 -3 0 -4 1 -3 0 -3 1 -3 0 -4 
1 -3 0 -3 1 -3 0 -4 1 -3 0 -3 1 -3 1 -4 
0 -3 1 -3 0 -3 1 -3 0 -4 1 -3 0 -3 1 -3 
0 -3 1 -4 0 -3 1 -3 0 -3 1 -3 0 -3 1 -4 
0 -3 1 -3 0 -3 1 -3 0 -3 1 -3 0 -4 1 -3 
1 -3 0 -3 1 -3 0 -3 1 -3 0 -3 1 -3 0 -3 
1 -3 0 -4 1 -3 0 -3 1 -3 0 -3 1 -3 0 -3 
1 -3 0 -3 1 -3 0 -3 1 -3 0 -3 1 -3 0 -3 
1 -3 1 -3 0 -3 1 -3 0 -3 1 -3 0 -3 1 -3 
0 -3 1 -3 0 -3 1 -3 0 -3 1 -2 0 -3 1 -3 
0 -3 1 -3 0 -3 1 -3 0 -3 1 -3 0 -3 1 -3 
0 -2 1 -3 1 -3 0 -3 1 -3 0 -3 1 -3 0 -3 
1 -2 0 -3 1 -3 0 -3 1 -3 0 -2 1 -3 0 -3 
1 -3 0 -3 1 -3 0 -2 1 -3 0 -3 1 -3 0 -2 
1 -3 0 -3 1 -3 1 -2 0 -3 1 -3 0 -3 1 -2 
0 -3 1 -3 0 -3 1 -2 0 -3 1 -3 0 -2 1 -3 
0 -3 1 -3 0 -2 1 -3 0 -3 1 -2 0 -3 1 -3 
0 -2 1 -3 0 -2 1 -3 1 -3 0 -2 1 -3 0 -3 
1 -2 0 -3 1 -2 0 -3 1 -3 0 -2 1 -3 0 -2 
1 -3 0 -3 1 -2 0 -3 1 -2 0 -3 1 -2 0 -3 
1 -2 0 -3 1 -3 0 -2 1 -3 1 -2 0 -3 1 -2 
0 -3 1 -2 0 -3 1 -2 0 -3 1 -2 0 -3 1 -2 
0 -2 1 -3 0 -2 1 -3 0 -2 1 -3 0 -2 1 -3 
0 -2 1 -2 0 -3 1 -2 0 -3 1 -2 1 -3 0 -2 
1 -2 0 -3 1 -2 0 -2 1 -3 0 -2 1 -3 0 -2 
1 -2 0 -3 1 -2 0 -2 1 -3 0 -2 1 -2 0 -3 
1 -2 0 -2 1 -3 0 -2 1 -2 0 -3 1 -2 1 -2 
0 -2 1 -3 0 -2 1 -2 0 -3 1 -2 0 -2 1 -2 
0 -3 1 -2 0 -2 1 -2 0 -3 1 -2 0 -2 1 -2 
0 -2 1 -3 0 -2 1 -2 0 -2 1 -2 0 -3 1 -2 
1 -2 0 -2 1 -2 2568 2582 300 MP stroke
0 -3 1 -2 0 -2 1 -2 0 -2 1 -2 0 -2 1 -3 
0 -2 1 -2 0 -2 1 -2 0 -2 1 -2 0 -2 1 -3 
0 -2 1 -2 0 -2 1 -2 0 -2 1 -2 1 -2 0 -2 
1 -2 0 -2 1 -3 0 -2 1 -2 0 -2 1 -2 0 -2 
1 -2 0 -2 1 -2 0 -2 1 -2 0 -2 1 -2 0 -2 
1 -2 0 -2 1 -2 0 -2 1 -2 0 -2 1 -2 1 -2 
0 -2 1 -2 0 -2 1 -2 0 -2 1 -2 0 -2 1 -2 
0 -2 1 -2 0 -1 1 -2 0 -2 1 -2 0 -2 1 -2 
0 -2 1 -2 0 -2 1 -2 0 -2 1 -2 0 -1 1 -2 
0 -2 1 -2 1 -2 0 -2 1 -2 0 -2 1 -1 0 -2 
1 -2 0 -2 1 -2 0 -2 1 -1 0 -2 1 -2 0 -2 
1 -2 0 -2 1 -1 0 -2 1 -2 0 -2 1 -2 0 -1 
1 -2 0 -2 1 -2 1 -2 0 -1 1 -2 0 -2 1 -2 
0 -2 1 -1 0 -2 1 -2 0 -2 1 -1 0 -2 1 -2 
0 -2 1 -1 0 -2 1 -2 0 -1 1 -2 0 -2 1 -2 
0 -1 1 -2 0 -2 1 -1 1 -2 0 -2 1 -2 0 -1 
1 -2 0 -2 1 -1 0 -2 1 -2 0 -1 1 -2 0 -2 
1 -1 0 -2 1 -2 0 -1 1 -2 0 -2 1 -1 0 -2 
1 -1 0 -2 1 -2 0 -1 1 -2 1 -2 0 -1 1 -2 
0 -1 1 -2 0 -2 1 -1 0 -2 1 -1 0 -2 1 -2 
0 -1 1 -2 0 -1 1 -2 0 -1 1 -2 0 -2 1 -1 
0 -2 1 -1 0 -2 1 -1 0 -2 1 -1 1 -2 0 -1 
1 -2 0 -1 1 -2 0 -2 1 -1 0 -2 1 -1 0 -2 
1 -1 0 -2 1 -1 0 -2 1 -1 0 -2 1 -1 0 -2 
1 -1 0 -2 1 -1 0 -1 1 -2 0 -1 1 -2 1 -1 
0 -2 1 -1 0 -2 1 -1 0 -2 1 -1 0 -2 1 -1 
0 -1 1 -2 0 -1 1 -2 0 -1 1 -2 0 -1 1 -1 
0 -2 1 -1 0 -2 1 -1 0 -1 1 -2 0 -1 1 -2 
1 -1 0 -1 1 -2 0 -1 1 -2 0 -1 1 -1 0 -2 
1 -1 0 -1 1 -2 0 -1 1 -2 0 -1 1 -1 0 -2 
1 -1 0 -1 1 -2 0 -1 1 -1 0 -2 1 -1 0 -1 
1 -2 1 -1 0 -1 1 -2 0 -1 1 -1 0 -2 1 -1 
0 -1 1 -1 0 -2 1 -1 0 -1 1 -2 0 -1 1 -1 
0 -2 1 -1 0 -1 1 -1 0 -2 1 -1 0 -1 1 -1 
0 -2 1 -1 1 -1 0 -2 1 -1 0 -1 1 -1 0 -2 
1 -1 0 -1 1 -1 0 -1 1 -2 0 -1 1 -1 0 -1 
1 -2 0 -1 1 -1 0 -1 1 -2 0 -1 1 -1 0 -1 
1 -1 0 -2 1 -1 2413 3073 300 MP stroke
1 -1 0 -1 1 -1 0 -2 1 -1 0 -1 1 -1 0 -1 
1 -2 0 -1 1 -1 0 -1 1 -1 0 -1 1 -2 0 -1 
1 -1 0 -1 1 -1 0 -1 1 -2 0 -1 1 -1 0 -1 
1 -1 1 -1 0 -1 1 -2 0 -1 1 -1 0 -1 1 -1 
0 -1 1 -1 0 -1 1 -2 0 -1 1 -1 0 -1 1 -1 
0 -1 1 -1 0 -1 1 -2 0 -1 1 -1 0 -1 1 -1 
0 -1 1 -1 1 -1 0 -1 1 -1 0 -1 1 -2 0 -1 
1 -1 0 -1 1 -1 0 -1 1 -1 0 -1 1 -1 0 -1 
1 -1 0 -1 1 -1 0 -1 1 -1 0 -2 1 -1 0 -1 
1 -1 0 -1 1 -1 1 -1 0 -1 1 -1 0 -1 1 -1 
0 -1 1 -1 0 -1 1 -1 0 -1 1 -1 0 -1 1 -1 
0 -1 1 -1 0 -1 1 -1 0 -1 1 -1 0 -1 1 -1 
0 -1 1 -1 0 -1 1 -1 1 -1 0 -1 1 -1 0 -1 
1 -1 0 -1 1 -1 0 -1 1 -1 0 -1 1 -1 0 -1 
1 -1 0 -1 1 -1 0 -1 1 -1 0 -1 1 -1 0 -1 
1 -1 0 -1 1 -1 1 -1 1 -1 0 -1 1 -1 0 -1 
1 -1 0 -1 1 -1 0 -1 1 -1 0 -1 1 -1 0 -1 
1 -1 0 -1 2 -2 0 -1 1 -1 0 -1 1 -1 0 -1 
1 -1 0 -1 1 -1 1 0 -1 0 2 -2 0 -1 1 -1 
0 -1 1 -1 0 -1 1 -1 0 -1 2 -2 0 -1 1 -1 
0 -1 1 -1 0 -1 2 -2 0 -1 1 -1 0 -1 1 -1 
1 -1 1 -1 0 -1 1 -1 0 -1 1 -1 0 -1 2 -2 
0 -1 1 -1 0 -1 2 -2 0 -1 1 -1 0 -1 2 -2 
0 -1 1 -1 1 -1 1 -1 0 -1 1 -1 0 -1 2 -2 
0 -1 1 -1 0 -1 2 -2 0 -1 1 -1 1 -1 0 -1 
1 -1 0 -1 2 -2 1 -1 1 -1 0 -1 1 -1 0 -1 
2 -2 0 -1 2 -2 0 -1 1 -1 1 -1 0 -1 1 -1 
1 -1 0 -1 1 -1 1 -1 0 -1 1 -1 1 0 -1 0 
2 -2 0 -1 2 -2 0 -1 2 -2 0 -1 2 -2 1 -1 
0 -1 1 -1 1 -1 0 -1 1 -1 1 -1 1 -1 1 -1 
0 -1 1 -1 1 -1 0 -1 2 -2 0 -1 2 -2 1 -1 
0 -1 2 -2 1 -1 0 -1 1 -1 1 0 -1 0 2 -2 
1 -1 0 -1 2 -2 1 -1 0 -1 2 -2 1 -1 0 -1 
2 -2 1 -1 1 -1 1 -1 0 -1 2 -2 1 -1 0 -1 
2 -2 1 -1 1 -1 0 -1 2 -2 1 -1 1 -1 1 -1 
1 -1 0 -1 2 -2 1 -1 1 -1 0 -1 2 -2 1 -1 
1 -1 1 -1 0 -1 2 -2 1 -1 1 0 -1 0 2 -2 
1 -1 1 -1 1 -1 2212 3403 300 MP stroke
0 -1 2 -2 1 -1 1 -1 1 -1 1 -1 0 -1 2 -2 
1 0 0 -1 2 -2 1 -1 1 -1 1 -1 1 -1 1 -1 
1 -1 0 -1 2 -2 1 -1 1 -1 1 0 0 -1 2 -2 
1 -1 1 -1 1 -1 1 -1 1 -1 1 -1 1 -1 1 -1 
1 -1 1 -1 1 -1 1 -1 1 -1 1 -1 1 -1 1 -1 
1 -1 1 -1 1 -1 1 -1 1 -1 1 -1 1 -1 1 -1 
1 -1 1 -1 1 -1 1 -1 1 -1 1 -1 1 -1 1 -1 
1 -1 1 -1 1 -1 1 -1 1 0 1 -1 1 -1 1 -1 
1 -1 1 -1 1 -1 1 -1 1 -1 1 -1 1 -1 1 -1 
1 -1 1 0 1 -1 1 -1 1 -1 1 -1 1 -1 1 -1 
1 -1 1 -1 1 -1 1 -1 1 -1 1 0 1 -1 1 -1 
1 -1 1 -1 1 -1 1 0 1 -1 1 -1 1 -1 1 -1 
1 -1 1 -1 1 -1 1 0 1 -1 1 -1 1 -1 1 0 
1 -1 1 -1 1 -1 1 -1 1 -1 1 -1 1 0 1 -1 
1 -1 1 -1 1 0 1 -1 1 -1 1 -1 1 -1 1 0 
1 -1 1 -1 1 -1 1 -1 1 -1 1 0 1 -1 1 -1 
1 0 1 -1 1 -1 1 -1 1 0 1 -1 1 -1 1 -1 
1 -1 1 0 1 -1 1 -1 1 0 1 -1 1 -1 1 -1 
1 0 1 -1 1 -1 1 -1 1 0 1 -1 1 -1 1 -1 
1 0 1 -1 1 -1 1 0 1 -1 1 -1 1 0 1 -1 
1 -1 1 -1 1 0 1 -1 1 -1 1 0 1 -1 1 -1 
1 0 1 -1 1 -1 1 0 1 -1 1 -1 1 -1 1 0 
1 -1 1 -1 1 0 1 -1 1 0 1 -1 1 -1 1 0 
1 -1 1 -1 1 0 1 -1 1 -1 1 0 1 -1 1 0 
1 -1 1 -1 1 0 1 -1 1 -1 1 0 1 -1 1 -1 
1 0 1 -1 1 -1 1 0 1 -1 1 0 1 -1 1 0 
1 -1 1 -1 1 0 1 -1 1 -1 1 0 1 -1 1 -1 
1 0 1 0 1 -1 1 -1 1 0 1 -1 1 -1 1 0 
1 -1 1 0 1 -1 1 -1 1 0 1 -1 1 0 1 -1 
1 0 1 -1 1 0 1 -1 1 -1 1 0 1 -1 1 0 
1 -1 1 -1 1 0 1 0 1 -1 1 -1 1 0 1 -1 
1 0 1 -1 1 0 1 -1 1 -1 1 0 1 -1 1 0 
1 0 1 -1 1 -1 1 0 1 -1 1 0 1 -1 1 0 
1 -1 1 0 1 -1 1 -1 1 0 1 0 1 -1 1 0 
1 -1 1 0 1 -1 1 -1 1 0 1 -1 1 0 1 -1 
1 0 1 -1 1 0 1 0 1 -1 1 0 1 -1 1 -1 
1 0 1 -1 1 0 1 -1 1 0 1 -1 1 0 1 0 
1 -1 1 0 1 -1 1913 3628 300 MP stroke
1 0 -1 0 2 -136 0 -135 1 0 1 0 1 0 1 0 
1 0 1 0 1 0 1 0 1 0 1 0 1 0 1 0 
1 0 1 0 1 0 1 0 1 0 1 0 1 0 1 0 
1 0 1 0 1 0 1 0 1 0 1 0 1 0 1 0 
1 0 1 0 1 0 1 0 1 0 1 0 1 0 1 0 
1 0 1 0 1 0 1 0 1 0 1 0 1 0 1 0 
1 0 1 0 1 0 1 0 1 0 1 0 1 0 1 0 
1 0 1 0 1 0 1 0 1 0 1 0 1 0 1 0 
1 0 1 0 1 0 1 0 1 0 1 0 1 0 1 0 
1 0 1 0 1 0 1 0 1 0 1 0 1 0 1 0 
1 0 1 0 1 0 1 0 1 0 1 0 1 0 1 0 
1 0 1 0 1 0 1 0 1 0 1 0 1 0 1 0 
1 0 1 0 1 0 1 0 1 0 1 0 1 0 1 0 
1 0 1 0 1 0 1 0 1 0 1 0 1 0 1 0 
1 0 1 0 1 0 1 0 1 0 1 0 1 0 1 0 
1 0 1 0 1 0 1 0 1 0 1 0 1 0 1 0 
1 0 1 0 1 0 1 0 1 0 1 0 1 0 1 0 
1 0 1 0 1 0 1 0 1 0 1 0 1 0 1 0 
1 0 1 0 1 0 1 0 1 0 1 0 1 0 1 0 
1 0 1 0 1 0 1 0 1 0 1 0 1 0 1 0 
1 0 1 0 1 0 1 0 1 0 1 0 1 0 1 0 
1 0 1 0 1 0 1 0 1 0 1 0 1 0 1 0 
1 0 1 0 1 0 1 0 1 0 1 0 1 0 1 0 
1 0 1 0 1 0 1 0 1 0 1 0 1 0 1 0 
1 0 1 0 1 0 1 0 1 0 1 0 1 0 1 0 
1 0 1 0 1 0 1 0 1 0 1 0 1 0 1 0 
1 0 1 0 1 0 1 0 1 0 1 0 1 0 1 0 
1 0 1 0 1 0 1 0 1 0 1 0 1 0 1 0 
1 0 1 0 1 0 1 0 1 0 1 0 1 0 1 0 
1 0 1 0 1 0 1 0 1 0 1 0 1 0 1 0 
1 0 1 0 1 0 1 0 1 0 1 0 1 0 1 0 
1 0 1 0 1 0 1 0 1 0 1 0 1 0 1 0 
1 0 1 0 1 0 1 0 1 0 1 0 1 0 1 0 
1 0 1 0 1 0 1 0 1 0 1 0 1 0 1 0 
1 0 1 0 1 0 1 0 1 0 1 0 1 0 1 0 
1 0 1 0 1 0 1 0 1 0 1 0 1 0 1 0 
1 0 1 0 1 0 1 0 1 0 1 0 1 0 1 0 
1 0 1 0 1 0 1616 3899 300 MP stroke
1 0 1 0 1 0 1 0 1 0 1 0 1 0 1 0 
1 0 1 0 1 0 1 0 1 0 1 0 1 0 1 0 
1 0 1 0 1 0 1 0 1 0 1 0 1 0 1 0 
1 0 1 0 1 0 1 0 1 0 1 0 1 0 1 0 
1 0 1 0 1 0 1 0 1 0 1 0 1 0 1 0 
1 0 1 0 1 0 1 0 1 0 1 0 1 0 1 0 
1 0 1 0 1 0 1 0 1 0 1 0 1 0 1 0 
1 0 1 0 1 0 1 0 1 0 1 0 1 0 1 0 
1 0 1 0 1 0 1 0 1 0 1 0 1 0 1 0 
1 0 1 0 1 0 1 0 1 0 1 0 1 0 1 0 
1 0 1 0 1 0 1 0 1 0 1 0 1 0 1 0 
1 0 1 0 1 0 1 0 1 0 1 0 1 0 1 0 
1 0 1 0 1 0 1 0 1 0 1 0 1 0 1 0 
1 0 1 0 1 0 1 0 1 0 1 0 1 0 1 0 
1 0 1 0 1 0 1 0 1 0 1 0 1 0 1 0 
1 0 1 0 1 0 1 0 1 0 1 0 1 0 1 0 
1 0 1 0 1 0 1 0 1 0 1 0 1 0 1 0 
1 0 1 0 1 0 1 0 1 0 1 0 1 0 1 0 
1 0 1 0 1 0 1 0 1 0 1 0 1 0 1 0 
1 0 1 0 1 0 1 0 1 0 1 0 1 0 1 0 
1 0 1 0 1 0 1 0 1 0 1 0 1 0 1 0 
1 0 1 0 1 0 1 0 1 0 1 0 1 0 1 0 
1 0 1 0 1 0 1 0 1 0 1 0 1 0 1 0 
1 0 1 0 1 0 1 0 1 0 1 0 1 0 1 0 
1 0 1 0 1 0 1 0 1 0 1 0 1 0 1 0 
1 0 1 0 1 0 1 0 1 0 1 0 1 0 1 0 
1 0 1 0 1 0 1 0 1 0 1 0 1 0 1 0 
1 0 1 0 1 0 1 0 1 0 1 0 1 0 1 0 
1 847 0 848 1 1 0 2 1 1 0 1 1 2 0 1 
1 2 0 1 1 1 0 2 1 1 0 1 1 2 0 1 
1 1 0 2 1 1 0 2 1 1 1 1 0 2 1 1 
0 1 1 2 0 1 1 2 0 1 1 1 0 2 1 1 
0 2 1 1 0 1 1 2 0 1 1 2 0 1 1 1 
0 2 1 1 0 2 1 1 0 1 1 2 1 1 0 2 
1 1 0 1 1 2 0 1 1 2 0 1 1 1 0 2 
1 1 0 2 1 1 0 1 1 2 0 1 1 2 0 1 
1 2 0 1 1 1 0 2 1 1 0 2 1 1 1 2 
0 1 1 1 0 2 1353 2102 300 MP stroke
1 1 0 2 1 1 0 2 1 1 0 1 1 2 0 1 
1 2 0 1 1 2 0 1 1 2 0 1 1 1 0 2 
1 1 0 2 1 1 0 2 1 1 1 2 0 1 1 2 
0 1 1 1 0 2 1 1 0 2 1 1 0 2 1 1 
0 2 1 1 0 2 1 1 0 2 1 1 0 1 1 2 
0 1 1 2 0 1 1 2 0 1 1 2 1 1 0 2 
1 1 0 2 1 1 0 2 1 1 0 2 1 1 0 2 
1 1 0 2 1 1 0 2 1 1 0 2 1 1 0 2 
1 1 0 2 1 1 0 2 1 1 0 2 1 1 1 2 
0 1 1 2 0 1 1 2 0 1 1 2 0 1 1 2 
0 1 1 2 0 1 1 2 0 1 1 2 0 1 1 2 
0 1 1 2 0 1 1 2 0 1 1 2 0 1 1 2 
1 1 0 2 1 1 0 2 1 2 0 1 1 2 0 1 
1 2 0 1 1 2 0 1 1 2 0 1 1 2 0 1 
1 2 0 1 1 2 0 2 1 1 0 2 1 1 0 2 
1 1 1 2 0 1 1 2 0 1 1 2 0 2 1 1 
0 2 1 1 0 2 1 1 0 2 1 1 0 2 1 2 
0 1 1 2 0 1 1 2 0 1 1 2 0 1 1 2 
0 2 1 1 0 2 1 1 1 2 0 1 1 2 0 2 
1 1 0 2 1 1 0 2 1 1 0 2 1 2 0 1 
1 2 0 1 1 2 0 1 1 2 0 2 1 1 0 2 
1 1 0 2 1 1 0 2 1 2 1 1 0 2 1 1 
0 2 1 2 0 1 1 2 0 1 1 2 0 1 1 2 
0 2 1 1 0 2 1 1 0 2 1 2 0 1 1 2 
0 1 1 2 0 2 1 1 0 2 1 1 1 2 0 2 
1 1 0 2 1 1 0 2 1 2 0 1 1 2 0 1 
1 2 0 2 1 1 0 2 1 1 0 2 1 2 0 1 
1 2 0 1 1 2 0 2 1 1 0 2 1 1 1 2 
0 2 1 1 0 2 1 2 0 1 1 2 0 1 1 2 
0 2 1 1 0 2 1 1 0 2 1 2 0 1 1 2 
0 2 1 1 0 2 1 1 0 2 1 2 0 1 1 2 
1 1 0 2 1 2 0 1 1 2 0 2 1 1 0 2 
1 1 0 2 1 2 0 1 1 2 0 2 1 1 0 2 
1 1 0 2 1 2 0 1 1 2 0 2 1 1 0 2 
1 1 1 2 0 2 1 1 0 2 1 2 0 1 1 2 
0 1 1 2 0 2 1 1 0 2 1 2 0 1 1 2 
0 1 1 2 0 2 1 1 0 2 1 2 0 1 1 2 
0 1 1 2 1 2 1197 1637 300 MP stroke
0 1 1 2 0 2 1 1 0 2 1 1 0 2 1 2 
0 1 1 2 0 2 1 1 0 2 1 2 0 1 1 2 
0 1 1 2 0 2 1 1 0 2 1 2 0 1 1 2 
1 1 0 2 1 2 0 1 1 2 0 2 1 1 0 2 
1 1 0 2 1 2 0 1 1 2 0 2 1 1 0 2 
1 1 0 2 1 2 0 1 1 2 0 2 1 1 0 2 
1 1 1 2 0 2 1 1 0 2 1 2 0 1 1 2 
0 1 1 2 0 2 1 1 0 2 1 2 0 1 1 2 
0 1 1 2 0 2 1 1 0 2 1 1 0 2 1 2 
0 1 1 2 1 2 0 1 1 2 0 1 1 2 0 2 
1 1 0 2 1 1 0 2 1 2 0 1 1 2 0 1 
1 2 0 2 1 1 0 2 1 1 0 2 1 2 0 1 
1 2 0 1 1 2 1 2 0 1 1 2 0 1 1 2 
0 2 1 1 0 2 1 1 0 2 1 2 0 1 1 2 
0 1 1 2 0 2 1 1 0 2 1 1 0 2 1 2 
0 1 1 2 0 1 1 2 1 1 0 2 1 2 0 1 
1 2 0 1 1 2 0 1 1 2 0 2 1 1 0 2 
1 1 0 2 1 1 0 2 1 2 0 1 1 2 0 1 
1 2 0 1 1 2 0 2 1 1 1 2 0 1 1 2 
0 1 1 2 0 1 1 2 0 2 1 1 0 2 1 1 
0 2 1 1 0 2 1 1 0 2 1 1 0 2 1 1 
0 2 1 2 0 1 1 2 0 1 1 2 1 1 0 2 
1 1 0 2 1 1 0 2 1 1 0 2 1 1 0 2 
1 1 0 2 1 1 0 2 1 1 0 2 1 1 0 2 
1 1 0 2 1 1 0 2 1 1 0 2 1 1 1 2 
0 1 1 2 0 1 1 2 0 1 1 2 0 1 1 2 
0 1 1 2 0 1 1 2 0 1 1 2 0 1 1 2 
0 1 1 1 0 2 1 1 0 2 1 1 0 2 1 1 
1 2 0 1 1 2 0 1 1 1 0 2 1 1 0 2 
1 1 0 2 1 1 0 1 1 2 0 1 1 2 0 1 
1 2 0 1 1 1 0 2 1 1 0 2 1 1 0 1 
1 2 0 1 1 2 1 1 0 1 1 2 0 1 1 2 
0 1 1 1 0 2 1 1 0 2 1 1 0 1 1 2 
0 1 1 1 0 2 1 1 0 1 1 2 0 1 1 2 
0 1 1 1 0 2 1 1 1 1 0 2 1 1 0 1 
1 2 0 1 1 1 0 2 1 1 0 1 1 2 0 1 
1 1 0 1 1 2 0 1 1 1 0 2 1 1 0 1 
1 2 0 1 1 1 1042 1182 300 MP stroke
0 1 1 2 1 1 0 1 1 2 0 1 1 1 0 1 
1 2 0 1 1 1 0 1 1 2 0 1 1 1 0 1 
1 2 0 1 1 1 0 1 1 2 0 1 1 1 0 1 
1 2 0 1 1 1 1 1 0 1 1 2 0 1 1 1 
0 1 1 1 0 2 1 1 0 1 1 1 0 1 1 2 
0 1 1 1 0 1 1 1 0 1 1 2 0 1 1 1 
0 1 1 1 0 1 1 1 1 2 0 1 1 1 0 1 
1 1 0 1 1 1 0 1 1 2 0 1 1 1 0 1 
1 1 0 1 1 1 0 1 1 1 0 1 1 2 0 1 
1 1 0 1 1 1 0 1 1 1 1 1 0 1 1 1 
0 1 1 1 0 1 1 1 0 1 1 1 0 1 1 1 
0 1 1 1 0 1 1 1 0 1 1 2 0 1 1 1 
1 1 0 1 1 1 0 1 1 1 1 1 0 1 1 1 
0 1 1 1 0 1 1 1 0 1 1 1 0 1 1 1 
0 1 1 1 0 1 1 1 0 1 2 2 0 1 1 1 
0 1 1 1 0 1 1 1 1 1 1 1 0 1 1 1 
0 1 1 1 0 1 2 2 0 1 1 1 0 1 2 2 
0 1 1 1 0 1 2 2 0 1 1 1 1 0 -1 0 
2 2 0 1 2 2 0 1 2 2 0 1 2 2 0 1 
2 2 1 1 0 1 1 1 1 1 1 1 1 1 0 1 
2 2 1 1 1 1 0 1 2 2 1 1 1 1 0 1 
2 2 1 1 1 0 0 1 2 2 1 1 1 1 1 1 
1 1 1 1 1 1 1 1 1 1 1 1 1 1 1 0 
1 1 1 1 1 1 1 1 1 1 1 0 1 1 1 1 
1 1 1 1 1 0 1 1 1 0 1 1 1 1 1 0 
1 1 1 1 1 0 1 1 1 0 1 1 1 0 1 1 
1 0 1 1 1 0 1 1 1 0 1 0 1 1 1 0 
1 1 1 0 1 0 1 0 1 1 1 0 1 0 1 0 
1 1 1 0 1 0 1 0 1 0 1 0 1 0 1 0 
1 1 1 0 1 0 872 950 236 MP stroke
gr

c9

end %%Color Dict

eplot
%%EndObject

epage
end

showpage

%%Trailer
%%EOF
