%!PS-Adobe-3.0 EPSF-3.0
%%Creator: MATLAB, The MathWorks, Inc. Version 8.0.0.783 (R2012b). Operating System: Darwin 13.3.0 Darwin Kernel Version 13.3.0: Tue Jun  3 21:27:35 PDT 2014; root:xnu-2422.110.17~1/RELEASE_X86_64 x86_64.
%%Title: /Users/mattia/Desktop/Example 8/Figure 2.eps
%%CreationDate: 07/29/2014  11:34:46
%%DocumentNeededFonts: Helvetica
%%DocumentProcessColors: Cyan Magenta Yellow Black
%%LanguageLevel: 2
%%Pages: 1
%%BoundingBox:    26   186   585   606
%%EndComments

%%BeginProlog
% MathWorks dictionary
/MathWorks 160 dict begin
% definition operators
/bdef {bind def} bind def
/ldef {load def} bind def
/xdef {exch def} bdef
/xstore {exch store} bdef
% operator abbreviations
/c  /clip ldef
/cc /concat ldef
/cp /closepath ldef
/gr /grestore ldef
/gs /gsave ldef
/mt /moveto ldef
/np /newpath ldef
/cm /currentmatrix ldef
/sm /setmatrix ldef
/rm /rmoveto ldef
/rl /rlineto ldef
/s {show newpath} bdef
/sc {setcmykcolor} bdef
/sr /setrgbcolor ldef
/sg /setgray ldef
/w /setlinewidth ldef
/j /setlinejoin ldef
/cap /setlinecap ldef
/rc {rectclip} bdef
/rf {rectfill} bdef
% page state control
/pgsv () def
/bpage {/pgsv save def} bdef
/epage {pgsv restore} bdef
/bplot /gsave ldef
/eplot {stroke grestore} bdef
% orientation switch
/portraitMode 0 def /landscapeMode 1 def /rotateMode 2 def
% coordinate system mappings
/dpi2point 0 def
% font control
/FontSize 0 def
/FMS {/FontSize xstore findfont [FontSize 0 0 FontSize neg 0 0]
  makefont setfont} bdef
/reencode {exch dup where {pop load} {pop StandardEncoding} ifelse
  exch dup 3 1 roll findfont dup length dict begin
  { 1 index /FID ne {def}{pop pop} ifelse } forall
  /Encoding exch def currentdict end definefont pop} bdef
/isroman {findfont /CharStrings get /Agrave known} bdef
/FMSR {3 1 roll 1 index dup isroman {reencode} {pop pop} ifelse
  exch FMS} bdef
/csm {1 dpi2point div -1 dpi2point div scale neg translate
 dup landscapeMode eq {pop -90 rotate}
  {rotateMode eq {90 rotate} if} ifelse} bdef
% line types: solid, dotted, dashed, dotdash
/SO { [] 0 setdash } bdef
/DO { [.5 dpi2point mul 4 dpi2point mul] 0 setdash } bdef
/DA { [6 dpi2point mul] 0 setdash } bdef
/DD { [.5 dpi2point mul 4 dpi2point mul 6 dpi2point mul 4
  dpi2point mul] 0 setdash } bdef
% macros for lines and objects
/L {lineto stroke} bdef
/MP {3 1 roll moveto 1 sub {rlineto} repeat} bdef
/AP {{rlineto} repeat} bdef
/PDlw -1 def
/W {/PDlw currentlinewidth def setlinewidth} def
/PP {closepath eofill} bdef
/DP {closepath stroke} bdef
/MR {4 -2 roll moveto dup  0 exch rlineto exch 0 rlineto
  neg 0 exch rlineto closepath} bdef
/FR {MR stroke} bdef
/PR {MR fill} bdef
/L1i {{currentfile picstr readhexstring pop} image} bdef
/tMatrix matrix def
/MakeOval {newpath tMatrix currentmatrix pop translate scale
0 0 1 0 360 arc tMatrix setmatrix} bdef
/FO {MakeOval stroke} bdef
/PO {MakeOval fill} bdef
/PD {currentlinewidth 2 div 0 360 arc fill
   PDlw -1 eq not {PDlw w /PDlw -1 def} if} def
/FA {newpath tMatrix currentmatrix pop translate scale
  0 0 1 5 -2 roll arc tMatrix setmatrix stroke} bdef
/PA {newpath tMatrix currentmatrix pop	translate 0 0 moveto scale
  0 0 1 5 -2 roll arc closepath tMatrix setmatrix fill} bdef
/FAn {newpath tMatrix currentmatrix pop translate scale
  0 0 1 5 -2 roll arcn tMatrix setmatrix stroke} bdef
/PAn {newpath tMatrix currentmatrix pop translate 0 0 moveto scale
  0 0 1 5 -2 roll arcn closepath tMatrix setmatrix fill} bdef
/vradius 0 def /hradius 0 def /lry 0 def
/lrx 0 def /uly 0 def /ulx 0 def /rad 0 def
/MRR {/vradius xdef /hradius xdef /lry xdef /lrx xdef /uly xdef
  /ulx xdef newpath tMatrix currentmatrix pop ulx hradius add uly
  vradius add translate hradius vradius scale 0 0 1 180 270 arc 
  tMatrix setmatrix lrx hradius sub uly vradius add translate
  hradius vradius scale 0 0 1 270 360 arc tMatrix setmatrix
  lrx hradius sub lry vradius sub translate hradius vradius scale
  0 0 1 0 90 arc tMatrix setmatrix ulx hradius add lry vradius sub
  translate hradius vradius scale 0 0 1 90 180 arc tMatrix setmatrix
  closepath} bdef
/FRR {MRR stroke } bdef
/PRR {MRR fill } bdef
/MlrRR {/lry xdef /lrx xdef /uly xdef /ulx xdef /rad lry uly sub 2 div def
  newpath tMatrix currentmatrix pop ulx rad add uly rad add translate
  rad rad scale 0 0 1 90 270 arc tMatrix setmatrix lrx rad sub lry rad
  sub translate rad rad scale 0 0 1 270 90 arc tMatrix setmatrix
  closepath} bdef
/FlrRR {MlrRR stroke } bdef
/PlrRR {MlrRR fill } bdef
/MtbRR {/lry xdef /lrx xdef /uly xdef /ulx xdef /rad lrx ulx sub 2 div def
  newpath tMatrix currentmatrix pop ulx rad add uly rad add translate
  rad rad scale 0 0 1 180 360 arc tMatrix setmatrix lrx rad sub lry rad
  sub translate rad rad scale 0 0 1 0 180 arc tMatrix setmatrix
  closepath} bdef
/FtbRR {MtbRR stroke } bdef
/PtbRR {MtbRR fill } bdef
/stri 6 array def /dtri 6 array def
/smat 6 array def /dmat 6 array def
/tmat1 6 array def /tmat2 6 array def /dif 3 array def
/asub {/ind2 exch def /ind1 exch def dup dup
  ind1 get exch ind2 get sub exch } bdef
/tri_to_matrix {
  2 0 asub 3 1 asub 4 0 asub 5 1 asub
  dup 0 get exch 1 get 7 -1 roll astore } bdef
/compute_transform {
  dmat dtri tri_to_matrix tmat1 invertmatrix 
  smat stri tri_to_matrix tmat2 concatmatrix } bdef
/ds {stri astore pop} bdef
/dt {dtri astore pop} bdef
/db {2 copy /cols xdef /rows xdef mul dup 3 mul string
  currentfile 
  3 index 0 eq {/ASCIIHexDecode filter}
  {/ASCII85Decode filter 3 index 2 eq {/RunLengthDecode filter} if }
  ifelse exch readstring pop
  dup 0 3 index getinterval /rbmap xdef
  dup 2 index dup getinterval /gbmap xdef
  1 index dup 2 mul exch getinterval /bbmap xdef pop pop}bdef
/it {gs np dtri aload pop moveto lineto lineto cp c
  cols rows 8 compute_transform 
  rbmap gbmap bbmap true 3 colorimage gr}bdef
/il {newpath moveto lineto stroke}bdef
currentdict end def
%%EndProlog

%%BeginSetup
MathWorks begin

0 cap

end
%%EndSetup

%%Page: 1 1
%%BeginPageSetup
%%PageBoundingBox:    26   186   585   606
MathWorks begin
bpage
%%EndPageSetup

%%BeginObject: obj1
bplot

/dpi2point 12 def
portraitMode 0312 7272 csm

    0     0  6719  5040 rc
85 dict begin %Colortable dictionary
/c0 { 0.000000 0.000000 0.000000 sr} bdef
/c1 { 1.000000 1.000000 1.000000 sr} bdef
/c2 { 0.900000 0.000000 0.000000 sr} bdef
/c3 { 0.000000 0.820000 0.000000 sr} bdef
/c4 { 0.000000 0.000000 0.800000 sr} bdef
/c5 { 0.910000 0.820000 0.320000 sr} bdef
/c6 { 1.000000 0.260000 0.820000 sr} bdef
/c7 { 0.000000 0.820000 0.820000 sr} bdef
c0
1 j
1 sg
   0    0 6720 5041 rf
6 w
0 4108 5208 0 0 -4108 873 4486 4 MP
PP
-5208 0 0 4108 5208 0 0 -4108 873 4486 5 MP stroke
4 w
DO
SO
6 w
0 sg
 873 4486 mt 6081 4486 L
 873 4486 mt  873  378 L
 873 4486 mt  873 4433 L
%%IncludeResource: font Helvetica
/Helvetica /ISOLatin1Encoding 120 FMSR

 840 4631 mt 
(0) s
1393 4486 mt 1393 4433 L
1327 4631 mt 
(20) s
1914 4486 mt 1914 4433 L
1848 4631 mt 
(40) s
2435 4486 mt 2435 4433 L
2369 4631 mt 
(60) s
2956 4486 mt 2956 4433 L
2890 4631 mt 
(80) s
3477 4486 mt 3477 4433 L
3377 4631 mt 
(100) s
3997 4486 mt 3997 4433 L
3897 4631 mt 
(120) s
4518 4486 mt 4518 4433 L
4418 4631 mt 
(140) s
5039 4486 mt 5039 4433 L
4939 4631 mt 
(160) s
5560 4486 mt 5560 4433 L
5460 4631 mt 
(180) s
6081 4486 mt 6081 4433 L
5981 4631 mt 
(200) s
 873 4486 mt  925 4486 L
 702 4530 mt 
(-4) s
 873 3899 mt  925 3899 L
 702 3943 mt 
(-3) s
 873 3312 mt  925 3312 L
 702 3356 mt 
(-2) s
 873 2725 mt  925 2725 L
 702 2769 mt 
(-1) s
 873 2138 mt  925 2138 L
 772 2182 mt 
(0) s
 873 1551 mt  925 1551 L
 772 1595 mt 
(1) s
 873  964 mt  925  964 L
 772 1008 mt 
(2) s
 873  378 mt  925  378 L
 772  422 mt 
(3) s
gs 873 378 5209 4109 rc
/c8 { 0.000000 0.000000 1.000000 sr} bdef
c8
1 0 1 0 1 0 1 0 1 0 1 0 1 0 1 0 
1 0 1 0 1 0 1 0 1 0 1 0 1 0 1 0 
1 0 1 0 1 0 1 0 1 0 1 0 1 0 1 0 
1 0 1 0 1 0 1 0 1 0 1 0 1 0 1 0 
1 0 1 0 1 0 1 0 1 0 1 0 1 0 1 0 
1 0 1 0 1 0 1 0 1 0 1 0 1 0 1 0 
1 0 1 0 1 0 1 0 1 0 1 0 1 0 1 0 
1 0 1 0 1 0 1 0 1 0 1 0 1 0 1 0 
1 0 1 0 1 0 1 0 1 0 1 0 1 0 1 0 
1 0 1 0 1 0 1 0 1 0 1 0 1 0 1 0 
1 0 1 0 1 0 1 0 1 0 1 0 1 0 1 0 
1 0 1 0 1 0 1 0 1 0 1 0 1 0 1 0 
1 0 1 0 1 0 1 0 1 0 1 0 1 0 1 0 
1 0 1 0 1 0 1 0 1 0 1 0 1 0 1 0 
1 0 1 0 1 0 1 0 1 0 1 0 1 0 1 0 
1 0 1 0 1 0 1 0 1 0 1 0 1 0 1 0 
1 0 1 0 1 0 1 0 1 0 1 0 1 0 1 0 
1 0 1 0 1 0 1 0 1 0 1 0 1 0 1 0 
1 0 1 0 1 0 1 0 1 0 1 0 1 0 1 0 
1 0 1 0 1 0 1 0 1 0 1 0 1 0 1 0 
1 0 1 0 1 0 1 0 1 0 1 0 1 0 1 0 
1 0 1 0 1 0 1 0 1 0 1 0 1 0 1 0 
1 0 1 0 1 0 1 0 1 0 1 0 1 0 1 0 
1 0 1 0 1 0 1 0 1 0 1 0 1 0 1 0 
1 0 1 0 1 0 1 0 1 0 1 0 1 0 1 0 
1 0 1 0 1 0 1 0 1 0 1 0 1 0 1 0 
1 0 1 0 1 0 1 0 1 0 1 0 1 0 1 0 
1 0 1 0 1 0 1 0 1 0 1 0 1 0 1 0 
1 0 1 0 1 0 1 0 1 0 1 0 1 0 1 0 
1 0 1 0 1 0 1 0 1 0 1 0 1 0 1 0 
1 0 1 0 1 0 1 0 1 0 1 0 1 0 1 0 
1 0 1 0 1 0 1 0 1 0 1 0 1 0 1 0 
1 0 1 0 1 0 1 0 1 0 1 0 1 0 1 0 
1 0 1 0 1 0 1 0 1 0 1 0 1 0 1 0 
1 0 1 0 1 0 1 0 1 0 1 0 1 0 1 0 
1 0 1 0 1 0 1 0 1 0 1 0 1 0 1 0 
1 0 1 0 1 0 1 0 1 0 1 0 1 0 1 0 
1 0 1 0 1 0 5782 2138 300 MP stroke
1 0 1 0 1 0 1 0 1 0 1 0 1 0 1 0 
1 0 1 0 1 0 1 0 1 0 1 0 1 0 1 0 
1 0 1 0 1 0 1 0 1 0 1 0 1 0 1 0 
1 0 1 0 1 0 1 0 1 0 1 0 1 0 1 0 
1 0 1 0 1 0 1 0 1 0 1 0 1 0 1 0 
1 0 1 0 1 0 1 0 1 0 1 0 1 0 1 0 
1 0 1 0 1 0 1 0 1 0 1 0 1 0 1 0 
1 0 1 0 1 0 1 0 1 0 1 0 1 0 1 0 
1 0 1 0 1 0 1 0 1 0 1 0 1 0 1 0 
1 0 1 0 1 0 1 0 1 0 1 0 1 0 1 0 
1 0 1 0 1 0 1 0 1 0 1 0 1 0 1 0 
1 0 1 0 1 0 1 0 1 0 1 0 1 0 1 0 
1 0 1 0 1 0 1 0 1 0 1 0 1 0 1 0 
1 0 1 0 1 0 1 0 1 0 1 0 1 0 1 0 
1 0 1 0 1 0 1 0 1 0 1 0 1 0 1 0 
1 0 1 0 1 0 1 0 1 0 1 0 1 0 1 0 
1 0 1 0 1 0 1 0 1 0 1 0 1 0 1 0 
1 0 1 0 1 0 1 0 1 0 1 0 1 0 1 0 
1 0 1 0 1 0 1 0 1 0 1 0 1 0 1 0 
1 0 1 0 1 0 1 0 1 0 1 0 1 0 1 0 
1 0 1 0 1 0 1 0 1 0 1 0 1 0 1 0 
1 0 1 0 1 0 1 0 1 0 1 0 1 0 1 0 
1 0 1 0 1 0 1 0 1 -1 1 0 1 0 1 0 
1 0 1 0 1 0 1 0 1 0 1 0 1 0 1 0 
1 0 1 0 1 0 1 0 1 0 1 0 1 0 1 0 
1 0 1 0 1 0 1 0 1 0 1 0 1 0 1 0 
1 0 1 0 1 0 1 0 1 0 1 0 1 0 1 0 
1 -1 1 0 1 0 1 0 1 0 1 0 1 0 1 0 
1 0 1 0 1 0 1 0 1 0 1 0 1 0 1 0 
1 0 1 0 1 0 1 0 1 0 1 0 1 0 1 0 
1 0 1 -1 1 0 1 0 1 0 1 0 1 0 1 0 
1 0 1 0 1 0 1 0 1 0 1 0 1 0 1 0 
1 0 1 0 1 0 1 0 1 -1 1 0 1 0 1 0 
1 0 1 0 1 0 1 0 1 0 1 0 1 0 1 0 
1 0 1 0 1 0 1 0 1 0 1 0 1 -1 1 0 
1 0 1 0 1 0 1 0 1 0 1 0 1 0 1 0 
1 0 1 0 1 0 1 0 1 0 1 -1 1 0 1 0 
1 0 1 0 1 0 5483 2144 300 MP stroke
1 0 1 0 1 0 1 0 1 0 1 0 1 0 1 0 
1 -1 1 0 1 0 1 0 1 0 1 0 1 0 1 0 
1 0 1 0 1 0 1 0 1 -1 1 0 1 0 1 0 
1 0 1 0 1 0 1 0 1 0 1 0 1 0 1 0 
1 -1 1 0 1 0 1 0 1 0 1 0 1 0 1 0 
1 0 1 0 1 0 1 0 1 -1 1 0 1 0 1 0 
1 0 1 0 1 0 1 0 1 0 1 0 1 0 1 -1 
1 0 1 0 1 0 1 0 1 0 1 0 1 0 1 0 
1 0 1 -1 1 0 1 0 1 0 1 0 1 0 1 0 
1 0 1 0 1 -1 1 0 1 0 1 0 1 0 1 0 
1 0 1 0 1 0 1 0 1 -1 1 0 1 0 1 0 
1 0 1 0 1 0 1 0 1 0 1 -1 1 0 1 0 
1 0 1 0 1 0 1 0 1 0 1 0 1 -1 1 0 
1 0 1 0 1 0 1 0 1 0 1 0 1 -1 1 0 
1 0 1 0 1 0 1 0 1 0 1 0 1 -1 1 0 
1 0 1 0 1 0 1 0 1 0 1 0 1 -1 1 0 
1 0 1 0 1 0 1 0 1 0 1 0 1 -1 1 0 
1 0 1 0 1 0 1 0 1 0 1 0 1 -1 1 0 
1 0 1 0 1 0 1 0 1 0 1 -1 1 0 1 0 
1 0 1 0 1 0 1 0 1 -1 1 0 1 0 1 0 
1 0 1 0 1 0 1 -1 1 0 1 0 1 0 1 0 
1 0 1 0 1 -1 1 0 1 0 1 0 1 0 1 0 
1 0 1 -1 1 0 1 0 1 0 1 0 1 0 1 -1 
1 0 1 0 1 0 1 0 1 0 1 0 1 -1 1 0 
1 0 1 0 1 0 1 0 1 -1 1 0 1 0 1 0 
1 0 1 0 1 0 1 -1 1 0 1 0 1 0 1 0 
1 0 1 -1 1 0 1 0 1 0 1 0 1 0 1 -1 
1 0 1 0 1 0 1 0 1 0 1 -1 1 0 1 0 
1 0 1 0 1 0 1 -1 1 0 1 0 1 0 1 0 
1 0 1 -1 1 0 1 0 1 0 1 0 1 -1 1 0 
1 0 1 0 1 0 1 0 1 -1 1 0 1 0 1 0 
1 0 1 -1 1 0 1 0 1 0 1 0 1 0 1 -1 
1 0 1 0 1 0 1 0 1 -1 1 0 1 0 1 0 
1 0 1 0 1 -1 1 0 1 0 1 0 1 0 1 -1 
1 0 1 0 1 0 1 0 1 -1 1 0 1 0 1 0 
1 0 1 0 1 -1 1 0 1 0 1 0 1 0 1 0 
1 -1 1 0 1 0 1 0 1 0 1 0 1 -1 1 0 
1 0 1 0 1 0 5184 2184 300 MP stroke
1 0 1 -1 1 0 1 0 1 0 1 0 1 0 1 -1 
1 0 1 0 1 0 1 0 1 0 1 0 1 -1 1 0 
1 0 1 0 1 0 1 0 1 0 1 -1 1 0 1 0 
1 0 1 0 1 0 1 0 1 0 1 -1 1 0 1 0 
1 0 1 0 1 0 1 0 1 0 1 -1 1 0 1 0 
1 0 1 0 1 0 1 0 1 0 1 0 1 -1 1 0 
1 0 1 0 1 0 1 0 1 0 1 0 1 0 1 0 
1 -1 1 0 1 0 1 0 1 0 1 0 1 0 1 0 
1 0 1 0 1 -1 1 0 1 0 1 0 1 0 1 0 
1 0 1 0 1 0 1 0 1 0 1 0 1 0 1 -1 
1 0 1 0 1 0 1 0 1 0 1 0 1 0 1 0 
1 0 1 0 1 0 1 0 1 0 1 0 1 0 1 -1 
1 0 1 0 1 0 1 0 1 0 1 0 1 0 1 0 
1 0 1 0 1 0 1 0 1 0 1 0 1 0 1 0 
1 0 1 0 1 0 1 0 1 0 1 0 1 0 1 0 
1 -1 1 0 1 0 1 0 1 0 1 0 1 0 1 0 
1 0 1 0 1 0 1 0 1 0 1 0 1 0 1 0 
1 0 1 0 1 0 1 0 1 0 1 0 1 0 1 0 
1 0 1 0 1 0 1 0 1 0 1 0 1 0 1 0 
1 0 1 0 1 0 1 0 1 0 1 0 1 0 1 0 
1 0 1 0 1 0 1 0 1 0 1 0 1 0 1 0 
1 1 1 0 1 0 1 0 1 0 1 0 1 0 1 0 
1 0 1 0 1 0 1 0 1 0 1 0 1 0 1 0 
1 0 1 0 1 0 1 0 1 0 1 0 1 0 1 0 
1 0 1 1 1 0 1 0 1 0 1 0 1 0 1 0 
1 0 1 0 1 0 1 0 1 0 1 0 1 0 1 0 
1 0 1 1 1 0 1 0 1 0 1 0 1 0 1 0 
1 0 1 0 1 0 1 0 1 0 1 1 1 0 1 0 
1 0 1 0 1 0 1 0 1 0 1 0 1 0 1 0 
1 1 1 0 1 0 1 0 1 0 1 0 1 0 1 0 
1 0 1 0 1 1 1 0 1 0 1 0 1 0 1 0 
1 0 1 0 1 0 1 1 1 0 1 0 1 0 1 0 
1 0 1 0 1 0 1 1 1 0 1 0 1 0 1 0 
1 0 1 0 1 0 1 1 1 0 1 0 1 0 1 0 
1 0 1 0 1 1 1 0 1 0 1 0 1 0 1 0 
1 0 1 1 1 0 1 0 1 0 1 0 1 0 1 1 
1 0 1 0 1 0 1 0 1 0 1 1 1 0 1 0 
1 0 1 0 1 0 4885 2183 300 MP stroke
1 1 1 0 1 0 1 0 1 0 1 0 1 1 1 0 
1 0 1 0 1 0 1 1 1 0 1 0 1 0 1 0 
1 0 1 1 1 0 1 0 1 0 1 0 1 1 1 0 
1 0 1 0 1 0 1 1 1 0 1 0 1 0 1 0 
1 1 1 0 1 0 1 0 1 0 1 1 1 0 1 0 
1 0 1 1 1 0 1 0 1 0 1 0 1 1 1 0 
1 0 1 0 1 0 1 1 1 0 1 0 1 0 1 1 
1 0 1 0 1 0 1 1 1 0 1 0 1 0 1 1 
1 0 1 0 1 0 1 1 1 0 1 0 1 0 1 1 
1 0 1 0 1 0 1 0 1 1 1 0 1 0 1 1 
1 0 1 0 1 0 1 1 1 0 1 0 1 0 1 1 
1 0 1 0 1 0 1 1 1 0 1 0 1 1 1 0 
1 0 1 0 1 1 1 0 1 0 1 0 1 1 1 0 
1 0 1 1 1 0 1 0 1 0 1 1 1 0 1 0 
1 1 1 0 1 0 1 0 1 1 1 0 1 0 1 1 
1 0 1 0 1 0 1 1 1 0 1 0 1 1 1 0 
1 0 1 0 1 1 1 0 1 0 1 0 1 1 1 0 
1 0 1 0 1 1 1 0 1 0 1 0 1 1 1 0 
1 0 1 0 1 1 1 0 1 0 1 1 1 0 1 0 
1 0 1 0 1 1 1 0 1 0 1 0 1 1 1 0 
1 0 1 0 1 1 1 0 1 0 1 0 1 1 1 0 
1 0 1 0 1 1 1 0 1 0 1 0 1 0 1 1 
1 0 1 0 1 0 1 1 1 0 1 0 1 0 1 0 
1 1 1 0 1 0 1 0 1 1 1 0 1 0 1 0 
1 0 1 1 1 0 1 0 1 0 1 0 1 1 1 0 
1 0 1 0 1 0 1 1 1 0 1 0 1 0 1 0 
1 1 1 0 1 0 1 0 1 0 1 1 1 0 1 0 
1 0 1 0 1 1 1 0 1 0 1 0 1 0 1 1 
1 0 1 0 1 0 1 0 1 0 1 1 1 0 1 0 
1 0 1 0 1 0 1 1 1 0 1 0 1 0 1 0 
1 0 1 1 1 0 1 0 1 0 1 0 1 0 1 1 
1 0 1 0 1 0 1 0 1 0 1 1 1 0 1 0 
1 0 1 0 1 0 1 1 1 0 1 0 1 0 1 0 
1 0 1 0 1 1 1 0 1 0 1 0 1 0 1 0 
1 0 1 1 1 0 1 0 1 0 1 0 1 0 1 0 
1 0 1 1 1 0 1 0 1 0 1 0 1 0 1 0 
1 0 1 1 1 0 1 0 1 0 1 0 1 0 1 0 
1 0 1 1 1 0 4586 2119 300 MP stroke
1 0 1 0 1 0 1 0 1 0 1 0 1 0 1 1 
1 0 1 0 1 0 1 0 1 0 1 0 1 0 1 0 
1 1 1 0 1 0 1 0 1 0 1 0 1 0 1 0 
1 0 1 0 1 0 1 1 1 0 1 0 1 0 1 0 
1 0 1 0 1 0 1 0 1 0 1 0 1 1 1 0 
1 0 1 0 1 0 1 0 1 0 1 0 1 0 1 0 
1 0 1 0 1 0 1 0 1 1 1 0 1 0 1 0 
1 0 1 0 1 0 1 0 1 0 1 0 1 0 1 0 
1 0 1 0 1 0 1 0 1 0 1 1 1 0 1 0 
1 0 1 0 1 0 1 0 1 0 1 0 1 0 1 0 
1 0 1 0 1 0 1 0 1 0 1 0 1 0 1 0 
1 0 1 0 1 0 1 0 1 1 1 0 1 0 1 0 
1 0 1 0 1 0 1 0 1 0 1 0 1 0 1 0 
1 0 1 0 1 0 1 0 1 0 1 0 1 0 1 0 
1 0 1 0 1 0 1 0 1 0 1 0 1 0 1 0 
1 0 1 0 1 0 1 0 1 0 1 0 1 0 1 0 
1 0 1 0 1 0 1 0 1 0 1 0 1 0 1 0 
1 0 1 0 1 0 1 0 1 0 1 0 1 0 1 0 
1 0 1 0 1 0 1 0 1 0 1 0 1 0 1 0 
1 0 1 0 1 0 1 0 1 0 1 0 1 0 1 0 
1 0 1 0 1 -1 1 0 1 0 1 0 1 0 1 0 
1 0 1 0 1 0 1 0 1 0 1 0 1 0 1 0 
1 0 1 0 1 0 1 0 1 0 1 0 1 0 1 0 
1 0 1 0 1 -1 1 0 1 0 1 0 1 0 1 0 
1 0 1 0 1 0 1 0 1 0 1 0 1 0 1 0 
1 0 1 0 1 0 1 -1 1 0 1 0 1 0 1 0 
1 0 1 0 1 0 1 0 1 0 1 0 1 0 1 0 
1 -1 1 0 1 0 1 0 1 0 1 0 1 0 1 0 
1 0 1 0 1 0 1 0 1 -1 1 0 1 0 1 0 
1 0 1 0 1 0 1 0 1 0 1 0 1 -1 1 0 
1 0 1 0 1 0 1 0 1 0 1 0 1 0 1 0 
1 -1 1 0 1 0 1 0 1 0 1 0 1 0 1 0 
1 0 1 0 1 0 1 -1 1 0 1 0 1 0 1 0 
1 0 1 0 1 0 1 0 1 0 1 0 1 -1 1 0 
1 0 1 0 1 0 1 0 1 0 1 0 1 0 1 0 
1 0 1 0 1 -1 1 0 1 0 1 0 1 0 1 0 
1 0 1 0 1 0 1 0 1 0 1 0 1 0 1 -1 
1 0 1 0 1 0 4287 2123 300 MP stroke
1 0 1 0 1 0 1 0 1 0 1 0 1 0 1 0 
1 0 1 0 1 0 1 0 1 -1 1 0 1 0 1 0 
1 0 1 0 1 0 1 0 1 0 1 0 1 0 1 0 
1 0 1 0 1 0 1 0 1 0 1 -1 1 0 1 0 
1 0 1 0 1 0 1 0 1 0 1 0 1 0 1 0 
1 0 1 0 1 0 1 0 1 0 1 0 1 0 1 0 
1 0 1 0 1 0 1 0 1 -1 1 0 1 0 1 0 
1 0 1 0 1 0 1 0 1 0 1 0 1 0 1 0 
1 0 1 0 1 0 1 0 1 0 1 0 1 0 1 0 
1 0 1 0 1 0 1 0 1 0 1 0 1 0 1 0 
1 0 1 0 1 0 1 0 1 0 1 0 1 0 1 0 
1 0 1 0 1 -1 1 0 1 0 1 0 1 0 1 0 
1 0 1 0 1 0 1 0 1 0 1 0 1 0 1 0 
1 0 1 0 1 0 1 0 1 0 1 0 1 0 1 0 
1 0 1 0 1 0 1 0 1 0 1 0 1 0 1 0 
1 0 1 0 1 0 1 0 1 0 1 0 1 0 1 0 
1 0 1 0 1 0 1 0 1 0 1 0 1 0 1 0 
1 0 1 0 1 0 1 1 1 0 1 0 1 0 1 0 
1 0 1 0 1 0 1 0 1 0 1 0 1 0 1 0 
1 0 1 0 1 0 1 0 1 0 1 0 1 0 1 0 
1 0 1 0 1 0 1 0 1 0 1 0 1 0 1 0 
1 0 1 0 1 0 1 0 1 0 1 0 1 0 1 0 
1 0 1 1 1 0 1 0 1 0 1 0 1 0 1 0 
1 0 1 0 1 0 1 0 1 0 1 0 1 0 1 0 
1 0 1 0 1 0 1 0 1 0 1 0 1 0 1 0 
1 1 1 0 1 0 1 0 1 0 1 0 1 0 1 0 
1 0 1 0 1 0 1 0 1 0 1 0 1 0 1 0 
1 0 1 0 1 1 1 0 1 0 1 0 1 0 1 0 
1 0 1 0 1 0 1 0 1 0 1 0 1 0 1 0 
1 0 1 1 1 0 1 0 1 0 1 0 1 0 1 0 
1 0 1 0 1 0 1 0 1 0 1 0 1 1 1 0 
1 0 1 0 1 0 1 0 1 0 1 0 1 0 1 0 
1 0 1 0 1 1 1 0 1 0 1 0 1 0 1 0 
1 0 1 0 1 0 1 0 1 0 1 0 1 1 1 0 
1 0 1 0 1 0 1 0 1 0 1 0 1 0 1 0 
1 1 1 0 1 0 1 0 1 0 1 0 1 0 1 0 
1 0 1 0 1 1 1 0 1 0 1 0 1 0 1 0 
1 0 1 0 1 0 3988 2117 300 MP stroke
1 1 1 0 1 0 1 0 1 0 1 0 1 0 1 0 
1 0 1 1 1 0 1 0 1 0 1 0 1 0 1 0 
1 0 1 0 1 1 1 0 1 0 1 0 1 0 1 0 
1 0 1 0 1 1 1 0 1 0 1 0 1 0 1 0 
1 0 1 0 1 1 1 0 1 0 1 0 1 0 1 0 
1 0 1 1 1 0 1 0 1 0 1 0 1 0 1 0 
1 0 1 1 1 0 1 0 1 0 1 0 1 0 1 0 
1 1 1 0 1 0 1 0 1 0 1 0 1 1 1 0 
1 0 1 0 1 0 1 0 1 0 1 1 1 0 1 0 
1 0 1 0 1 0 1 0 1 1 1 0 1 0 1 0 
1 0 1 0 1 1 1 0 1 0 1 0 1 0 1 0 
1 0 1 1 1 0 1 0 1 0 1 0 1 0 1 0 
1 0 1 1 1 0 1 0 1 0 1 0 1 0 1 0 
1 0 1 1 1 0 1 0 1 0 1 0 1 0 1 0 
1 0 1 0 1 0 1 1 1 0 1 0 1 0 1 0 
1 0 1 0 1 0 1 0 1 0 1 0 1 0 1 1 
1 0 1 0 1 0 1 0 1 0 1 0 1 0 1 0 
1 0 1 0 1 0 1 0 1 0 1 0 1 1 1 0 
1 0 1 0 1 0 1 0 1 0 1 0 1 0 1 0 
1 0 1 0 1 0 1 0 1 0 1 0 1 0 1 0 
1 0 1 0 1 0 1 0 1 0 1 0 1 0 1 0 
1 0 1 0 1 0 1 0 1 0 1 0 1 0 1 0 
1 0 1 0 1 0 1 0 1 0 1 0 1 0 1 0 
1 0 1 0 1 0 1 0 1 0 1 0 1 0 1 0 
1 0 1 0 1 0 1 0 1 0 1 0 1 0 1 0 
1 0 1 0 1 0 1 0 1 0 1 0 1 0 1 -1 
1 0 1 0 1 0 1 0 1 0 1 0 1 0 1 0 
1 0 1 0 1 0 1 0 1 0 1 0 1 -1 1 0 
1 0 1 0 1 0 1 0 1 0 1 0 1 0 1 0 
1 0 1 0 1 -1 1 0 1 0 1 0 1 0 1 0 
1 0 1 0 1 0 1 -1 1 0 1 0 1 0 1 0 
1 0 1 0 1 0 1 0 1 -1 1 0 1 0 1 0 
1 0 1 0 1 0 1 -1 1 0 1 0 1 0 1 0 
1 0 1 0 1 -1 1 0 1 0 1 0 1 0 1 0 
1 0 1 -1 1 0 1 0 1 0 1 0 1 0 1 -1 
1 0 1 0 1 0 1 0 1 0 1 -1 1 0 1 0 
1 0 1 0 1 -1 1 0 1 0 1 0 1 0 1 -1 
1 0 1 0 1 0 3689 2111 300 MP stroke
1 0 1 0 1 -1 1 0 1 0 1 0 1 -1 1 0 
1 0 1 0 1 0 1 -1 1 0 1 0 1 0 1 -1 
1 0 1 0 1 0 1 0 1 -1 1 0 1 0 1 0 
1 -1 1 0 1 0 1 0 1 -1 1 0 1 0 1 0 
1 -1 1 0 1 0 1 0 1 -1 1 0 1 0 1 0 
1 -1 1 0 1 0 1 0 1 -1 1 0 1 0 1 -1 
1 0 1 0 1 0 1 -1 1 0 1 0 1 -1 1 0 
1 0 1 0 1 -1 1 0 1 0 1 -1 1 0 1 0 
1 -1 1 0 1 0 1 0 1 -1 1 0 1 0 1 -1 
1 0 1 0 1 -1 1 0 1 0 1 -1 1 0 1 0 
1 -1 1 0 1 0 1 -1 1 0 1 0 1 -1 1 0 
1 0 1 -1 1 0 1 0 1 -1 1 0 1 0 1 -1 
1 0 1 0 1 -1 1 0 1 -1 1 0 1 0 1 -1 
1 0 1 0 1 -1 1 0 1 0 1 -1 1 0 1 -1 
1 0 1 0 1 -1 1 0 1 -1 1 0 1 0 1 -1 
1 0 1 -1 1 0 1 0 1 -1 1 0 1 -1 1 0 
1 0 1 -1 1 0 1 -1 1 0 1 0 1 -1 1 0 
1 -1 1 0 1 0 1 -1 1 0 1 -1 1 0 1 -1 
1 0 1 -1 1 0 1 0 1 -1 1 0 1 -1 1 0 
1 -1 1 0 1 -1 1 0 1 0 1 -1 1 0 1 -1 
1 0 1 -1 1 0 1 -1 1 0 1 -1 1 0 1 -1 
1 0 1 0 1 -1 1 0 1 -1 1 0 1 -1 1 0 
1 -1 1 0 1 -1 1 0 1 -1 1 0 1 -1 1 0 
1 -1 1 0 1 -1 1 0 1 -1 1 0 1 -1 1 0 
1 -1 1 0 1 -1 1 0 1 -1 1 0 1 -1 1 0 
1 -1 1 0 1 -1 1 -1 1 0 1 -1 1 0 1 -1 
1 0 1 -1 1 0 1 -1 1 0 1 -1 1 0 1 -1 
1 0 1 -1 1 -1 1 0 1 -1 1 0 1 -1 1 0 
1 -1 1 0 1 0 1 -1 1 0 1 -1 1 0 1 -1 
1 0 1 -1 1 0 1 -1 1 0 1 -1 1 0 1 0 
1 -1 1 0 1 -1 1 0 1 -1 1 0 1 0 1 -1 
1 0 1 -1 1 0 1 0 1 -1 1 0 1 0 1 -1 
1 0 1 0 1 -1 1 0 1 -1 1 0 1 0 1 -1 
1 0 1 0 1 -1 1 0 1 0 1 0 1 -1 1 0 
1 0 1 -1 1 0 1 0 1 0 1 -1 1 0 1 0 
1 -1 1 0 1 0 1 0 1 -1 1 0 1 0 1 0 
1 0 1 -1 1 0 1 0 1 0 1 -1 1 0 1 0 
1 0 1 0 1 -1 3390 2222 300 MP stroke
1 0 1 0 1 0 1 0 1 0 1 -1 1 0 1 0 
1 0 1 0 1 0 1 0 1 -1 1 0 1 0 1 0 
1 0 1 0 1 0 1 0 1 0 1 0 1 -1 1 0 
1 0 1 0 1 0 1 0 1 0 1 0 1 0 1 0 
1 0 1 0 1 0 1 0 1 0 1 0 1 0 1 0 
1 0 1 0 1 0 1 0 1 0 1 0 1 0 1 0 
1 0 1 0 1 0 1 0 1 0 1 0 1 0 1 0 
1 0 1 0 1 0 1 0 1 0 1 0 1 0 1 0 
1 1 1 0 1 0 1 0 1 0 1 0 1 0 1 0 
1 0 1 1 1 0 1 0 1 0 1 0 1 0 1 0 
1 1 1 0 1 0 1 0 1 0 1 0 1 1 1 0 
1 0 1 0 1 0 1 0 1 1 1 0 1 0 1 0 
1 1 1 0 1 0 1 0 1 1 1 0 1 0 1 0 
1 0 1 1 1 0 1 0 1 1 1 0 1 0 1 0 
1 1 1 0 1 0 1 1 1 0 1 0 1 1 1 0 
1 0 1 0 1 1 1 0 1 1 1 0 1 0 1 1 
1 0 1 0 1 1 1 0 1 0 1 1 1 0 1 1 
1 0 1 0 1 1 1 0 1 0 1 1 1 0 1 1 
1 0 1 1 1 0 1 0 1 1 1 0 1 1 1 0 
1 1 1 0 1 1 1 0 1 1 1 0 1 1 1 0 
1 1 1 0 1 1 1 0 1 0 1 1 1 1 1 0 
1 1 1 0 1 1 1 0 1 1 1 0 1 1 1 0 
1 1 1 0 1 1 1 1 1 0 1 1 1 0 1 1 
1 1 1 0 1 1 1 0 1 1 1 1 1 0 1 1 
1 0 1 1 1 1 1 0 1 1 1 1 1 0 1 1 
1 1 1 0 1 1 1 1 1 0 1 1 1 1 1 0 
1 1 1 1 1 0 1 1 1 1 1 1 1 0 1 1 
1 1 1 0 1 1 1 1 1 1 1 0 1 1 1 1 
1 1 1 1 1 0 1 1 1 1 1 1 1 0 1 1 
1 1 1 1 1 0 1 1 1 1 1 1 1 1 1 1 
1 0 1 1 1 1 1 1 1 1 1 1 1 0 1 1 
1 1 1 1 1 1 1 1 1 1 1 1 1 0 1 1 
1 1 1 1 1 1 1 1 1 1 1 1 1 1 1 1 
1 0 1 1 1 1 1 1 1 1 1 1 1 1 1 1 
1 1 1 1 1 1 1 1 1 1 1 1 1 1 1 1 
1 1 1 1 1 1 1 1 1 1 1 1 1 1 1 1 
1 1 1 1 1 1 1 1 1 1 1 1 1 1 1 1 
1 1 0 1 2 2 3091 2088 300 MP stroke
1 1 1 1 1 1 1 1 1 1 1 1 1 1 0 1 
2 2 1 0 -1 0 2 2 1 1 1 1 1 1 1 1 
1 1 0 1 2 2 1 1 1 1 1 1 1 1 1 1 
0 1 2 2 1 1 1 1 1 1 0 1 2 2 1 1 
1 1 0 1 2 2 1 1 1 1 1 1 0 1 2 2 
1 1 1 1 0 1 2 2 1 1 1 1 1 1 0 1 
2 2 1 1 0 1 2 2 1 1 1 1 0 1 2 2 
1 1 1 1 0 1 2 2 1 1 1 1 1 1 1 1 
0 1 2 2 1 1 1 1 1 1 1 1 1 1 1 1 
1 1 0 1 2 2 1 1 1 1 1 1 1 1 1 1 
1 1 1 1 1 1 1 1 1 1 1 1 1 1 1 1 
1 1 1 1 1 1 1 1 1 1 1 1 1 1 1 1 
1 1 1 0 1 1 1 1 1 1 1 1 1 1 1 1 
1 1 1 1 1 0 1 1 1 1 1 1 1 1 1 0 
1 1 1 1 1 1 1 1 1 0 1 1 1 1 1 1 
1 0 1 1 1 1 1 0 1 1 1 1 1 1 1 0 
1 1 1 1 1 0 1 1 1 1 1 0 1 1 1 0 
1 1 1 1 1 0 1 1 1 0 1 1 1 1 1 0 
1 1 1 0 1 1 1 0 1 1 1 0 1 1 1 0 
1 1 1 0 1 1 1 0 1 1 1 0 1 1 1 0 
1 0 1 1 1 0 1 1 1 0 1 0 1 1 1 0 
1 1 1 0 1 0 1 1 1 0 1 0 1 1 1 0 
1 0 1 0 1 1 1 0 1 0 1 1 1 0 1 0 
1 0 1 1 1 0 1 0 1 0 1 0 1 1 1 0 
1 0 1 0 1 0 1 0 1 1 1 0 1 0 1 0 
1 0 1 0 1 0 1 0 1 1 1 0 1 0 1 0 
1 0 1 0 1 0 1 0 1 0 1 0 1 0 1 0 
1 0 1 0 1 0 1 0 1 0 1 0 1 0 1 0 
1 0 1 0 1 -1 1 0 1 0 1 0 1 0 1 0 
1 0 1 0 1 0 1 -1 1 0 1 0 1 0 1 0 
1 0 1 -1 1 0 1 0 1 0 1 -1 1 0 1 0 
1 0 1 -1 1 0 1 0 1 0 1 -1 1 0 1 0 
1 -1 1 0 1 0 1 -1 1 0 1 0 1 -1 1 0 
1 0 1 -1 1 0 1 0 1 -1 1 0 1 -1 1 0 
1 -1 1 0 1 0 1 -1 1 0 1 -1 1 0 1 -1 
1 0 1 -1 1 0 1 -1 1 -1 1 0 1 0 1 -1 
1 -1 1 0 1 -1 1 0 1 -1 1 -1 1 0 1 -1 
1 0 1 -1 1 -1 2793 1952 300 MP stroke
1 0 1 -1 1 -1 1 0 1 -1 1 -1 1 0 1 -1 
1 -1 1 0 1 -1 1 -1 1 -1 1 0 1 -1 1 -1 
1 -1 1 -1 1 0 1 -1 1 -1 1 -1 1 0 1 -1 
1 -1 1 -1 1 -1 1 -1 1 -1 1 0 1 -1 1 -1 
1 -1 1 -1 1 -1 1 -1 1 -1 1 0 1 -1 1 -1 
1 -1 1 -1 1 -1 1 -1 1 -1 1 -1 1 -1 1 -1 
1 -1 1 -1 1 -1 1 -1 0 -1 2 -2 1 -1 1 0 
-1 0 2 -2 1 -1 1 -1 1 -1 1 -1 1 -1 1 -1 
0 -1 2 -2 1 -1 1 -1 1 -1 1 -1 0 -1 2 -2 
1 -1 1 -1 1 -1 1 -1 0 -1 2 -2 1 -1 0 -1 
2 -2 1 -1 1 -1 0 -1 2 -2 1 -1 1 -1 0 -1 
2 -2 1 -1 0 -1 2 -2 0 -1 2 -2 1 -1 0 -1 
2 -2 1 -1 0 -1 2 -2 1 -1 0 -1 2 -2 0 -1 
2 -2 0 -1 2 -2 0 -1 2 -2 0 -1 2 -2 1 -1 
1 -1 0 -2 2 -2 0 -1 2 -2 0 -1 2 -2 0 -1 
2 -2 1 -1 0 -2 2 -2 0 -1 2 -2 1 -1 0 -2 
2 -2 0 -1 2 -2 1 -1 0 -2 2 -2 0 -1 1 -1 
1 -1 0 -2 2 -2 0 -1 2 -2 0 -1 1 -1 0 -1 
1 -1 0 -1 2 -2 1 -1 0 -2 2 -2 0 -2 2 -2 
0 -1 1 -1 1 -1 0 -2 2 -2 0 -1 1 -1 0 -1 
1 -1 0 -1 1 -1 0 -1 2 -2 0 -1 1 -1 0 -1 
1 -1 0 -1 1 -1 0 -1 1 -1 0 -1 1 -1 1 -1 
0 -2 2 -2 0 -2 2 -2 0 -2 2 -2 0 -1 1 -1 
0 -1 1 -1 0 -1 1 -1 0 -1 1 -1 0 -1 1 -1 
0 -1 2 -2 0 -2 1 -1 0 -1 1 -1 0 -1 1 -1 
0 -1 1 -1 1 -1 0 -2 1 -1 0 -1 1 -1 0 -1 
1 -1 0 -1 1 -1 0 -1 1 -1 0 -2 2 -2 0 -1 
1 -1 0 -1 1 -1 0 -2 2 -2 0 -2 1 -1 1 -1 
0 -2 2 -2 0 -2 1 -1 0 -1 1 -1 0 -1 1 -1 
0 -1 1 -1 0 -1 1 -1 0 -1 1 -1 0 -1 1 -1 
0 -1 1 -1 0 -2 2 -2 0 -1 1 -1 0 -1 1 -1 
0 -2 2 -2 0 -2 1 -1 0 -1 1 -1 0 -1 2 -2 
0 -2 1 -1 0 -1 1 -1 0 -1 1 -1 0 -1 1 -1 
0 -1 1 -1 0 -1 1 -1 0 -1 1 -1 0 -1 1 -1 
0 -1 1 -1 0 -2 2 -2 0 -1 1 -1 0 -1 1 -1 
0 -2 2 -2 0 -2 1 -1 1 -1 0 -2 2 -2 0 -2 
1 -1 0 -1 1 -1 0 -1 1 -1 0 -1 1 -1 0 -1 
1 -1 0 -1 1 -1 2554 2313 300 MP stroke
0 -1 1 -1 0 -1 1 -1 0 -1 1 -1 0 -2 2 -2 
0 -1 1 -1 0 -1 1 -1 0 -2 2 -2 0 -2 2 -2 
0 -1 1 -1 0 -2 2 -2 0 -2 1 -1 0 -1 1 -1 
1 -1 0 -2 2 -2 0 -2 1 -1 0 -1 1 -1 0 -1 
1 -1 0 -1 1 -1 0 -1 1 -1 0 -1 1 -1 0 -1 
1 -1 0 -1 1 -1 0 -1 1 -1 0 -2 2 -2 0 -1 
1 -1 0 -1 1 -1 0 -2 2 -2 0 -2 2 -2 0 -2 
2 -2 0 -2 2 -2 0 -2 1 -1 0 -1 2 -2 0 -2 
2 -2 0 -2 1 -1 0 -1 1 -1 0 -1 1 -1 1 -1 
0 -2 1 -1 0 -1 1 -1 0 -1 1 -1 0 -1 1 -1 
0 -1 1 -1 0 -1 1 -1 0 -1 1 -1 0 -1 1 -1 
0 -1 1 -1 0 -1 1 -1 0 -2 2 -2 0 -1 1 -1 
0 -1 1 -1 0 -1 1 -1 0 -2 2 -2 0 -2 2 -2 
0 -1 1 -1 0 -1 1 -1 0 -2 2 -2 0 -2 2 -2 
0 -2 2 -2 0 -2 2 -2 0 -2 1 -1 0 -1 2 -2 
0 -2 2 -2 0 -2 1 -1 0 -1 1 -1 1 -1 0 -2 
2 -2 0 -2 1 -1 0 -1 1 -1 0 -1 1 -1 0 -1 
1 -1 0 -1 2 -2 0 -2 1 -1 0 -1 1 -1 0 -1 
1 -1 0 -1 1 -1 1 -1 0 -2 1 -1 0 -1 1 -1 
0 -1 1 -1 0 -1 1 -1 0 -1 1 -1 1 -1 0 -2 
1 -1 0 -1 1 -1 0 -1 1 -1 0 -1 1 -1 0 -1 
1 -1 0 -1 1 -1 0 -1 1 -1 0 -1 1 -1 0 -1 
1 -1 0 -1 1 -1 0 -1 1 -1 0 -2 2 -2 0 -1 
1 -1 0 -1 1 -1 0 -1 1 -1 0 -1 1 -1 0 -2 
2 -2 0 -1 1 -1 0 -1 1 -1 0 -1 1 -1 0 -1 
1 -1 0 -2 2 -2 0 -1 1 -1 0 -1 1 -1 0 -1 
1 -1 0 -1 1 -1 0 -2 2 -2 0 -1 1 -1 0 -1 
1 -1 0 -1 1 -1 0 -1 1 -1 0 -1 1 -1 0 -2 
2 -2 0 -1 1 -1 0 -1 1 -1 0 -1 1 -1 0 -1 
1 -1 0 -2 2 -2 0 -1 1 -1 0 -1 1 -1 0 -1 
1 -1 0 -1 1 -1 0 -2 2 -2 0 -1 1 -1 0 -1 
1 -1 0 -1 1 -1 0 -1 1 -1 0 -1 1 -1 0 -1 
1 -1 0 -1 1 -1 0 -1 1 -1 0 -1 1 -1 0 -1 
1 -1 0 -1 1 -1 0 -1 1 -1 0 -1 1 -1 0 -1 
1 -1 0 -1 1 -1 0 -1 1 -1 0 -1 1 -1 0 -1 
1 -1 1 -1 0 -2 1 -1 0 -1 1 -1 0 -1 1 -1 
0 -1 1 -1 0 -1 1 -1 0 -1 2 -2 0 -2 1 -1 
0 -1 1 -1 0 -1 2371 2683 300 MP stroke
1 -1 0 -1 1 -1 0 -1 2 -2 0 -2 2 -2 0 -2 
1 -1 0 -1 1 -1 0 -1 1 -1 1 -1 0 -2 2 -2 
0 -2 2 -2 0 -2 1 -1 1 -1 0 -2 2 -2 0 -2 
2 -2 0 -2 2 -2 0 -1 1 -1 0 -1 1 -1 0 -2 
2 -2 0 -2 2 -2 0 -1 1 -1 0 -1 1 -1 0 -1 
1 -1 0 -1 1 -1 0 -1 1 -1 0 -2 2 -2 0 -1 
1 -1 0 -1 1 -1 0 -1 1 -1 0 -1 1 -1 0 -1 
1 -1 1 -1 0 -2 1 -1 0 -1 1 -1 0 -1 1 -1 
0 -1 1 -1 0 -1 1 -1 1 -1 0 -2 2 -2 0 -2 
2 -2 0 -2 1 -1 0 -1 1 -1 1 -1 0 -2 2 -2 
0 -2 2 -2 0 -2 2 -2 0 -1 1 -1 0 -1 1 -1 
0 -2 2 -2 0 -2 2 -2 0 -1 1 -1 0 -1 1 -1 
0 -1 1 -1 0 -1 1 -1 0 -1 1 -1 0 -1 2 -2 
0 -2 1 -1 0 -1 1 -1 0 -1 1 -1 0 -1 1 -1 
0 -1 1 -1 1 -1 0 -2 2 -2 0 -2 2 -2 0 -2 
2 -2 0 -1 1 -1 0 -1 1 -1 0 -2 2 -2 0 -2 
2 -2 0 -1 1 -1 0 -1 1 -1 0 -1 1 -1 0 -1 
1 -1 0 -1 1 -1 1 -1 0 -2 2 -2 0 -2 2 -2 
0 -2 1 -1 0 -1 1 -1 1 -1 0 -2 2 -2 0 -2 
2 -2 0 -2 2 -2 0 -1 1 -1 0 -1 1 -1 0 -1 
1 -1 0 -1 1 -1 0 -1 1 -1 1 -1 0 -2 2 -2 
0 -2 1 -1 0 -1 1 -1 0 -1 1 -1 0 -1 2 -2 
0 -2 2 -2 0 -2 2 -2 0 -2 2 -2 0 -1 1 -1 
0 -1 1 -1 0 -1 1 -1 0 -1 1 -1 0 -1 1 -1 
1 -1 0 -2 2 -2 0 -2 2 -2 0 -2 2 -2 0 -2 
2 -2 0 -2 2 -2 0 -2 2 -2 0 -1 1 -1 0 -1 
1 -1 0 -1 1 -1 0 -1 1 -1 0 -1 1 -1 0 -1 
1 -1 1 -1 0 -2 2 -2 0 -2 2 -2 0 -2 2 -2 
0 -1 1 -1 0 -1 1 -1 0 -1 1 -1 0 -1 1 -1 
0 -1 1 -1 1 -1 0 -2 2 -2 0 -2 2 -2 0 -2 
2 -2 0 -1 1 -1 0 -1 1 -1 0 -1 1 -1 0 -1 
1 -1 0 -1 1 -1 0 -1 1 -1 1 -1 0 -2 2 -2 
0 -2 2 -2 0 -2 1 -1 1 -1 0 -2 2 -2 0 -2 
2 -2 0 -2 2 -2 0 -1 1 -1 0 -1 1 -1 0 -1 
1 -1 0 -1 1 -1 0 -1 1 -1 0 -1 1 -1 1 -1 
0 -2 2 -2 0 -1 1 -1 0 -1 1 -1 0 -1 1 -1 
1 -1 0 -2 2 -2 0 -1 1 -1 0 -1 1 -1 0 -1 
2 -2 0 -1 1 -1 2160 3092 300 MP stroke
1 -1 0 -2 2 -2 0 -1 1 -1 1 -1 0 -1 1 -1 
0 -1 2 -2 0 -1 1 -1 0 -1 2 -2 0 -1 2 -2 
0 -1 2 -2 0 -1 2 -2 1 -1 0 -1 2 -2 0 -1 
2 -2 1 -1 0 -1 2 -2 1 -1 0 -1 2 -2 1 -1 
1 -1 0 -1 2 -2 1 -1 1 -1 0 -1 2 -2 1 -1 
1 -1 1 -1 1 -1 1 -1 1 -1 1 -1 1 -1 0 -1 
2 -2 1 -1 1 -1 1 0 1 -1 1 -1 1 -1 1 -1 
1 -1 1 -1 1 -1 1 -1 1 -1 1 -1 1 0 1 -1 
1 -1 1 -1 1 -1 1 0 1 -1 1 -1 1 0 1 -1 
1 -1 1 0 1 -1 1 -1 1 0 1 -1 1 -1 1 0 
1 -1 1 0 1 -1 1 0 1 -1 1 0 1 -1 1 0 
1 -1 1 0 1 0 1 -1 1 0 1 -1 1 0 1 0 
1 0 1 -1 1 0 1 0 1 -1 1 0 1 0 1 0 
1 0 1 -1 1 0 1 0 1 0 1 0 1 0 1 0 
1 0 1 -1 1 0 1 0 1 0 1 0 1 0 1 0 
1 0 1 0 1 1 1 0 1 0 1 0 1 0 1 0 
1 0 1 1 1 0 1 0 1 0 1 0 1 1 1 0 
1 0 1 0 1 1 1 0 1 0 1 1 1 0 1 1 
1 0 1 0 1 1 1 0 1 1 1 0 1 1 1 0 
1 1 1 0 1 1 1 0 1 1 1 1 1 0 1 1 
1 0 1 1 1 1 1 0 1 1 1 1 1 1 1 0 
1 1 1 1 1 1 1 0 1 1 1 1 1 1 1 1 
1 1 1 0 1 1 1 1 1 1 1 1 1 1 1 1 
1 1 1 1 1 1 0 1 2 2 1 0 0 1 2 2 
1 1 1 1 1 1 1 1 0 1 2 2 1 1 1 1 
1 1 0 1 2 2 1 1 0 1 2 2 1 1 0 1 
2 2 1 1 0 1 2 2 0 1 2 2 1 1 1 1 
0 2 2 2 0 1 2 2 0 1 2 2 0 1 2 2 
0 1 2 2 1 1 0 2 2 2 0 1 1 1 1 1 
0 2 2 2 1 1 0 2 2 2 0 1 1 1 0 1 
1 1 0 1 1 1 1 1 0 1 1 1 0 1 1 1 
0 1 1 1 0 1 1 1 0 1 1 1 1 1 0 2 
2 2 0 2 2 2 0 2 2 2 0 1 1 1 0 2 
2 2 0 2 2 2 0 2 1 1 1 1 0 2 1 1 
0 1 1 1 0 1 1 1 0 2 2 2 0 2 2 2 
0 2 1 1 0 2 2 2 0 2 1 1 0 1 1 1 
0 1 1 1 0 1 1 1 0 2 1 1 0 1 1 1 
0 2 1 1 0 1 1887 3001 300 MP stroke
1 1 0 1 1 1 0 2 1 1 0 1 1 1 0 2 
1 1 0 1 1 1 0 2 1 1 0 1 1 1 0 1 
1 1 0 2 1 1 0 1 1 1 0 2 1 1 0 2 
1 1 0 1 1 1 0 1 1 1 0 2 1 1 0 2 
1 1 0 2 1 1 0 2 2 2 0 2 1 1 0 2 
1 1 0 2 1 1 0 2 1 1 0 2 1 1 0 1 
1 1 0 2 1 1 0 1 1 1 0 2 1 1 0 2 
1 1 0 2 1 1 0 2 1 1 0 1 1 1 0 2 
1 1 0 2 1 1 0 2 1 1 0 2 1 1 0 2 
1 1 0 2 1 1 0 2 1 1 0 2 1 1 0 2 
1 1 0 2 1 1 0 2 1 1 0 2 1 1 0 2 
1 1 0 2 1 1 0 2 1 1 0 2 1 1 0 3 
1 1 0 2 1 1 0 1 1 1 0 3 1 1 0 2 
1 1 0 2 1 1 0 3 1 1 0 2 1 1 0 1 
1 1 0 3 1 1 0 2 1 1 0 3 1 1 0 2 
1 1 0 2 1 1 0 2 1 1 0 2 1 1 0 3 
1 1 0 2 1 1 0 3 1 1 0 2 1 1 0 2 
1 1 0 3 1 1 0 2 1 1 0 3 1 1 0 2 
1 1 0 3 1 1 0 3 1 1 0 1 1 1 0 3 
1 1 0 3 1 1 0 2 1 1 0 3 1 1 0 3 
1 1 0 2 1 1 0 2 1 1 0 3 1 1 0 3 
1 1 0 3 1 1 0 3 1 1 0 2 1 1 0 2 
1 1 0 3 1 1 0 3 1 1 0 3 1 1 0 3 
1 1 0 2 1 1 0 3 1 1 0 3 1 1 0 3 
1 1 0 3 1 1 0 3 1 1 0 3 1 1 0 2 
1 1 0 3 1 1 0 3 1 1 0 3 1 1 0 3 
1 1 0 3 1 1 0 2 1 1 0 3 1 2 0 3 
1 1 0 3 1 1 0 3 1 1 0 3 1 1 0 2 
1 1 0 4 1 1 0 3 1 1 0 3 1 1 0 3 
1 1 0 4 1 1 0 2 1 1 0 3 1 1 0 4 
1 1 0 3 1 1 0 3 1 1 0 4 1 1 0 3 
1 1 0 2 1 2 0 3 1 1 0 3 1 1 0 4 
1 1 0 3 1 1 0 4 1 1 0 2 1 1 0 4 
1 1 0 3 1 1 0 4 1 1 0 3 1 2 0 3 
1 1 0 2 1 2 0 3 1 1 0 4 1 1 0 3 
1 2 0 3 1 1 0 4 1 1 0 2 1 1 0 4 
1 1 0 4 1 1 0 3 1 2 0 3 1 1 0 4 
1 1 0 4 1 1 1736 2475 300 MP stroke
0 2 1 1 0 4 1 1 0 3 1 2 0 3 1 1 
0 4 1 1 0 3 1 1 0 3 1 1 0 3 1 1 
0 4 1 1 0 3 1 1 0 4 1 1 0 3 1 1 
0 3 1 1 0 3 1 1 0 4 1 1 0 3 1 1 
0 3 1 2 0 3 1 1 0 2 1 1 0 3 1 2 
0 3 1 1 0 3 1 1 0 3 1 2 0 3 1 1 
0 3 1 1 0 2 1 1 0 4 1 1 0 3 1 1 
0 3 1 1 0 3 1 1 0 3 1 1 0 3 1 1 
0 3 1 1 0 3 1 1 0 3 1 1 0 3 1 1 
0 3 1 1 0 2 1 1 0 3 1 1 0 3 1 1 
0 3 1 1 0 3 1 1 0 3 1 1 0 2 1 1 
0 3 1 1 0 3 1 1 0 3 1 1 0 3 1 1 
0 3 1 1 0 3 1 1 0 2 1 1 0 3 1 1 
0 2 1 1 0 3 1 1 0 3 1 1 0 3 1 1 
0 2 1 1 0 2 1 1 0 3 1 1 0 3 1 1 
0 3 1 1 0 2 1 1 0 2 1 1 0 3 1 1 
0 2 1 1 0 3 1 1 0 3 1 1 0 2 1 1 
0 3 1 1 0 1 1 1 0 3 1 1 0 2 1 1 
0 3 1 1 0 2 1 1 0 3 1 1 0 1 1 1 
0 3 1 1 0 2 1 1 0 3 1 1 0 2 1 1 
0 3 1 1 0 1 1 1 0 2 1 1 0 3 1 1 
0 2 1 1 0 2 1 1 0 3 1 1 0 1 1 1 
0 2 1 1 0 3 1 1 0 2 1 1 0 2 1 1 
0 2 1 1 0 2 1 1 0 2 1 1 0 2 1 1 
0 2 1 1 0 2 1 1 0 2 1 1 0 2 1 1 
0 2 1 1 0 2 1 1 0 2 1 1 0 2 1 1 
0 2 1 1 0 2 1 1 0 1 1 1 0 2 1 1 
0 2 1 1 0 2 1 1 0 1 1 1 0 2 1 1 
0 2 1 1 0 1 1 1 0 2 1 1 0 2 1 1 
0 2 1 1 0 2 1 1 0 2 2 2 0 2 1 1 
0 2 1 1 0 2 1 1 0 1 1 1 0 2 1 1 
0 1 1 1 0 2 1 1 0 1 1 1 0 2 1 1 
0 1 1 1 0 2 1 1 0 1 1 1 0 1 1 1 
0 2 1 1 0 1 1 1 0 2 1 1 0 2 2 2 
0 2 1 1 0 1 1 1 0 2 1 1 0 1 1 1 
0 1 1 1 0 2 1 1 1 1 0 2 1 1 0 2 
2 2 0 2 1 1 0 1 1 1 0 1 1 1 0 1 
1 1 0 1 1 1 1583 1970 300 MP stroke
0 2 2 2 0 2 1 1 0 1 2 2 0 2 1 1 
0 1 1 1 0 1 1 1 0 1 1 1 0 1 2 2 
0 2 2 2 0 2 2 2 0 2 2 2 0 1 1 1 
0 1 1 1 0 1 1 1 1 1 0 2 2 2 0 1 
1 1 1 1 0 2 2 2 0 1 1 1 0 1 2 2 
1 1 0 2 2 2 0 1 2 2 1 1 0 2 2 2 
0 1 2 2 1 1 1 1 0 2 2 2 1 1 0 1 
2 2 1 1 0 1 2 2 0 1 2 2 1 1 1 1 
0 1 2 2 1 1 0 1 2 2 1 1 1 1 1 1 
1 1 1 1 0 1 2 2 1 1 1 1 1 1 1 1 
1 1 1 1 1 1 1 1 1 1 1 1 1 1 1 1 
1 0 1 1 1 1 1 1 1 1 1 1 1 1 1 0 
1 1 1 1 1 1 1 1 1 0 1 1 1 1 1 0 
1 1 1 1 1 0 1 1 1 0 1 1 1 1 1 0 
1 1 1 0 1 1 1 0 1 1 1 0 1 1 1 0 
1 0 1 1 1 0 1 1 1 0 1 0 1 1 1 0 
1 0 1 0 1 1 1 0 1 0 1 0 1 1 1 0 
1 0 1 0 1 0 1 0 1 0 1 0 1 1 1 0 
1 0 1 0 1 0 1 0 1 0 1 0 1 0 1 0 
1 -1 1 0 1 0 1 0 1 0 1 0 1 0 1 -1 
1 0 1 0 1 0 1 0 1 -1 1 0 1 0 1 -1 
1 0 1 0 1 -1 1 0 1 0 1 -1 1 0 1 -1 
1 0 1 -1 1 0 1 -1 1 0 1 -1 1 0 1 -1 
1 0 1 -1 1 -1 1 0 1 -1 1 0 1 -1 1 -1 
1 -1 1 0 1 -1 1 -1 1 0 1 -1 1 -1 1 -1 
1 -1 1 0 1 -1 1 -1 1 -1 1 -1 1 -1 1 -1 
1 -1 1 -1 1 -1 1 -1 1 -1 1 -1 1 -1 1 -1 
1 -1 1 -1 0 -1 2 -2 1 0 -1 0 2 -2 1 -1 
1 -1 0 -1 2 -2 1 -1 1 -1 1 -1 0 -1 2 -2 
1 -1 0 -1 2 -2 1 -1 0 -1 2 -2 0 -1 2 -2 
1 -1 0 -1 2 -2 1 -1 0 -2 2 -2 1 -1 1 -1 
0 -2 2 -2 0 -1 2 -2 0 -1 2 -2 0 -1 1 -1 
1 -1 0 -2 2 -2 1 -1 0 -2 2 -2 0 -1 1 -1 
0 -1 2 -2 0 -2 2 -2 0 -1 1 -1 1 -1 0 -2 
2 -2 0 -2 2 -2 0 -1 1 -1 0 -1 1 -1 0 -1 
1 -1 0 -1 1 -1 0 -1 1 -1 0 -1 1 -1 0 -1 
1 -1 0 -1 1 -1 0 -1 1 -1 0 -1 1 -1 0 -2 
2 -2 0 -1 1 -1 1309 1969 300 MP stroke
0 -2 2 -2 0 -2 1 -1 0 -1 1 -1 0 -2 2 -2 
0 -2 2 -2 0 -2 1 -1 0 -1 1 -1 0 -1 1 -1 
0 -1 1 -1 0 -1 1 -1 0 -1 1 -1 0 -2 2 -2 
0 -2 2 -2 0 -2 2 -2 0 -2 2 -2 0 -2 2 -2 
0 -1 1 -1 0 -2 2 -2 0 -2 2 -2 0 -2 2 -2 
0 -1 1 -1 0 -1 1 -1 0 -1 1 -1 0 -1 1 -1 
0 -1 1 -1 0 -1 2 -2 0 -2 2 -2 0 -2 2 -2 
0 -1 2 -2 0 -2 2 -2 0 -2 2 -2 0 -1 2 -2 
0 -2 2 -2 0 -1 1 -1 0 -1 1 -1 0 -1 2 -2 
0 -1 1 -1 1 -1 0 -2 2 -2 0 -1 1 -1 0 -1 
2 -2 1 -1 0 -2 2 -2 0 -1 1 -1 1 -1 0 -1 
1 -1 1 -1 0 -2 2 -2 0 -1 2 -2 0 -1 2 -2 
0 -1 1 -1 0 -1 2 -2 0 -1 2 -2 0 -1 2 -2 
0 -1 2 -2 0 -1 2 -2 0 -1 2 -2 0 -1 2 -2 
1 -1 0 -1 2 -2 0 -1 2 -2 0 -1 2 -2 1 -1 
0 -1 2 -2 0 -1 2 -2 1 -1 1 -1 0 -1 2 -2 
0 -1 2 -2 1 -1 1 -1 0 -1 2 -2 1 -1 0 -1 
2 -2 1 -1 1 -1 1 -1 0 -1 2 -2 1 -1 1 -1 
1 -1 0 -1 2 -2 1 -1 1 -1 1 -1 1 -1 1 -1 
0 -1 2 -2 1 -1 1 -1 1 -1 1 -1 1 -1 1 -1 
1 -1 1 -1 1 -1 1 -1 1 -1 1 -1 1 -1 1 -1 
1 -1 1 -1 1 -1 1 -1 1 -1 1 -1 1 -1 1 -1 
1 -1 1 -1 1 -1 1 -1 1 -1 1 -1 1 0 1 -1 
1 -1 1 -1 1 -1 1 -1 1 -1 1 0 1 -1 1 -1 
1 -1 1 -1 1 -1 1 0 1 -1 1 -1 1 -1 1 0 
1 -1 1 -1 1 0 1 -1 1 -1 1 -1 1 0 1 -1 
1 -1 1 0 1 -1 1 -1 1 0 1 -1 1 -1 1 0 
1 -1 1 0 1 -1 1 -1 1 0 1 -1 1 0 1 -1 
1 0 1 -1 1 0 1 -1 1 0 1 -1 1 -1 1 0 
1 0 1 -1 1 0 1 -1 1 0 1 -1 1 0 1 -1 
1 0 1 0 1 -1 1 0 1 -1 1 0 1 0 1 -1 
1 0 1 0 1 -1 1 0 1 0 1 -1 1 0 1 0 
1 -1 1 0 1 0 1 0 1 -1 1 0 1 0 1 0 
1 -1 1 0 1 0 1 0 1 0 1 -1 1 0 1 0 
1 0 1 0 1 0 1 -1 1 0 1 0 1 0 1 0 
1 0 1 0 1 0 1 0 1 0 1 -1 1 0 1 0 
1 0 1 0 1 0 1 0 1 0 1 0 1 0 1 0 
1 0 1 0 1 0 1031 2266 300 MP stroke
1 1 1 0 1 0 1 0 1 0 1 0 1 0 1 0 
1 0 1 0 1 1 1 0 1 0 1 0 1 0 1 0 
1 1 1 0 1 0 1 0 1 0 1 1 1 0 1 0 
1 0 1 1 1 0 1 0 1 0 1 1 1 0 1 0 
1 1 1 0 1 0 1 1 1 0 1 0 1 1 1 0 
1 0 1 1 1 0 1 1 1 0 1 1 1 0 1 0 
1 1 1 0 1 1 1 0 1 1 1 0 1 1 1 0 
1 1 1 0 1 1 1 0 1 1 1 0 1 1 1 0 
1 1 1 0 1 1 1 1 1 0 1 1 1 1 1 0 
1 1 1 0 1 1 1 1 1 1 1 0 1 1 1 1 
1 0 1 1 1 1 1 0 1 1 1 1 1 1 1 0 
1 1 1 1 1 1 1 0 1 1 1 1 1 1 1 1 
1 0 1 1 1 1 1 1 1 1 1 1 1 1 1 1 
1 0 1 1 1 1 1 1 1 1 1 1 1 1 1 1 
1 1 1 1 1 1 1 1 1 1 1 1 1 1 1 1 
1 1 1 1 1 1 1 1 1 1 1 1 1 1 1 1 
1 1 0 1 2 2 1 1 1 1 1 1 1 1 1 1 
0 1 2 2 1 1 1 1 1 1 1 1 0 1 2 2 
1 1 1 1 1 1 0 1 2 2 1 1 0 1 2 2 
1 1 1 1 0 1 2 2 0 1 2 2 0 1 873 2155 160 MP stroke
/c9 { 1.000000 0.000000 0.000000 sr} bdef
c9
1 0 0 1 2 2 1 1 0 1 2 2 1 1 1 0 
1 1 1 1 1 1 1 0 1 0 1 1 1 -1 1 0 
1 0 1 -1 1 0 1 -1 1 -1 1 -1 0 -1 2 -2 
1 -1 0 -1 2 -2 0 -1 2 -2 1 -1 0 -1 2 -2 
1 -1 1 -1 1 -1 1 -1 1 -1 1 0 1 -1 1 0 
1 0 1 0 1 0 1 0 1 1 1 0 1 1 1 1 
1 1 0 1 2 2 1 1 0 1 2 2 0 1 2 2 
1 1 1 1 0 1 2 2 1 1 1 1 1 1 1 1 
1 0 1 1 1 0 1 0 1 0 1 0 1 0 1 0 
1 -1 1 -1 1 -1 1 -1 1 -1 1 -1 0 -1 2 -2 
0 -1 2 -2 1 -1 0 -1 2 -2 0 -1 2 -2 1 -1 
1 -1 1 -1 1 -1 1 0 1 -1 1 0 1 -1 1 0 
1 0 1 1 1 0 1 1 1 0 1 1 1 1 0 1 
2 2 1 1 1 1 0 1 2 2 0 1 2 2 0 1 
2 2 1 1 1 1 1 1 1 1 1 1 1 1 1 0 
1 1 1 0 1 0 1 0 1 0 1 0 1 -1 1 -1 
1 0 0 -1 2 -2 1 -1 1 -1 0 -1 2 -2 0 -1 
2 -2 1 -1 0 -1 2 -2 0 -1 2 -2 1 -1 1 -1 
1 -1 1 -1 1 0 1 -1 1 0 1 0 1 0 1 0 
1 0 1 1 1 0 1 1 1 1 1 1 0 1 2 2 
1 1 0 1 2 2 0 1 2 2 0 1 2 2 1 1 
0 1 2 2 1 0 1 1 1 1 1 1 1 1 1 0 
1 0 1 0 1 0 1 0 1 -1 1 -1 1 0 1 -1 
1 -1 0 -1 2 -2 1 -1 0 -1 2 -2 0 -1 2 -2 
0 -1 2 -2 1 -1 0 -1 2 -2 1 -1 1 -1 1 -1 
1 -1 1 0 1 -1 1 0 1 0 1 0 1 0 1 1 
1 0 1 1 1 1 1 1 1 1 1 1 0 1 2 2 
0 1 2 2 0 1 2 2 0 1 2 2 1 1 0 1 
2 2 1 1 1 0 1 1 1 1 1 0 1 1 1 0 
1 0 1 0 1 -1 1 0 1 -1 1 -1 1 -1 1 -1 
0 -1 2 -2 0 -1 2 -2 1 -1 1 -1 0 -2 2 -2 
0 -1 2 -2 1 -1 1 -1 1 -1 1 -1 1 -1 1 -1 
1 0 1 -1 1 0 1 0 1 0 1 1 1 0 1 1 
1 1 1 1 1 1 1 1 0 1 2 2 1 1 1 1 
0 2 2 2 0 1 2 2 1 1 1 1 0 1 2 2 
1 1 1 1 1 0 1 1 1 0 1 0 1 0 1 0 
1 0 1 0 1 -1 1 -1 1 -1 1 -1 1 -1 0 -1 
2 -2 0 -1 2 -2 5782 2136 300 MP stroke
0 -1 2 -2 0 -1 2 -2 0 -1 2 -2 1 -1 1 -1 
1 -1 1 -1 1 -1 1 -1 1 0 1 -1 1 0 1 0 
1 1 1 0 1 1 1 0 1 1 1 1 0 1 2 2 
0 1 2 2 1 1 1 1 0 2 2 2 0 1 2 2 
1 1 1 1 0 1 2 2 1 1 1 0 1 1 1 1 
1 0 1 0 1 0 1 0 1 -1 1 0 1 -1 1 -1 
1 -1 1 -1 0 -1 2 -2 0 -1 2 -2 0 -1 2 -2 
0 -1 2 -2 0 -1 2 -2 0 -1 2 -2 1 -1 1 -1 
1 -1 1 0 1 -1 1 0 1 -1 1 0 1 1 1 0 
1 0 1 1 1 1 1 1 1 1 1 1 0 1 2 2 
1 1 0 2 2 2 0 1 2 2 0 1 2 2 1 1 
0 1 2 2 1 0 1 1 1 1 1 1 1 0 1 1 
1 0 1 -1 1 0 1 0 1 -1 1 -1 1 -1 1 -1 
1 -1 1 -1 0 -2 2 -2 1 -1 1 -1 0 -2 2 -2 
0 -1 2 -2 0 -1 2 -2 1 -1 1 -1 1 -1 1 -1 
1 -1 1 0 1 0 1 -1 1 1 1 0 1 0 1 1 
1 0 0 1 2 2 1 1 1 1 0 1 2 2 1 1 
0 2 2 2 0 1 2 2 0 1 2 2 1 1 0 1 
2 2 1 1 1 0 1 1 1 1 1 0 1 0 1 0 
1 0 1 0 1 -1 1 -1 1 -1 1 -1 1 -1 0 -1 
2 -2 0 -1 2 -2 0 -1 2 -2 1 -1 0 -2 2 -2 
0 -1 2 -2 1 -1 1 -1 1 -1 1 -1 1 -1 1 -1 
1 0 1 0 1 0 1 0 1 0 1 1 1 0 1 1 
1 1 1 1 0 1 2 2 0 1 2 2 1 1 0 2 
2 2 1 1 0 2 2 2 1 1 1 1 0 1 2 2 
1 1 1 0 1 1 1 0 1 1 1 0 1 0 1 -1 
1 0 1 -1 1 0 -1 0 2 -2 1 -1 1 -1 0 -1 
2 -2 1 -1 0 -2 2 -2 0 -1 2 -2 1 -1 0 -2 
2 -2 1 -1 0 -1 2 -2 1 -1 1 0 1 -1 1 -1 
1 0 1 0 1 0 1 0 1 0 1 1 1 1 1 1 
1 1 1 1 0 1 2 2 1 1 0 2 2 2 0 1 
2 2 0 1 1 1 0 1 2 2 1 1 0 1 2 2 
1 1 1 1 1 0 1 1 1 0 1 1 1 0 1 -1 
1 0 1 -1 1 0 1 -1 0 -1 2 -2 0 -1 2 -2 
1 -1 1 -1 0 -2 2 -2 0 -1 1 -1 0 -1 2 -2 
0 -1 2 -2 0 -1 2 -2 1 -1 1 -1 1 -1 1 0 
1 -1 1 0 1 0 1 0 1 0 1 1 1 1 1 0 
-1 0 2 2 1 1 5487 2151 300 MP stroke
1 1 0 1 2 2 0 1 1 1 1 1 0 2 2 2 
0 1 2 2 1 1 0 2 2 2 1 1 1 1 1 1 
1 1 1 0 1 1 1 0 1 0 1 0 1 0 1 0 
1 -1 1 -1 1 -1 1 -1 0 -1 2 -2 1 -1 0 -2 
2 -2 1 -1 0 -2 2 -2 0 -1 1 -1 0 -1 2 -2 
1 -1 0 -1 2 -2 1 -1 1 -1 1 -1 1 0 1 0 
1 -1 1 0 1 1 1 0 1 1 1 0 1 1 0 1 
2 2 0 1 2 2 0 1 2 2 0 1 1 1 1 1 
0 2 2 2 0 1 1 1 1 1 0 1 2 2 1 1 
1 1 1 1 1 1 1 1 1 0 1 0 1 0 1 0 
1 0 1 -1 1 -1 1 -1 1 -1 1 -1 0 -1 2 -2 
1 -1 0 -2 2 -2 0 -1 1 -1 0 -1 2 -2 0 -1 
1 -1 0 -1 2 -2 0 -1 2 -2 1 -1 1 -1 1 -1 
1 0 1 -1 1 0 1 0 1 0 1 0 1 1 1 0 
0 1 2 2 1 1 1 1 1 1 0 2 2 2 0 1 
1 1 0 1 2 2 0 1 1 1 1 1 0 2 2 2 
1 1 0 1 2 2 1 1 1 1 1 1 1 0 1 0 
1 0 1 0 1 0 1 0 1 -1 1 -1 1 -1 1 -1 
1 -1 0 -2 2 -2 0 -1 2 -2 0 -1 1 -1 0 -1 
2 -2 0 -2 2 -2 0 -1 2 -2 0 -1 2 -2 1 -1 
1 -1 1 0 1 -1 1 0 1 -1 1 0 1 1 1 0 
1 1 1 0 -1 0 2 2 1 1 1 1 0 1 2 2 
0 1 1 1 0 1 2 2 0 2 2 2 0 1 2 2 
0 2 2 2 1 1 1 1 0 1 2 2 1 0 1 1 
1 1 1 0 1 0 1 0 1 -1 1 0 1 -1 1 -1 
1 -1 0 -1 2 -2 1 -1 0 -2 2 -2 1 -1 0 -2 
2 -2 0 -2 2 -2 0 -1 1 -1 0 -1 2 -2 1 -1 
1 -1 1 -1 1 -1 1 -1 1 0 1 -1 1 0 1 0 
1 1 1 0 1 1 1 1 1 1 0 1 2 2 0 1 
2 2 1 1 0 2 2 2 0 2 2 2 0 1 1 1 
0 1 2 2 0 1 1 1 1 1 0 1 2 2 1 0 
1 1 1 1 1 0 1 0 1 0 1 0 1 0 1 -1 
1 -1 1 -1 0 -1 2 -2 0 -1 2 -2 0 -1 1 -1 
0 -1 2 -2 0 -2 2 -2 0 -1 1 -1 1 -1 0 -2 
2 -2 1 -1 0 -1 2 -2 1 -1 1 -1 1 0 1 -1 
1 0 1 0 1 0 1 1 1 0 1 1 1 1 0 1 
2 2 1 1 0 2 2 2 0 1 1 1 1 1 0 2 
2 2 0 2 2 2 5205 2136 300 MP stroke
0 1 1 1 0 1 2 2 1 1 0 1 2 2 1 0 
1 1 1 1 1 0 1 0 1 0 1 -1 1 0 1 -1 
1 -1 1 -1 1 -1 0 -2 2 -2 0 -1 2 -2 0 -1 
1 -1 0 -1 1 -1 0 -1 1 -1 0 -1 1 -1 0 -1 
2 -2 0 -1 1 -1 0 -1 2 -2 1 -1 1 -1 1 -1 
1 -1 1 0 1 -1 1 0 1 0 1 1 1 0 1 1 
1 1 0 1 2 2 1 1 0 1 2 2 0 2 2 2 
0 1 1 1 0 1 2 2 0 2 2 2 0 2 2 2 
1 1 0 1 2 2 1 1 1 1 1 0 1 1 1 0 
1 0 1 0 1 -1 1 -1 1 -1 1 0 -1 0 2 -2 
0 -1 2 -2 0 -1 1 -1 0 -1 2 -2 0 -1 1 -1 
0 -1 1 -1 0 -1 1 -1 0 -1 1 -1 0 -1 1 -1 
0 -1 2 -2 0 -1 1 -1 1 -1 1 -1 1 -1 1 -1 
1 -1 1 0 1 0 1 0 1 0 1 0 1 1 1 1 
1 1 0 1 2 2 0 1 2 2 0 1 2 2 0 2 
2 2 0 2 2 2 0 1 1 1 0 1 1 1 0 1 
1 1 0 1 2 2 1 1 1 1 1 1 1 1 1 1 
1 0 1 0 1 0 1 -1 1 0 1 -1 1 -1 1 -1 
1 -1 0 -2 2 -2 0 -1 2 -2 0 -2 2 -2 0 -1 
1 -1 0 -1 1 -1 0 -1 1 -1 0 -1 1 -1 0 -1 
1 -1 0 -1 2 -2 1 -1 1 -1 1 -1 1 -1 1 -1 
1 0 1 0 1 0 1 0 1 1 1 1 1 1 1 1 
0 1 2 2 0 1 1 1 0 1 2 2 0 1 1 1 
0 1 1 1 0 1 1 1 0 2 2 2 0 2 2 2 
1 1 0 2 2 2 1 1 1 1 1 1 1 0 1 1 
1 0 1 0 1 0 1 -1 1 0 1 -1 0 -1 2 -2 
1 -1 0 -1 2 -2 0 -2 2 -2 0 -2 2 -2 0 -2 
2 -2 0 -1 1 -1 0 -1 1 -1 0 -1 1 -1 0 -1 
2 -2 1 -1 1 -1 1 -1 1 -1 1 0 1 0 1 0 
1 0 1 0 1 1 1 1 1 1 1 1 0 1 2 2 
0 2 2 2 0 1 1 1 0 2 2 2 0 1 1 1 
0 1 1 1 0 1 1 1 0 2 2 2 0 1 2 2 
0 1 2 2 1 1 1 1 1 0 1 0 1 0 1 0 
1 0 1 -1 1 0 0 -1 2 -2 0 -1 2 -2 1 -1 
0 -2 2 -2 0 -1 1 -1 0 -1 1 -1 0 -2 2 -2 
0 -2 2 -2 0 -1 1 -1 0 -1 1 -1 0 -1 2 -2 
1 -1 1 -1 1 -1 1 0 1 -1 1 0 1 0 1 1 
1 0 1 1 1 1 4944 2153 300 MP stroke
0 1 2 2 0 1 2 2 0 1 1 1 0 1 1 1 
0 1 1 1 0 1 1 1 0 2 2 2 0 1 1 1 
0 1 1 1 0 2 2 2 0 1 1 1 1 1 1 1 
1 1 1 1 1 1 1 1 1 0 1 0 1 0 1 -1 
1 0 0 -1 2 -2 1 -1 1 -1 0 -2 2 -2 0 -1 
1 -1 0 -1 1 -1 0 -1 1 -1 0 -1 1 -1 0 -1 
1 -1 0 -1 1 -1 0 -1 1 -1 0 -2 2 -2 0 -1 
2 -2 0 -1 2 -2 1 -1 1 0 1 -1 1 0 1 0 
1 0 1 1 1 0 1 1 0 1 2 2 1 1 0 2 
2 2 1 1 0 2 1 1 0 1 1 1 0 1 1 1 
0 1 1 1 0 2 2 2 0 2 2 2 0 2 2 2 
0 1 2 2 1 0 1 1 1 1 1 0 1 0 1 0 
1 0 1 -1 1 0 0 -1 2 -2 0 -1 2 -2 1 -1 
0 -2 2 -2 0 -2 1 -1 0 -1 1 -1 1 -1 0 -2 
1 -1 0 -1 1 -1 0 -1 1 -1 0 -1 1 -1 0 -1 
1 -1 0 -1 1 -1 1 -1 1 -1 1 -1 1 -1 1 -1 
1 0 1 0 1 0 1 0 1 1 1 1 1 1 1 1 
0 1 2 2 0 1 1 1 0 1 1 1 0 1 1 1 
1 1 0 2 1 1 0 1 1 1 0 2 2 2 0 2 
1 1 0 1 1 1 1 1 0 2 2 2 0 1 2 2 
1 1 1 0 1 1 1 0 1 0 1 0 1 -1 1 0 
1 -1 1 -1 0 -2 2 -2 0 -1 2 -2 0 -1 1 -1 
0 -1 1 -1 0 -2 2 -2 0 -2 1 -1 0 -1 1 -1 
0 -1 1 -1 0 -1 1 -1 0 -1 1 -1 0 -1 1 -1 
0 -1 2 -2 1 -1 1 -1 1 -1 1 0 1 -1 1 0 
1 1 1 0 1 1 1 1 1 1 0 1 2 2 1 1 
0 2 2 2 0 2 1 1 0 1 1 1 0 2 2 2 
0 1 1 1 0 2 1 1 0 1 1 1 0 1 1 1 
0 1 1 1 0 1 2 2 1 1 1 1 1 1 1 1 
1 0 1 1 1 -1 1 0 1 -1 1 0 -1 0 2 -2 
1 -1 0 -1 2 -2 0 -1 1 -1 0 -1 1 -1 0 -1 
1 -1 0 -1 1 -1 0 -1 1 -1 0 -1 1 -1 0 -2 
1 -1 0 -1 1 -1 0 -2 2 -2 0 -1 1 -1 0 -1 
1 -1 0 -1 2 -2 1 -1 1 -1 1 0 1 -1 1 0 
1 0 1 0 1 1 1 1 1 1 0 1 2 2 1 1 
0 2 2 2 0 2 2 2 0 2 1 1 0 1 1 1 
0 2 1 1 1 1 0 2 1 1 0 1 1 1 0 1 
1 1 0 1 1 1 4711 2120 300 MP stroke
0 1 1 1 1 1 1 1 1 1 1 1 1 1 1 0 
1 0 1 0 1 -1 1 0 0 -1 2 -2 1 -1 1 -1 
0 -2 2 -2 0 -2 1 -1 0 -1 1 -1 0 -2 2 -2 
0 -1 1 -1 0 -2 1 -1 0 -1 1 -1 0 -1 1 -1 
0 -2 2 -2 0 -1 1 -1 0 -1 2 -2 1 -1 1 -1 
1 0 1 0 1 -1 1 1 1 0 1 1 1 1 1 1 
1 1 0 2 2 2 0 1 1 1 0 2 2 2 0 1 
1 1 0 2 1 1 0 1 1 1 0 1 1 1 0 2 
1 1 0 1 1 1 0 1 1 1 0 1 1 1 0 1 
1 1 0 1 2 2 1 1 1 1 1 1 1 0 1 0 
1 0 1 0 1 -1 1 -1 1 -1 0 -1 2 -2 0 -1 
1 -1 1 -1 0 -2 2 -2 0 -2 1 -1 0 -1 1 -1 
0 -2 1 -1 1 -1 0 -2 1 -1 0 -2 2 -2 0 -2 
1 -1 0 -1 2 -2 0 -1 2 -2 1 -1 1 -1 1 0 
1 0 1 0 1 0 1 1 1 1 1 1 1 1 0 1 
2 2 0 2 2 2 0 2 1 1 0 1 1 1 0 2 
2 2 0 2 1 1 0 1 1 1 0 2 1 1 0 1 
1 1 0 2 2 2 0 1 2 2 0 1 2 2 1 1 
1 0 1 0 1 0 1 0 1 0 1 -1 1 -1 0 -1 
2 -2 0 -1 2 -2 0 -2 1 -1 0 -1 1 -1 0 -1 
1 -1 0 -1 1 -1 0 -2 1 -1 0 -1 1 -1 0 -2 
1 -1 0 -1 1 -1 0 -1 1 -1 0 -1 1 -1 0 -2 
2 -2 0 -1 1 -1 1 -1 1 -1 1 -1 1 -1 1 0 
1 0 1 0 1 0 1 1 1 1 0 1 2 2 0 1 
1 1 0 1 1 1 0 1 2 2 0 2 1 1 0 1 
1 1 0 2 1 1 0 2 2 2 0 2 1 1 0 2 
2 2 0 2 1 1 0 1 1 1 1 1 0 1 2 2 
1 1 1 1 1 0 1 0 1 0 1 0 1 -1 1 -1 
1 -1 0 -1 2 -2 0 -1 1 -1 0 -1 1 -1 0 -1 
1 -1 0 -1 1 -1 0 -2 1 -1 0 -1 1 -1 0 -1 
1 -1 0 -2 1 -1 0 -1 1 -1 0 -2 1 -1 0 -2 
2 -2 0 -1 1 -1 0 -1 1 -1 0 -1 2 -2 1 -1 
1 -1 1 0 1 0 1 0 1 0 1 0 1 1 0 1 
2 2 1 1 0 2 2 2 0 2 1 1 1 1 0 2 
1 1 0 1 1 1 0 2 1 1 0 2 1 1 0 1 
1 1 0 1 1 1 0 1 1 1 0 2 1 1 0 1 
1 1 0 1 1 1 0 1 2 2 1 1 1 1 1 0 
1 1 1 0 1 0 4484 2109 300 MP stroke
1 -1 1 -1 1 -1 0 -1 2 -2 0 -1 2 -2 0 -1 
1 -1 0 -2 1 -1 0 -1 1 -1 0 -2 1 -1 0 -2 
2 -2 0 -2 1 -1 0 -1 1 -1 0 -2 1 -1 0 -1 
1 -1 0 -2 2 -2 0 -1 1 -1 0 -1 2 -2 1 -1 
1 -1 1 0 1 0 1 0 1 0 1 1 0 1 2 2 
1 1 0 1 1 1 0 1 1 1 0 1 1 1 0 1 
1 1 0 2 1 1 0 1 1 1 0 1 1 1 0 2 
1 1 0 1 1 1 0 2 1 1 0 2 1 1 0 1 
1 1 0 1 1 1 0 1 1 1 0 1 1 1 0 1 
2 2 1 1 1 0 1 1 1 0 1 0 1 0 1 -1 
1 -1 1 -1 1 -1 0 -2 2 -2 0 -2 2 -2 0 -2 
1 -1 0 -1 1 -1 0 -2 1 -1 0 -2 1 -1 0 -1 
1 -1 0 -2 1 -1 0 -1 1 -1 0 -1 1 -1 0 -2 
1 -1 0 -1 1 -1 0 -1 1 -1 0 -1 1 -1 1 -1 
1 -1 1 -1 1 -1 1 0 1 0 1 0 1 1 1 1 
1 1 0 1 2 2 1 1 0 2 1 1 0 1 1 1 
0 1 1 1 0 2 1 1 0 2 1 1 0 2 2 2 
0 2 1 1 0 2 1 1 0 1 1 1 0 2 1 1 
0 1 1 1 1 1 0 2 2 2 1 1 1 1 1 1 
1 0 1 0 1 0 1 -1 1 0 -1 0 2 -2 1 -1 
1 -1 0 -2 2 -2 0 -2 1 -1 0 -1 1 -1 0 -2 
1 -1 0 -1 1 -1 0 -2 1 -1 0 -1 1 -1 0 -2 
1 -1 0 -2 1 -1 0 -2 2 -2 0 -2 1 -1 0 -1 
1 -1 0 -1 1 -1 0 -1 2 -2 1 -1 1 -1 1 0 
1 0 1 0 1 0 1 1 1 1 0 1 2 2 0 1 
1 1 0 1 1 1 0 1 1 1 0 1 1 1 0 1 
1 1 0 2 1 1 0 2 1 1 0 2 1 1 0 2 
2 2 0 2 1 1 0 2 1 1 0 1 1 1 0 2 
2 2 0 1 2 2 1 1 1 1 1 1 1 0 1 0 
1 -1 1 0 0 -1 2 -2 1 -1 0 -2 2 -2 0 -1 
1 -1 0 -1 1 -1 0 -2 1 -1 0 -2 1 -1 0 -2 
1 -1 0 -1 1 -1 0 -2 1 -1 0 -1 1 -1 0 -2 
1 -1 0 -2 1 -1 0 -2 2 -2 0 -1 1 -1 0 -2 
2 -2 1 -1 1 -1 1 -1 1 0 1 0 1 0 1 1 
1 1 1 1 0 1 2 2 0 1 1 1 0 1 1 1 
0 1 1 1 0 2 1 1 0 1 1 1 0 2 1 1 
0 2 1 1 0 2 1 1 0 1 1 1 0 2 1 1 
0 1 1 1 0 2 4277 2122 300 MP stroke
1 1 0 1 1 1 0 1 1 1 0 2 2 2 1 1 
1 1 1 1 1 0 1 0 1 0 1 -1 1 0 -1 0 
2 -2 0 -1 2 -2 0 -1 1 -1 0 -1 1 -1 0 -1 
1 -1 0 -2 1 -1 0 -1 1 -1 0 -2 1 -1 0 -2 
1 -1 0 -2 1 -1 0 -1 1 -1 0 -2 1 -1 0 -2 
1 -1 0 -2 1 -1 0 -1 1 -1 0 -1 1 -1 0 -2 
2 -2 1 -1 1 -1 1 -1 1 -1 1 0 1 0 1 0 
1 1 1 1 1 1 0 2 2 2 0 1 1 1 0 1 
1 1 0 2 1 1 0 1 1 1 0 2 1 1 0 1 
1 1 0 2 1 1 0 2 1 1 0 2 1 1 0 2 
1 1 0 1 1 1 0 2 1 1 0 1 1 1 0 1 
1 1 0 1 1 1 1 1 1 1 1 1 1 1 1 0 
1 0 1 0 1 -1 1 -1 0 -1 2 -2 0 -1 1 -1 
0 -1 1 -1 0 -1 1 -1 0 -2 1 -1 0 -1 1 -1 
0 -2 1 -1 0 -2 1 -1 0 -2 1 -1 0 -2 1 -1 
0 -2 1 -1 0 -2 1 -1 0 -1 1 -1 0 -2 1 -1 
0 -1 1 -1 0 -1 1 -1 0 -2 2 -2 1 -1 1 -1 
1 -1 1 0 1 -1 1 1 1 0 1 1 0 1 2 2 
0 1 1 1 0 1 1 1 1 1 0 2 1 1 0 2 
1 1 0 1 1 1 0 2 1 1 0 2 1 1 0 3 
2 2 0 2 1 1 0 2 1 1 0 2 1 1 0 1 
1 1 0 2 1 1 0 1 2 2 1 1 1 1 1 1 
1 1 1 0 1 0 1 -1 1 -1 0 -1 2 -2 1 -1 
0 -2 2 -2 0 -2 1 -1 0 -2 1 -1 0 -2 1 -1 
0 -2 1 -1 0 -1 1 -1 0 -2 1 -1 0 -2 1 -1 
0 -2 1 -1 0 -2 1 -1 0 -2 1 -1 0 -1 1 -1 
0 -1 1 -1 0 -2 1 -1 0 -1 1 -1 0 -1 2 -2 
1 0 1 -1 1 0 1 0 1 0 1 1 1 1 0 1 
2 2 0 1 1 1 0 1 1 1 0 2 1 1 0 2 
2 2 0 2 1 1 0 2 1 1 0 2 1 1 0 2 
1 1 0 2 1 1 0 2 1 1 0 1 1 1 0 2 
1 1 0 2 1 1 0 1 1 1 0 1 1 1 1 1 
1 1 1 1 1 1 1 0 1 0 1 0 1 -1 1 -1 
1 -1 0 -2 2 -2 0 -2 2 -2 0 -2 1 -1 0 -2 
1 -1 0 -2 1 -1 0 -2 1 -1 0 -2 1 -1 0 -2 
1 -1 0 -2 1 -1 0 -2 1 -1 0 -2 1 -1 0 -2 
1 -1 0 -1 1 -1 0 -2 2 -2 0 -2 2 -2 1 -1 
1 -1 1 0 1 0 4076 2167 300 MP stroke
1 0 1 0 0 1 2 2 0 1 2 2 0 1 1 1 
0 1 1 1 0 2 1 1 0 2 1 1 0 2 1 1 
0 1 1 1 0 2 1 1 0 2 1 1 0 2 1 1 
0 2 1 1 0 3 2 2 0 2 1 1 0 2 1 1 
0 1 1 1 0 1 1 1 1 1 1 1 1 1 1 1 
1 0 1 -1 1 0 1 -1 0 -1 2 -2 0 -1 1 -1 
0 -1 1 -1 0 -1 1 -1 0 -2 1 -1 0 -1 1 -1 
0 -2 1 -1 0 -2 1 -1 0 -3 1 -1 0 -2 1 -1 
0 -2 1 -1 0 -2 1 -1 0 -2 1 -1 0 -2 1 -1 
0 -2 1 -1 0 -2 2 -2 0 -2 1 -1 1 -1 1 -1 
1 -1 1 -1 1 0 1 0 1 0 1 1 1 1 0 1 
2 2 0 2 2 2 0 1 1 1 0 2 1 1 0 2 
1 1 0 2 1 1 0 2 1 1 0 2 1 1 0 2 
1 1 0 2 1 1 0 2 1 1 0 2 1 1 0 2 
1 1 0 2 1 1 1 1 0 2 1 1 0 1 2 2 
1 1 1 1 1 0 1 0 1 0 1 -1 0 -1 2 -2 
0 -1 2 -2 0 -2 1 -1 0 -1 1 -1 0 -2 1 -1 
0 -2 1 -1 0 -2 1 -1 0 -2 1 -1 0 -2 1 -1 
0 -3 1 -1 0 -2 1 -1 0 -2 1 -1 0 -2 1 -1 
0 -2 1 -1 0 -2 1 -1 0 -1 1 -1 0 -1 1 -1 
0 -2 2 -2 1 -1 1 -1 1 -1 1 0 1 0 1 1 
1 1 0 1 2 2 0 1 1 1 0 1 1 1 0 2 
1 1 0 1 1 1 0 2 1 1 0 2 1 1 0 2 
1 1 0 2 1 1 0 3 1 1 0 2 1 1 0 1 
1 1 0 2 1 1 0 2 1 1 0 2 1 1 0 2 
1 1 0 1 1 1 1 1 0 2 2 2 1 1 1 0 
1 0 1 0 1 0 0 -1 2 -2 0 -1 2 -2 0 -2 
1 -1 0 -1 1 -1 0 -2 1 -1 0 -2 1 -1 0 -2 
1 -1 0 -2 1 -1 0 -3 1 -1 0 -1 1 -1 0 -3 
1 -1 0 -2 1 -1 0 -2 1 -1 0 -2 1 -1 0 -2 
1 -1 0 -2 1 -1 0 -1 1 -1 0 -1 1 -1 0 -2 
2 -2 1 -1 1 0 1 -1 1 0 1 0 1 1 0 1 
2 2 1 1 0 2 1 1 0 1 1 1 0 2 1 1 
0 2 1 1 0 2 1 1 0 1 1 1 0 3 1 1 
0 2 1 1 0 3 1 1 0 2 1 1 0 2 1 1 
0 2 1 1 0 2 1 1 0 1 1 1 0 2 1 1 
0 2 2 2 1 1 1 1 1 1 1 1 1 0 1 -1 
1 0 0 -1 2 -2 3881 2124 300 MP stroke
0 -1 1 -1 0 -1 1 -1 0 -2 1 -1 0 -1 1 -1 
0 -2 1 -1 0 -2 1 -1 0 -2 1 -1 0 -3 1 -1 
0 -2 1 -1 0 -3 1 -1 0 -1 1 -1 0 -3 1 -1 
0 -2 1 -1 0 -2 1 -1 0 -2 1 -1 0 -2 1 -1 
0 -1 1 -1 0 -2 2 -2 1 -1 1 -1 1 -1 1 0 
1 0 1 1 1 1 0 1 2 2 0 1 1 1 0 1 
1 1 0 1 1 1 0 2 1 1 0 2 1 1 0 3 
1 1 0 2 1 1 0 2 1 1 0 2 1 1 0 3 
1 1 0 2 1 1 0 3 1 1 0 2 1 1 0 1 
1 1 0 2 1 1 0 2 2 2 0 2 2 2 1 1 
1 0 1 0 1 0 1 0 0 -1 2 -2 1 -1 0 -1 
1 -1 0 -1 1 -1 0 -2 1 -1 0 -2 1 -1 0 -2 
1 -1 0 -2 1 -1 0 -2 1 -1 0 -3 1 -1 0 -3 
1 -1 0 -2 1 -1 0 -3 1 -1 0 -2 1 -1 0 -2 
1 -1 0 -2 1 -1 0 -2 1 -1 0 -2 1 -1 0 -1 
1 -1 0 -1 1 -1 0 -1 2 -2 1 0 1 -1 1 0 
1 1 1 0 1 1 0 2 2 2 0 1 1 1 0 2 
1 1 0 1 1 1 0 2 1 1 0 2 1 1 0 3 
1 1 0 3 1 1 0 2 1 1 0 3 1 1 0 1 
1 1 0 3 1 1 0 2 1 1 0 3 1 1 0 2 
1 1 0 2 2 2 0 2 2 2 1 1 1 1 1 1 
1 0 1 -1 1 0 -1 0 2 -2 1 -1 0 -2 2 -2 
0 -2 1 -1 0 -1 1 -1 0 -3 1 -1 0 -2 1 -1 
0 -3 1 -1 0 -2 1 -1 0 -2 1 -1 0 -3 1 -1 
0 -3 1 -1 0 -2 1 -1 0 -3 1 -1 0 -2 1 -1 
0 -1 1 -1 0 -2 1 -1 0 -2 1 -1 0 -1 1 -1 
0 -2 2 -2 1 0 1 -1 1 0 1 0 1 0 -1 0 
2 2 1 1 1 1 0 2 1 1 0 1 1 1 0 2 
1 1 0 2 1 1 0 2 1 1 0 2 1 1 0 3 
1 1 0 2 1 1 0 3 1 1 0 3 1 1 0 3 
1 1 0 1 1 1 0 3 1 1 0 2 1 1 0 2 
1 1 0 2 1 1 0 1 1 1 0 1 2 2 1 1 
1 1 1 0 1 0 1 0 0 -1 2 -2 1 -1 0 -2 
1 -1 0 -1 1 -1 0 -2 1 -1 0 -1 1 -1 0 -3 
1 -1 0 -2 1 -1 0 -3 1 -1 0 -3 1 -1 0 -3 
1 -1 0 -1 1 -1 0 -3 1 -1 0 -3 1 -1 0 -3 
1 -1 0 -2 1 -1 0 -2 1 -1 0 -1 1 -1 0 -2 
1 -1 0 -1 1 -1 3699 2183 300 MP stroke
0 -1 1 -1 1 -1 1 -1 1 0 1 0 1 0 1 1 
0 1 2 2 0 2 2 2 0 2 1 1 0 2 1 1 
0 2 1 1 0 3 1 1 0 2 1 1 0 2 1 1 
0 3 1 1 0 3 1 1 0 3 1 1 0 3 1 1 
0 2 1 1 0 2 1 1 0 2 1 1 0 2 1 1 
0 2 1 1 0 1 1 1 0 1 1 1 1 1 1 1 
1 1 1 0 1 -1 1 0 -1 0 2 -2 1 -1 0 -1 
1 -1 0 -1 1 -1 0 -2 1 -1 0 -2 1 -1 0 -2 
1 -1 0 -2 1 -1 0 -3 1 -1 0 -3 1 -1 0 -3 
1 -1 0 -3 1 -1 0 -3 1 -1 0 -1 1 -1 0 -3 
1 -1 0 -3 1 -1 0 -2 1 -1 0 -2 1 -1 0 -2 
1 -1 0 -1 1 -1 0 -1 1 -1 0 -1 2 -2 1 0 
1 -1 1 1 1 0 0 1 2 2 0 1 1 1 0 1 
1 1 0 2 1 1 0 1 1 1 0 2 1 1 0 3 
1 1 0 3 1 1 0 3 1 1 0 3 1 1 0 2 
1 1 0 3 1 1 0 3 1 1 0 2 1 1 0 3 
1 1 0 3 1 1 0 2 1 1 0 1 1 1 0 1 
1 1 0 2 1 1 0 1 2 2 1 0 1 1 1 0 
1 -1 1 -1 1 -1 0 -2 2 -2 0 -1 1 -1 0 -2 
1 -1 0 -3 1 -1 0 -2 1 -1 0 -3 1 -1 0 -2 
1 -1 0 -3 1 -1 0 -3 1 -1 0 -3 1 -1 0 -3 
1 -1 0 -3 1 -1 0 -3 1 -1 0 -1 1 -1 0 -3 
1 -1 0 -2 1 -1 0 -1 1 -1 0 -2 1 -1 1 -1 
1 -1 1 -1 1 -1 1 0 1 0 1 1 1 1 0 2 
2 2 0 2 1 1 0 2 1 1 0 2 1 1 0 2 
1 1 0 3 1 1 0 3 1 1 0 3 1 1 0 3 
1 1 0 3 1 1 0 3 1 1 0 2 1 1 0 3 
1 1 0 3 1 1 0 2 1 1 0 2 1 1 0 3 
2 2 0 2 2 2 1 1 1 1 1 0 1 0 1 -1 
0 -1 2 -2 0 -1 1 -1 0 -1 1 -1 0 -2 1 -1 
0 -2 1 -1 0 -2 1 -1 0 -3 1 -1 0 -3 1 -1 
0 -3 1 -1 0 -3 1 -1 0 -2 1 -1 0 -3 1 -1 
0 -4 1 -1 0 -2 1 -1 0 -3 1 -1 0 -3 1 -1 
0 -1 1 -1 0 -2 1 -1 0 -2 1 -1 0 -1 1 -1 
0 -1 1 -1 1 -1 1 0 1 -1 1 0 1 1 0 1 
2 2 0 1 1 1 0 1 1 1 0 2 1 1 0 2 
1 1 0 3 1 1 0 2 1 1 0 3 1 1 0 3 
1 1 0 3 1 1 3518 2156 300 MP stroke
0 3 1 1 0 3 1 2 0 3 1 1 0 3 1 1 
0 2 1 1 0 3 1 1 0 2 1 1 0 2 1 1 
0 2 1 1 0 2 2 2 1 1 1 1 1 1 1 0 
1 -1 1 0 -1 0 2 -2 1 -1 0 -2 1 -1 0 -2 
1 -1 0 -2 1 -1 0 -2 1 -1 0 -2 1 -1 0 -3 
1 -1 0 -3 1 -1 0 -3 1 -1 0 -3 1 -2 0 -3 
1 -1 0 -2 1 -1 0 -3 1 -1 0 -3 1 -1 0 -3 
1 -1 0 -2 1 -1 0 -3 1 -1 0 -1 1 -1 0 -1 
1 -1 0 -2 2 -2 1 -1 1 0 1 0 1 0 1 1 
0 1 2 2 0 2 1 1 0 1 1 1 0 2 1 1 
0 2 1 1 0 3 1 1 0 3 1 1 0 3 1 1 
0 4 1 1 0 2 1 1 0 4 1 1 0 3 1 1 
0 4 1 1 0 3 1 1 0 3 1 1 0 2 1 1 
0 2 1 1 0 2 1 1 0 2 1 1 0 2 2 2 
1 1 1 1 1 0 1 0 1 -1 1 -1 0 -1 1 -1 
1 -1 0 -2 1 -1 0 -2 1 -1 0 -2 1 -1 0 -3 
1 -1 0 -3 1 -1 0 -2 1 -1 0 -3 1 -1 0 -3 
1 -2 0 -3 1 -1 0 -3 1 -1 0 -4 1 -1 0 -2 
1 -1 0 -3 1 -1 0 -3 1 -1 0 -2 1 -1 0 -2 
1 -1 0 -2 1 -1 0 -2 2 -2 1 -1 1 -1 1 0 
1 0 1 1 0 1 2 2 0 1 1 1 0 1 1 1 
0 3 1 1 0 2 1 1 0 2 1 1 0 3 1 1 
0 3 1 1 0 4 1 1 0 3 1 1 0 4 1 1 
0 2 1 2 0 3 1 1 0 4 1 1 0 3 1 1 
0 3 1 1 0 3 1 1 0 2 1 1 0 1 1 1 
0 2 1 1 0 2 2 2 1 1 1 1 1 0 1 -1 
1 -1 0 -1 2 -2 0 -1 1 -1 0 -2 1 -1 0 -2 
1 -1 0 -2 1 -1 0 -3 1 -1 0 -3 1 -1 0 -4 
1 -1 0 -2 1 -1 0 -4 1 -1 0 -3 1 -1 0 -4 
1 -1 0 -3 1 -1 0 -3 1 -2 0 -3 1 -1 0 -1 
1 -1 0 -3 1 -1 0 -2 1 -1 0 -1 1 -1 0 -2 
2 -2 1 -1 1 -1 1 0 1 1 1 1 0 1 2 2 
0 1 1 1 0 2 1 1 0 3 1 1 0 3 1 1 
0 3 1 1 0 2 1 1 0 3 1 2 0 3 1 1 
0 4 1 1 0 4 1 1 0 4 1 1 0 3 1 2 
0 2 1 1 0 3 1 1 0 3 1 1 0 3 1 1 
0 3 1 1 0 2 1 1 1 1 0 2 1 1 1 1 
1 1 1 0 1 0 3339 2100 300 MP stroke
1 0 1 -1 0 -2 2 -2 0 -2 1 -1 0 -2 1 -1 
0 -2 1 -1 0 -3 1 -1 0 -3 1 -1 0 -3 1 -1 
0 -4 1 -1 0 -3 1 -1 0 -4 1 -1 0 -3 1 -1 
0 -3 1 -1 0 -4 1 -1 0 -3 1 -1 0 -3 1 -1 
0 -3 1 -1 0 -1 1 -1 0 -2 1 -1 0 -2 1 -1 
0 -1 1 -1 1 -1 1 -1 1 0 1 0 1 1 0 1 
2 2 0 1 1 1 0 2 1 1 0 2 1 1 0 2 
1 1 0 3 1 2 0 3 1 1 0 3 1 2 0 3 
1 1 0 3 1 1 0 4 1 1 0 4 1 1 0 4 
1 1 0 4 1 1 0 4 1 1 0 2 1 1 0 3 
1 1 0 3 1 1 0 2 1 1 0 2 1 1 0 2 
1 1 1 1 1 1 1 1 1 0 1 0 0 -1 2 -2 
1 -1 0 -2 1 -1 0 -2 1 -1 0 -2 1 -1 0 -3 
1 -1 0 -3 1 -1 0 -2 1 -1 0 -4 1 -1 0 -3 
1 -2 0 -3 1 -2 0 -3 1 -1 0 -4 1 -1 0 -3 
1 -1 0 -3 1 -1 0 -4 1 -1 0 -3 1 -1 0 -2 
1 -1 0 -2 1 -1 0 -2 1 -1 0 -1 1 -1 0 -1 
1 -1 1 -1 1 -1 1 0 1 1 1 1 1 1 0 2 
1 1 0 1 1 1 0 3 1 1 0 2 1 1 0 2 
1 1 0 4 1 1 0 3 1 1 0 4 1 1 0 4 
1 1 0 4 1 2 0 2 1 2 0 4 1 1 0 4 
1 1 0 4 1 1 0 4 1 1 0 3 1 1 0 2 
1 1 0 3 1 1 0 2 1 1 0 2 1 1 0 2 
2 2 1 1 1 0 1 0 1 0 0 -1 2 -2 0 -2 
1 -1 0 -1 1 -1 0 -2 1 -1 0 -3 1 -1 0 -3 
1 -1 0 -3 1 -1 0 -4 1 -1 0 -2 1 -2 0 -3 
1 -2 0 -3 1 -2 0 -3 1 -2 0 -3 1 -2 0 -3 
1 -1 0 -3 1 -1 0 -3 1 -1 0 -3 1 -1 0 -3 
1 -1 0 -2 1 -1 0 -1 1 -1 0 -2 1 -1 1 -1 
1 -1 1 0 1 0 1 1 0 1 2 2 0 1 1 1 
0 2 1 1 0 3 1 1 0 3 1 1 0 3 1 1 
0 3 1 1 0 4 1 1 0 4 1 1 0 4 1 2 
0 4 1 1 0 4 1 2 0 2 1 2 0 4 1 1 
0 4 1 1 0 4 1 1 0 3 1 1 0 3 1 1 
0 3 1 1 0 1 1 1 0 2 1 1 0 2 2 2 
1 0 1 1 1 -1 1 0 0 -2 2 -2 0 -2 1 -1 
0 -2 1 -1 0 -2 1 -1 0 -3 1 -1 0 -3 1 -1 
0 -3 1 -2 0 -3 3166 2102 300 MP stroke
1 -2 0 -3 1 -2 0 -2 1 -2 0 -4 1 -1 0 -4 
1 -1 0 -4 1 -1 0 -4 1 -1 0 -3 1 -2 0 -3 
1 -1 0 -2 1 -1 0 -2 1 -1 0 -2 1 -1 0 -2 
1 -1 0 -1 1 -1 1 -1 1 -1 1 0 1 1 0 1 
2 2 0 1 1 1 0 1 1 1 0 3 1 1 0 3 
1 1 0 3 1 1 0 3 1 2 0 3 1 2 0 4 
1 1 0 3 1 1 0 4 1 2 0 4 1 2 0 4 
1 1 0 4 1 2 0 4 1 1 0 3 1 1 0 4 
1 1 0 3 1 1 0 3 1 1 0 3 1 1 0 2 
1 1 0 1 1 1 0 1 1 1 1 1 1 1 1 0 
1 -1 1 -1 0 -1 1 -1 0 -1 1 -1 0 -2 1 -1 
0 -2 1 -1 0 -3 1 -1 0 -4 1 -1 0 -2 1 -1 
0 -4 1 -1 0 -4 1 -2 0 -4 1 -1 0 -4 1 -1 
0 -4 1 -2 0 -2 1 -2 0 -4 1 -1 0 -4 1 -1 
0 -3 1 -2 0 -3 1 -1 0 -3 1 -1 0 -1 1 -1 
0 -2 1 -1 0 -2 2 -2 1 -1 1 -1 1 1 1 0 
-1 0 2 2 0 1 1 1 0 2 1 1 0 2 1 1 
0 3 1 1 0 2 1 1 0 3 1 2 0 3 1 2 
0 4 1 1 0 4 1 2 0 4 1 2 0 3 1 1 
0 5 1 1 0 4 1 2 0 4 1 2 0 4 1 1 
0 4 1 1 0 3 1 1 0 3 1 1 0 3 1 1 
0 3 1 1 0 2 1 1 0 1 1 1 1 1 1 1 
1 1 1 0 0 -1 2 -2 0 -2 2 -2 0 -3 1 -1 
0 -3 1 -1 0 -3 1 -1 0 -3 1 -2 0 -3 1 -2 
0 -2 1 -2 0 -4 1 -1 0 -4 1 -2 0 -4 1 -1 
0 -4 1 -2 0 -4 1 -1 0 -3 1 -1 0 -4 1 -1 
0 -4 1 -1 0 -3 1 -1 0 -3 1 -1 0 -3 2 -2 
0 -2 1 -1 1 -1 1 -1 1 0 1 0 -1 0 2 2 
1 1 0 2 1 1 0 2 1 1 0 2 1 1 0 3 
1 2 0 3 1 1 0 3 1 1 0 4 1 2 0 4 
1 1 0 5 1 1 0 5 1 1 0 5 1 1 0 4 
1 1 0 5 1 1 0 5 1 1 0 4 1 2 0 4 
1 1 0 4 1 1 0 2 1 1 0 3 1 1 0 2 
1 1 0 2 1 1 0 2 2 2 1 0 1 0 1 0 
0 -1 2 -2 0 -2 1 -1 0 -2 1 -1 0 -2 1 -1 
0 -3 1 -1 0 -4 1 -1 0 -4 1 -1 0 -4 1 -1 
0 -5 1 -1 0 -3 1 -1 0 -5 1 -1 0 -5 1 -1 
0 -4 1 -2 0 -4 2997 2100 300 MP stroke
1 -2 0 -4 1 -1 0 -2 1 -2 0 -3 1 -1 0 -4 
1 -1 0 -2 1 -1 0 -3 1 -1 0 -2 2 -2 1 -1 
1 -1 1 1 1 0 0 2 2 2 0 2 1 1 0 2 
1 1 0 3 1 1 0 3 1 2 0 3 1 2 0 4 
1 1 0 3 1 2 0 4 1 2 0 4 1 2 0 5 
1 1 0 5 1 2 0 4 1 2 0 5 1 1 0 3 
1 2 0 4 1 1 0 4 1 2 0 3 1 1 0 4 
1 1 0 3 1 1 0 1 1 1 0 2 1 1 0 1 
2 2 1 0 1 0 0 -1 2 -2 0 -1 1 -1 0 -2 
1 -1 0 -3 1 -1 0 -3 1 -1 0 -2 1 -1 0 -4 
1 -1 0 -4 1 -2 0 -4 1 -2 0 -4 1 -2 0 -4 
1 -2 0 -4 1 -2 0 -3 1 -1 0 -5 1 -1 0 -5 
1 -1 0 -4 1 -2 0 -3 1 -2 0 -3 1 -1 0 -2 
1 -1 0 -3 1 -1 0 -2 1 -1 0 -2 1 -1 1 -1 
1 -1 1 0 1 0 0 1 2 2 0 2 1 1 0 2 
1 1 0 2 1 1 0 3 1 2 0 3 1 2 0 4 
1 1 0 4 1 2 0 4 1 2 0 5 1 1 0 4 
1 1 0 5 1 2 0 5 1 2 0 5 1 1 0 5 
1 2 0 4 1 2 0 2 1 2 0 4 1 1 0 4 
1 1 0 3 1 1 0 3 1 1 0 2 1 1 0 1 
1 1 1 1 1 1 1 0 1 0 -1 0 2 -2 0 -1 
1 -1 0 -1 1 -1 0 -3 1 -1 0 -3 1 -1 0 -3 
1 -1 0 -4 1 -1 0 -5 1 -1 0 -3 1 -1 0 -5 
1 -2 0 -4 1 -2 0 -5 1 -1 0 -5 1 -2 0 -4 
1 -2 0 -3 1 -2 0 -4 1 -1 0 -5 1 -1 0 -4 
1 -1 0 -4 1 -1 0 -3 1 -1 0 -2 1 -1 0 -2 
1 -1 0 -1 1 -1 1 -1 1 -1 1 0 1 1 0 1 
2 2 0 2 1 1 0 3 1 1 0 3 1 2 0 3 
1 2 0 2 1 2 0 4 1 1 0 5 1 2 0 5 
1 1 0 5 1 2 0 5 1 2 0 3 1 2 0 5 
1 2 0 5 1 2 0 4 1 2 0 5 1 1 0 4 
1 2 0 3 1 1 0 3 1 2 0 3 1 1 0 2 
1 1 0 2 1 1 0 1 1 1 1 1 1 0 1 0 
0 -1 2 -2 0 -1 1 -1 0 -3 1 -1 0 -2 1 -1 
0 -3 1 -1 0 -4 1 -1 0 -4 1 -2 0 -4 1 -2 
0 -5 1 -1 0 -3 1 -2 0 -5 1 -2 0 -5 1 -1 
0 -6 1 -1 0 -5 1 -2 0 -5 1 -1 0 -3 1 -2 
0 -4 1 -1 0 -4 2830 2092 300 MP stroke
1 -2 0 -3 1 -1 0 -3 1 -1 0 -3 1 -1 0 -2 
2 -2 1 -1 1 -1 1 1 0 1 2 2 0 1 1 1 
0 2 1 1 0 3 1 2 0 3 1 1 0 4 1 2 
0 4 1 2 0 3 1 1 0 5 1 2 0 5 1 2 
0 5 1 2 0 5 1 2 0 5 1 2 0 4 1 1 
0 6 1 1 0 5 1 2 0 4 1 2 0 4 1 2 
0 4 1 1 0 3 1 1 0 2 1 1 0 3 1 1 
0 2 2 2 1 1 1 0 1 -1 1 -1 0 -2 1 -1 
0 -2 1 -1 0 -3 1 -1 0 -3 1 -1 0 -3 1 -1 
0 -4 1 -2 0 -4 1 -2 0 -5 1 -1 0 -5 1 -2 
0 -5 1 -2 0 -4 1 -1 0 -6 1 -1 0 -6 1 -1 
0 -6 1 -1 0 -5 1 -2 0 -5 1 -1 0 -4 1 -2 
0 -2 1 -2 0 -3 1 -1 0 -4 1 -1 0 -2 1 -1 
0 -2 2 -2 1 -1 1 0 1 1 1 1 0 2 1 1 
0 2 1 1 0 2 1 1 0 3 1 1 0 4 1 1 
0 5 1 1 0 5 1 1 0 5 1 2 0 4 1 1 
0 6 1 1 0 6 1 2 0 5 1 2 0 6 1 2 
0 5 1 2 0 5 1 2 0 3 1 2 0 4 1 2 
0 4 1 1 0 4 1 2 0 3 1 1 0 3 1 1 
0 1 1 1 0 1 1 1 1 1 1 1 1 -1 0 -1 
2 -2 0 -1 1 -1 0 -3 1 -1 0 -3 1 -1 0 -4 
1 -2 0 -4 1 -1 0 -3 1 -2 0 -5 1 -2 0 -5 
1 -2 0 -5 1 -2 0 -5 1 -2 0 -6 1 -2 0 -5 
1 -2 0 -4 1 -2 0 -5 1 -2 0 -5 1 -2 0 -5 
1 -1 0 -5 1 -1 0 -4 1 -1 0 -3 1 -1 0 -3 
1 -1 0 -2 1 -1 0 -2 1 -1 1 -1 1 -1 1 0 
0 1 2 2 0 2 1 1 0 2 1 1 0 3 1 2 
0 2 1 1 0 4 1 2 0 4 1 2 0 5 1 2 
0 5 1 2 0 5 1 2 0 6 1 2 0 3 1 2 
0 6 1 2 0 6 1 1 0 6 1 2 0 5 1 2 
0 5 1 1 0 3 1 2 0 4 1 1 0 4 1 1 
0 4 1 1 0 2 1 1 0 2 2 2 1 1 1 0 
0 -1 2 -2 0 -2 1 -1 0 -2 1 -1 0 -3 1 -1 
0 -4 1 -1 0 -4 1 -2 0 -4 1 -2 0 -5 1 -2 
0 -5 1 -2 0 -4 1 -2 0 -6 1 -2 0 -6 1 -2 
0 -6 1 -2 0 -6 1 -2 0 -6 1 -2 0 -3 1 -2 
0 -6 1 -1 0 -5 1 -2 0 -5 1 -1 0 -4 1 -2 
0 -3 1 -1 0 -2 2663 2111 300 MP stroke
1 -1 0 -2 1 -1 0 -2 1 -1 1 -1 1 -1 1 1 
0 1 2 2 0 2 1 1 0 3 1 1 0 3 1 2 
0 4 1 1 0 5 1 1 0 3 1 2 0 5 1 2 
0 6 1 1 0 6 1 2 0 6 1 2 0 6 1 2 
0 4 1 2 0 5 1 2 0 6 1 2 0 5 1 2 
0 4 1 2 0 5 1 1 0 3 1 1 0 4 1 1 
0 3 1 1 0 2 1 1 0 1 1 1 1 1 1 0 
1 -1 1 -1 0 -2 1 -1 0 -2 1 -1 0 -3 1 -1 
0 -4 1 -2 0 -3 1 -1 0 -5 1 -2 0 -5 1 -2 
0 -5 1 -2 0 -6 1 -2 0 -7 1 -2 0 -4 1 -2 
0 -7 1 -2 0 -6 1 -2 0 -7 1 -2 0 -6 1 -2 
0 -6 1 -2 0 -4 1 -2 0 -5 1 -1 0 -5 1 -2 
0 -4 1 -1 0 -4 1 -1 0 -3 1 -1 0 -3 2 -2 
1 -1 1 0 1 0 -1 0 2 2 0 2 1 1 0 1 
1 1 0 3 1 1 0 4 1 1 0 5 1 1 0 5 
1 1 0 6 1 1 0 4 1 2 0 5 1 2 0 6 
1 2 0 6 1 2 0 6 1 2 0 6 1 2 0 4 
1 2 0 5 1 2 0 5 1 2 0 5 1 1 0 5 
1 1 0 4 1 1 0 3 1 1 0 2 1 1 0 2 
2 2 1 0 1 0 -1 0 2 -2 0 -1 1 -1 0 -2 
1 -1 0 -3 1 -1 0 -4 1 -2 0 -4 1 -2 0 -5 
1 -1 0 -4 1 -2 0 -6 1 -2 0 -6 1 -3 0 -6 
1 -2 0 -7 1 -3 0 -7 1 -2 0 -5 1 -2 0 -7 
1 -2 0 -7 1 -2 0 -7 1 -2 0 -7 1 -2 0 -6 
1 -2 0 -5 1 -2 0 -3 1 -2 0 -4 1 -2 0 -4 
1 -1 0 -3 1 -1 0 -2 1 -1 0 -1 1 -1 1 -1 
1 0 1 1 1 1 0 2 1 1 0 3 1 1 0 2 
1 1 0 4 1 1 0 5 1 1 0 5 1 2 0 5 
1 2 0 6 1 2 0 3 1 2 0 6 1 2 0 6 
1 2 0 6 1 2 0 6 1 2 0 6 1 1 0 6 
1 2 0 3 1 1 0 5 1 1 0 5 1 1 0 3 
1 1 0 3 1 1 0 2 2 2 1 0 1 0 1 -1 
0 -2 1 -1 0 -2 1 -1 0 -2 1 -2 0 -4 1 -1 
0 -5 1 -1 0 -6 1 -2 0 -5 1 -2 0 -7 1 -2 
0 -5 1 -2 0 -7 1 -3 0 -7 1 -3 0 -7 1 -3 
0 -8 1 -2 0 -8 1 -2 0 -8 1 -3 0 -5 1 -2 
0 -7 1 -3 0 -7 1 -2 0 -6 1 -3 0 -6 1 -1 
0 -6 1 -1 0 -4 2500 2215 300 MP stroke
1 -1 0 -4 1 -2 0 -3 1 -1 0 -3 1 -1 0 -1 
1 -1 1 -1 1 0 1 0 -1 0 2 2 0 2 1 1 
0 3 1 1 0 3 1 1 0 4 1 2 0 2 1 2 
0 5 1 2 0 5 1 2 0 5 1 2 0 6 1 2 
0 6 1 2 0 3 1 2 0 6 1 2 0 6 1 1 
0 6 1 2 0 5 1 1 0 5 1 1 0 3 1 1 
0 4 1 1 0 2 1 1 0 2 1 1 0 1 1 1 
1 0 1 0 -1 0 2 -2 0 -1 1 -1 0 -3 1 -1 
0 -4 1 -1 0 -4 1 -2 0 -5 1 -2 0 -4 1 -2 
0 -6 1 -3 0 -7 1 -2 0 -8 1 -2 0 -8 1 -3 
0 -8 1 -3 0 -6 1 -3 0 -8 1 -3 0 -9 1 -3 
0 -9 1 -3 0 -8 1 -3 0 -9 1 -2 0 -6 1 -3 
0 -7 1 -3 0 -7 1 -2 0 -7 1 -2 0 -6 1 -2 
0 -6 1 -1 0 -3 1 -2 0 -4 1 -1 0 -3 1 -1 
0 -2 1 -1 0 -1 1 -1 1 0 1 0 1 1 0 2 
1 1 0 2 1 1 0 3 1 1 0 4 1 1 0 4 
1 2 0 3 1 1 0 5 1 2 0 5 1 2 0 5 
1 2 0 5 1 2 0 6 1 1 0 4 1 2 0 5 
1 1 0 5 1 1 0 5 1 1 0 4 1 1 0 3 
1 1 0 1 1 1 0 2 1 1 1 1 1 0 0 -1 
2 -2 0 -3 1 -1 0 -2 1 -1 0 -5 1 -1 0 -5 
1 -2 0 -6 1 -2 0 -7 1 -2 0 -8 1 -2 0 -6 
1 -2 0 -9 1 -3 0 -9 1 -3 0 -10 1 -3 0 -10 
1 -3 0 -10 1 -4 0 -7 1 -3 0 -10 1 -4 0 -10 
1 -4 0 -10 1 -3 0 -10 1 -3 0 -9 1 -3 0 -6 
1 -3 0 -9 1 -3 0 -8 1 -2 0 -7 1 -3 0 -6 
1 -2 0 -6 1 -2 0 -4 1 -2 0 -2 1 -2 0 -3 
1 -1 0 -2 1 -1 0 -1 1 -1 1 0 1 0 0 1 
2 2 0 3 1 1 0 2 1 1 0 4 1 1 0 4 
1 1 0 3 1 1 0 4 1 2 0 4 1 2 0 4 
1 2 0 4 1 1 0 4 1 2 0 2 1 1 0 4 
1 1 0 3 1 1 0 2 2 2 0 1 2 0 1 -1 
0 -1 1 -1 0 -3 1 -1 0 -3 1 -2 0 -4 1 -2 
0 -5 1 -2 0 -5 1 -2 0 -7 1 -3 0 -8 1 -3 
0 -9 1 -3 0 -10 1 -3 0 -10 1 -4 0 -7 1 -4 
0 -12 1 -4 0 -11 1 -5 0 -12 1 -4 0 -12 1 -5 
0 -12 1 -4 0 -9 1 -4 0 -13 1 -4 0 -12 1 -4 
0 -12 1 -4 0 -11 2340 2696 300 MP stroke
1 -4 0 -11 1 -4 0 -10 1 -4 0 -6 1 -3 0 -10 
1 -2 0 -9 1 -2 0 -8 1 -2 0 -7 1 -2 0 -5 
1 -2 0 -3 1 -2 0 -4 1 -1 0 -3 1 -1 0 -2 
1 -1 0 -1 1 -1 1 0 1 0 0 1 2 2 0 1 
1 1 0 2 1 1 0 2 1 1 0 3 1 1 0 1 
1 1 0 3 1 1 0 2 1 1 0 2 1 1 0 1 
1 1 1 1 1 1 1 0 -1 0 2 -2 0 -1 1 -1 
0 -2 1 -1 0 -4 1 -1 0 -3 1 -2 0 -5 1 -2 
0 -7 1 -2 0 -7 1 -3 0 -9 1 -3 0 -9 1 -3 
0 -7 1 -4 0 -11 1 -4 0 -12 1 -4 0 -13 1 -5 
0 -13 1 -5 0 -14 1 -5 0 -15 1 -5 0 -10 1 -5 
0 -15 1 -6 0 -15 1 -5 0 -16 1 -5 0 -16 1 -5 
0 -15 1 -5 0 -11 1 -5 0 -14 1 -5 0 -15 1 -4 
0 -14 1 -5 0 -13 1 -4 0 -12 1 -4 0 -8 1 -3 
0 -11 1 -4 0 -9 1 -4 0 -8 1 -3 0 -8 1 -2 
0 -7 1 -2 0 -4 1 -2 0 -5 1 -2 0 -4 1 -1 
0 -4 1 -1 0 -2 1 -1 0 -1 1 -1 1 -1 1 0 
-1 0 2 0 1 0 1 1 1 1 1 1 1 0 1 1 
1 0 1 0 -1 0 2 -2 0 -1 1 -1 0 -1 1 -1 
0 -3 1 -1 0 -4 1 -1 0 -5 1 -2 0 -6 1 -2 
0 -6 1 -3 0 -5 1 -3 0 -9 1 -3 0 -9 1 -4 
0 -11 1 -3 0 -12 1 -4 0 -13 1 -5 0 -13 1 -5 
0 -10 1 -5 0 -15 1 -5 0 -16 1 -5 0 -16 1 -6 
0 -17 1 -5 0 -17 1 -6 0 -12 1 -5 0 -18 1 -5 
0 -18 1 -5 0 -17 1 -6 0 -17 1 -5 0 -16 1 -6 
0 -10 1 -5 0 -16 1 -5 0 -14 1 -5 0 -13 1 -5 
0 -12 1 -4 0 -12 1 -4 0 -7 1 -3 0 -10 1 -3 
0 -8 1 -3 0 -7 1 -2 0 -7 1 -1 0 -5 1 -2 
0 -4 1 -1 0 -2 1 -1 0 -1 1 -1 1 -1 1 0 
1 1 0 1 1 1 0 1 1 1 0 2 1 1 0 2 
1 1 0 3 1 1 0 3 1 1 0 3 1 1 0 2 
1 1 0 2 1 1 0 2 1 1 0 2 1 1 1 1 
1 0 1 0 1 -1 0 -2 1 -1 0 -3 1 -1 0 -4 
1 -1 0 -5 1 -2 0 -6 1 -2 0 -4 1 -3 0 -7 
1 -3 0 -8 1 -3 0 -10 1 -3 0 -10 1 -3 0 -11 
1 -4 0 -8 1 -3 0 -12 1 -4 0 -12 1 -4 0 -13 
1 -4 0 -13 1 -4 0 -12 1 -4 0 -9 1 -4 0 -12 
1 -4 0 -12 1 -4 2178 4041 300 MP stroke
0 -11 1 -4 0 -10 1 -4 0 -10 1 -3 0 -9 1 -2 
0 -6 1 -2 0 -8 1 -2 0 -6 1 -1 0 -5 1 -2 
0 -3 1 -1 0 -1 1 -1 1 -1 1 0 0 2 1 1 
0 3 1 1 0 4 1 2 0 5 1 2 0 4 1 3 
0 7 1 3 0 8 1 3 0 9 1 4 0 10 1 3 
0 11 1 4 0 7 1 4 0 11 1 4 0 12 1 4 
0 12 1 4 0 11 1 4 0 12 1 4 0 11 1 4 
0 7 1 3 0 11 1 3 0 10 1 3 0 9 1 3 
0 8 1 2 0 8 1 2 0 4 1 2 0 5 1 2 
0 4 1 2 0 3 1 1 0 2 2 2 1 0 1 -1 
0 -2 1 -1 0 -2 1 -1 0 -3 1 -2 0 -3 1 -2 
0 -3 1 -1 0 -5 1 -2 0 -5 1 -1 0 -5 1 -2 
0 -5 1 -2 0 -5 1 -2 0 -4 1 -2 0 -3 1 -1 
0 -4 1 -1 0 -4 1 -1 0 -2 1 -1 0 -1 1 -1 
1 0 1 0 0 2 1 1 0 2 1 1 0 4 1 2 
0 5 1 2 0 7 1 2 0 5 1 3 0 9 1 3 
0 10 1 4 0 11 1 4 0 13 1 4 0 14 1 4 
0 10 1 5 0 15 1 5 0 16 1 6 0 16 1 6 
0 17 1 6 0 17 1 6 0 18 1 6 0 11 1 6 
0 18 1 6 0 17 1 6 0 17 1 5 0 17 1 5 
0 16 1 5 0 10 1 5 0 14 1 4 0 13 1 5 
0 12 1 4 0 10 1 4 0 10 1 3 0 5 1 3 
0 7 1 3 0 6 1 2 0 4 1 2 0 3 1 1 
0 2 1 1 1 1 1 1 0 -1 2 -2 0 -3 1 -1 
0 -3 1 -1 0 -3 1 -1 0 -3 1 -1 0 -4 1 -1 
0 -4 1 -2 0 -4 1 -1 0 -4 1 -1 0 -3 1 -1 
0 -2 1 -1 0 -2 1 -1 0 -1 1 -1 1 0 1 0 
0 2 1 1 0 1 1 1 0 4 1 2 0 4 1 2 
0 7 1 2 0 8 1 2 0 9 1 3 0 7 1 4 
0 11 1 4 0 12 1 4 0 14 1 4 0 15 1 5 
0 15 1 6 0 16 1 5 0 11 1 6 0 17 1 6 
0 18 1 6 0 17 1 6 0 18 1 6 0 18 1 6 
0 12 1 5 0 18 1 5 0 17 1 5 0 16 1 5 
0 15 1 5 0 15 1 4 0 9 1 4 0 12 1 4 
0 11 1 3 0 10 1 3 0 8 1 2 0 7 1 2 
0 4 1 2 0 4 1 1 0 3 2 2 1 0 -1 0 
2 -2 0 -2 1 -1 0 -2 1 -1 0 -4 1 -2 0 -5 
1 -1 0 -6 1 -2 2020 2961 300 MP stroke
0 -6 1 -2 0 -6 1 -2 0 -5 1 -2 0 -6 1 -2 
0 -7 1 -2 0 -6 1 -2 0 -5 1 -2 0 -5 1 -2 
0 -3 1 -1 0 -3 1 -1 0 -3 1 -1 0 -1 2 0 
1 1 0 3 1 1 0 2 1 2 0 5 1 1 0 7 
1 2 0 8 1 3 0 9 1 3 0 10 1 4 0 8 
1 4 0 12 1 5 0 13 1 5 0 14 1 5 0 15 
1 6 0 16 1 5 0 11 1 5 0 17 1 6 0 16 
1 6 0 17 1 5 0 17 1 5 0 17 1 5 0 10 
1 6 0 15 1 5 0 14 1 5 0 13 1 5 0 12 
1 4 0 11 1 4 0 9 1 4 0 5 1 3 0 7 
1 2 0 6 1 2 0 4 1 1 0 3 1 1 1 1 
1 0 -1 0 2 -2 0 -3 1 -1 0 -4 1 -1 0 -6 
1 -2 0 -6 1 -2 0 -5 1 -2 0 -8 1 -3 0 -8 
1 -3 0 -9 1 -3 0 -9 1 -3 0 -9 1 -3 0 -6 
1 -3 0 -9 1 -3 0 -9 1 -3 0 -7 1 -3 0 -7 
1 -3 0 -6 1 -2 0 -5 1 -2 0 -2 1 -2 0 -3 
1 -1 0 -1 1 -1 1 0 -1 0 2 2 0 2 1 2 
0 2 1 2 0 5 1 2 0 7 1 3 0 8 1 3 
0 10 1 3 0 11 1 4 0 8 1 4 0 13 1 5 
0 14 1 5 0 15 1 5 0 15 1 5 0 16 1 5 
0 11 1 6 0 16 1 5 0 16 1 6 0 16 1 5 
0 15 1 6 0 14 1 5 0 14 1 5 0 9 1 4 
0 12 1 4 0 11 1 4 0 9 1 3 0 9 1 2 
0 7 1 2 0 4 1 1 0 4 1 1 0 2 1 1 
1 1 -1 0 2 -2 0 -3 1 -1 0 -2 1 -2 0 -5 
1 -2 0 -6 1 -3 0 -7 1 -3 0 -9 1 -3 0 -10 
1 -3 0 -7 1 -3 0 -11 1 -4 0 -11 1 -4 0 -11 
1 -4 0 -12 1 -4 0 -11 1 -4 0 -11 1 -3 0 -7 
1 -3 0 -10 1 -3 0 -9 1 -3 0 -8 1 -2 0 -7 
1 -2 0 -5 1 -2 0 -3 1 -1 0 -3 2 -2 1 1 
0 2 1 1 0 4 1 2 0 3 1 2 0 7 1 3 
0 8 1 3 0 10 1 3 0 11 1 4 0 12 1 5 
0 9 1 4 0 14 1 5 0 15 1 6 0 15 1 5 
0 17 1 5 0 16 1 6 0 16 1 5 0 11 1 6 
0 15 1 6 0 15 1 5 0 15 1 4 0 14 1 4 
0 13 1 4 0 8 1 3 0 10 1 4 0 8 1 3 
0 7 1 2 0 6 1 2 0 3 1 1 0 1 1 1 
1 1 -1 0 2 -2 1865 2194 300 MP stroke
0 -3 1 -1 0 -4 1 -2 0 -6 1 -2 0 -5 1 -3 
0 -9 1 -3 0 -10 1 -3 0 -11 1 -4 0 -12 1 -4 
0 -12 1 -5 0 -13 1 -4 0 -9 1 -4 0 -14 1 -4 
0 -14 1 -4 0 -13 1 -5 0 -12 1 -4 0 -12 1 -4 
0 -8 1 -3 0 -10 1 -4 0 -9 1 -2 0 -8 1 -2 
0 -6 1 -2 0 -5 1 -1 0 -2 1 -1 0 -1 2 0 
0 2 1 1 0 4 1 2 0 6 1 2 0 7 1 3 
0 6 1 3 0 11 1 3 0 12 1 4 0 13 1 5 
0 14 1 5 0 15 1 6 0 10 1 5 0 17 1 5 
0 17 1 6 0 17 1 5 0 17 1 6 0 16 1 6 
0 11 1 5 0 16 1 5 0 14 1 5 0 14 1 4 
0 13 1 3 0 11 1 4 0 6 1 3 0 8 1 3 
0 6 1 2 0 5 1 1 0 2 1 1 1 1 -1 0 
2 -2 0 -2 1 -1 0 -5 1 -2 0 -6 1 -2 0 -8 
1 -3 0 -10 1 -3 0 -11 1 -4 0 -8 1 -4 0 -13 
1 -5 0 -13 1 -5 0 -15 1 -5 0 -15 1 -5 0 -15 
1 -5 0 -10 1 -6 0 -15 1 -5 0 -14 1 -5 0 -14 
1 -5 0 -13 1 -4 0 -13 1 -3 0 -8 1 -3 0 -10 
1 -3 0 -9 1 -2 0 -7 1 -2 0 -5 1 -1 0 -2 
1 -1 1 -1 1 1 0 2 1 1 0 5 1 2 0 6 
1 3 0 8 1 3 0 10 1 4 0 7 1 4 0 13 
1 5 0 14 1 5 0 15 1 6 0 16 1 6 0 17 
1 5 0 12 1 6 0 18 1 6 0 18 1 6 0 18 
1 6 0 17 1 6 0 16 1 6 0 11 1 5 0 15 
1 5 0 14 1 4 0 13 1 3 0 11 1 4 0 9 
1 2 0 8 1 2 0 3 1 2 0 4 1 1 1 1 
1 -1 0 -2 1 -1 0 -5 1 -2 0 -4 1 -3 0 -8 
1 -3 0 -9 1 -4 0 -12 1 -4 0 -13 1 -4 0 -14 
1 -5 0 -10 1 -6 0 -16 1 -5 0 -17 1 -5 0 -17 
1 -6 0 -17 1 -6 0 -17 1 -6 0 -11 1 -5 0 -17 
1 -5 0 -16 1 -5 0 -14 1 -5 0 -13 1 -4 0 -12 
1 -4 0 -10 1 -3 0 -6 1 -2 0 -7 1 -2 0 -5 
1 -1 0 -3 1 -1 1 0 -1 0 2 2 0 3 1 1 
0 5 1 2 0 8 1 3 0 9 1 4 0 11 1 4 
0 13 1 5 0 10 1 5 0 15 1 6 0 17 1 5 
0 18 1 6 0 19 1 6 0 19 1 7 0 13 1 6 
0 20 1 6 0 19 1 6 0 19 1 6 0 18 1 5 
0 17 1 5 0 16 1712 2011 300 MP stroke
1 5 0 9 1 5 0 12 1 4 0 11 1 3 0 9 
1 3 0 6 1 2 0 5 1 1 0 1 1 1 1 1 
0 -2 1 -1 0 -4 1 -2 0 -6 1 -3 0 -8 1 -3 
0 -7 1 -4 0 -11 1 -5 0 -13 1 -5 0 -15 1 -5 
0 -17 1 -5 0 -18 1 -6 0 -12 1 -6 0 -19 1 -6 
0 -19 1 -7 0 -19 1 -6 0 -19 1 -7 0 -18 1 -6 
0 -18 1 -6 0 -11 1 -5 0 -16 1 -5 0 -14 1 -5 
0 -13 1 -3 0 -11 1 -3 0 -9 1 -3 0 -4 1 -2 
0 -5 1 -1 0 -2 1 -1 1 0 0 3 1 1 0 5 
1 2 0 4 1 3 0 9 1 3 0 11 1 4 0 13 
1 4 0 15 1 6 0 16 1 6 0 18 1 6 0 12 
1 7 0 20 1 6 0 21 1 7 0 21 1 7 0 21 
1 7 0 21 1 7 0 13 1 7 0 20 1 6 0 19 
1 6 0 18 1 6 0 16 1 5 0 14 1 5 0 8 
1 4 0 11 1 3 0 9 1 2 0 7 1 1 0 4 
1 1 1 1 1 -1 0 -3 1 -1 0 -6 1 -2 0 -8 
1 -3 0 -11 1 -4 0 -12 1 -5 0 -14 1 -5 0 -11 
1 -6 0 -17 1 -6 0 -19 1 -7 0 -19 1 -7 0 -21 
1 -7 0 -21 1 -7 0 -15 1 -7 0 -21 1 -7 0 -21 
1 -7 0 -21 1 -6 0 -20 1 -6 0 -18 1 -6 0 -11 
1 -5 0 -16 1 -4 0 -14 1 -4 0 -11 1 -4 0 -8 
1 -3 0 -6 1 -2 0 -3 1 -1 0 -1 1 -1 1 1 
0 4 1 1 0 6 1 3 0 9 1 3 0 11 1 4 
0 9 1 4 0 15 1 6 0 17 1 6 0 18 1 7 
0 20 1 7 0 21 1 8 0 14 1 8 0 23 1 7 
0 23 1 8 0 23 1 8 0 23 1 7 0 22 1 8 
0 14 1 7 0 20 1 6 0 19 1 6 0 17 1 6 
0 15 1 4 0 13 1 4 0 7 1 3 0 9 1 2 
0 6 1 1 0 3 1 1 1 0 0 -3 1 -1 0 -6 
1 -2 0 -5 1 -3 0 -10 1 -4 0 -13 1 -4 0 -15 
1 -6 0 -17 1 -6 0 -19 1 -6 0 -14 1 -7 0 -21 
1 -8 0 -22 1 -8 0 -24 1 -7 0 -24 1 -8 0 -24 
1 -8 0 -16 1 -8 0 -23 1 -8 0 -22 1 -7 0 -22 
1 -6 0 -20 1 -6 0 -18 1 -6 0 -11 1 -5 0 -14 
1 -4 0 -12 1 -3 0 -9 1 -3 0 -6 1 -2 0 -3 
1 -1 1 0 0 2 1 1 0 5 1 2 0 7 1 3 
0 11 1 4 0 13 1 5 0 16 1 5 0 12 1 6 
0 20 1 7 0 21 1559 2227 300 MP stroke
1 7 0 23 1 8 0 24 1 9 0 25 1 8 0 17 
1 8 0 26 1 9 0 25 1 9 0 25 1 8 0 24 
1 8 0 23 1 7 0 15 1 7 0 20 1 6 0 18 
1 6 0 16 1 4 0 14 1 4 0 10 1 3 0 7 
1 2 0 3 1 2 1 2 -1 0 2 -2 0 -4 1 -2 
0 -8 1 -3 0 -10 1 -4 0 -8 1 -5 0 -15 1 -6 
0 -17 1 -7 0 -20 1 -7 0 -22 1 -7 0 -24 1 -8 
0 -17 1 -8 0 -26 1 -9 0 -26 1 -9 0 -27 1 -9 
0 -27 1 -9 0 -26 1 -9 0 -26 1 -8 0 -16 1 -8 
0 -24 1 -7 0 -21 1 -7 0 -20 1 -6 0 -16 1 -6 
0 -14 1 -4 0 -8 1 -3 0 -9 1 -3 0 -6 1 -1 
0 -2 1 -1 1 1 0 4 1 2 0 5 1 3 0 10 
1 3 0 13 1 5 0 16 1 5 0 19 1 7 0 21 
1 7 0 15 1 8 0 25 1 8 0 26 1 9 0 28 
1 9 0 28 1 10 0 28 1 10 0 28 1 10 0 19 
1 9 0 28 1 9 0 27 1 8 0 25 1 8 0 24 
1 7 0 21 1 7 0 12 1 6 0 17 1 5 0 13 
1 4 0 11 1 2 0 7 1 2 0 4 2 0 0 -2 
1 -2 0 -6 1 -3 0 -9 1 -4 0 -13 1 -5 0 -16 
1 -6 0 -12 1 -7 0 -21 1 -7 0 -24 1 -8 0 -26 
1 -9 0 -27 1 -9 0 -29 1 -10 0 -30 1 -10 0 -20 
1 -10 0 -30 1 -10 0 -30 1 -10 0 -30 1 -10 0 -28 
1 -9 0 -27 1 -9 0 -17 1 -8 0 -23 1 -8 0 -20 
1 -7 0 -18 1 -5 0 -15 1 -5 0 -11 1 -3 0 -6 
1 -2 0 -6 1 -1 1 -1 0 2 1 1 0 6 1 3 
0 9 1 4 0 9 1 4 0 16 1 6 0 19 1 7 
0 22 1 7 0 25 1 9 0 27 1 9 0 29 1 10 
0 20 1 10 0 31 1 11 0 32 1 11 0 32 1 11 
0 32 1 11 0 31 1 11 0 20 1 10 0 30 1 9 
0 28 1 9 0 25 1 8 0 23 1 7 0 20 1 6 
0 11 1 5 0 14 1 4 0 10 1 3 0 6 1 2 
1 2 -1 0 2 -2 0 -4 1 -2 0 -9 1 -3 0 -12 
1 -5 0 -16 1 -6 0 -20 1 -7 0 -23 1 -8 0 -26 
1 -9 0 -18 1 -10 0 -30 1 -10 0 -32 1 -11 0 -33 
1 -11 0 -34 1 -12 0 -34 1 -12 0 -22 1 -12 0 -34 
1 -11 0 -33 1 -11 0 -32 1 -10 0 -30 1 -10 0 -27 
1 -9 0 -17 1 -8 0 -22 1 -7 0 -19 1 -6 0 -16 
1 -4 0 -12 1 -3 1406 2463 300 MP stroke
0 -8 1 -2 0 -2 1 -1 1 1 0 4 1 2 0 8 
1 3 0 13 1 5 0 16 1 6 0 20 1 8 0 15 
1 9 0 26 1 9 0 29 1 10 0 31 1 11 0 34 
1 11 0 35 1 12 0 24 1 13 0 36 1 12 0 37 
1 13 0 36 1 12 0 36 1 11 0 34 1 12 0 21 
1 11 0 30 1 10 0 28 1 9 0 24 1 8 0 21 
1 6 0 18 1 5 0 9 1 4 0 10 1 3 0 5 
1 1 1 1 0 -4 1 -2 0 -8 1 -3 0 -13 1 -5 
0 -11 1 -6 0 -20 1 -7 0 -24 1 -9 0 -27 1 -10 
0 -30 1 -11 0 -33 1 -12 0 -23 1 -12 0 -37 1 -13 
0 -38 1 -13 0 -40 1 -13 0 -39 1 -13 0 -40 1 -13 
0 -25 1 -13 0 -37 1 -13 0 -35 1 -12 0 -33 1 -11 
0 -30 1 -10 0 -27 1 -8 0 -24 1 -7 0 -13 1 -6 
0 -16 1 -5 0 -12 1 -3 0 -7 1 -1 0 -1 1 -1 
0 3 1 1 0 5 1 3 0 11 1 5 0 16 1 6 
0 21 1 7 0 25 1 9 0 28 1 10 0 22 1 11 
0 34 1 12 0 37 1 13 0 39 1 13 0 41 1 14 
0 42 1 14 0 28 1 14 0 42 1 14 0 42 1 14 
0 40 1 13 0 39 1 12 0 36 1 12 0 33 1 10 
0 21 1 9 0 27 1 8 0 23 1 7 0 18 1 5 
0 13 1 4 0 8 1 2 1 3 -1 0 2 -2 0 -6 
1 -3 0 -11 1 -5 0 -16 1 -7 0 -21 1 -8 0 -17 
1 -9 0 -29 1 -10 0 -33 1 -12 0 -36 1 -13 0 -40 
1 -13 0 -42 1 -14 0 -29 1 -15 0 -45 1 -15 0 -46 
1 -15 0 -45 1 -15 0 -45 1 -15 0 -44 1 -14 0 -42 
1 -14 0 -27 1 -12 0 -38 1 -12 0 -33 1 -11 0 -30 
1 -9 0 -25 1 -8 0 -21 1 -6 0 -10 1 -5 0 -12 
1 -3 0 -5 1 -1 0 -1 1 1 0 5 1 3 0 11 
1 5 0 10 1 6 0 21 1 8 0 25 1 10 0 30 
1 11 0 34 1 13 0 38 1 14 0 27 1 15 0 43 
1 16 0 46 1 15 0 48 1 16 0 49 1 17 0 49 
1 16 0 48 1 16 0 32 1 16 0 46 1 15 0 43 
1 15 0 40 1 13 0 37 1 12 0 33 1 10 0 19 
1 9 0 24 1 8 0 18 1 6 0 13 1 4 0 7 
1 1 0 2 1 -1 0 -3 1 -2 0 -9 1 -5 0 -15 
1 -6 0 -21 1 -8 0 -27 1 -10 0 -32 1 -12 0 -24 
1 -12 0 -40 1 -14 0 -44 1 -15 0 -48 1 -16 0 -49 
1 -17 0 -52 1 -17 1255 2023 300 MP stroke
0 -53 1 -18 0 -35 1 -18 0 -53 1 -17 0 -52 1 -17 
0 -51 1 -16 0 -48 1 -15 0 -45 1 -14 0 -28 1 -13 
0 -38 1 -12 0 -33 1 -10 0 -27 1 -9 0 -21 1 -7 
0 -15 1 -4 0 -7 1 -3 0 -4 1 -1 0 3 1 1 
0 9 1 4 0 16 1 6 0 21 1 9 0 18 1 9 
0 32 1 12 0 37 1 14 0 42 1 15 0 46 1 17 
0 50 1 17 0 53 1 18 0 37 1 19 0 56 1 19 
0 57 1 19 0 58 1 18 0 57 1 18 0 55 1 18 
0 35 1 17 0 50 1 16 0 46 1 14 0 42 1 13 
0 36 1 12 0 30 1 10 0 16 1 8 0 20 1 5 
0 13 1 3 0 6 1 1 0 -1 1 -2 0 -8 1 -4 
0 -10 1 -6 0 -21 1 -8 0 -27 1 -10 0 -34 1 -12 
0 -40 1 -14 0 -45 1 -16 0 -50 1 -17 0 -36 1 -18 
0 -57 1 -19 0 -59 1 -20 0 -62 1 -20 0 -62 1 -21 
0 -62 1 -21 0 -41 1 -21 0 -60 1 -20 0 -58 1 -19 
0 -54 1 -18 0 -51 1 -16 0 -46 1 -15 0 -28 1 -13 
0 -36 1 -11 0 -30 1 -9 0 -23 1 -6 0 -16 1 -4 
0 -8 1 -1 0 -1 0 1 1 1 0 4 1 3 0 14 
1 5 0 21 1 9 0 28 1 10 0 36 1 13 0 41 
1 15 0 32 1 16 0 52 1 18 0 56 1 20 0 60 
1 21 0 64 1 21 0 66 1 22 0 45 1 23 0 67 
1 23 0 67 1 22 0 65 1 22 0 63 1 21 0 60 
1 19 0 38 1 18 0 53 1 16 0 47 1 14 0 41 
1 12 0 34 1 10 0 26 1 7 0 18 1 5 0 7 
1 3 0 3 1 1 0 -5 1 -3 0 -13 1 -6 0 -21 
1 -9 0 -29 1 -11 0 -25 1 -13 0 -42 1 -16 0 -49 
1 -17 0 -56 1 -19 0 -61 1 -21 0 -65 1 -23 0 -45 
1 -24 0 -70 1 -24 0 -73 1 -25 0 -73 1 -25 0 -73 
1 -24 0 -72 1 -24 0 -46 1 -23 0 -68 1 -21 0 -63 
1 -21 0 -58 1 -18 0 -52 1 -17 0 -45 1 -14 0 -38 
1 -11 0 -21 1 -9 0 -24 1 -7 0 -15 1 -3 0 -5 
1 -1 0 3 1 2 0 13 1 5 0 14 1 8 0 28 
1 11 0 37 1 13 0 45 1 16 0 52 1 19 0 59 
1 20 0 43 1 22 0 69 1 24 0 73 1 25 0 76 
1 26 0 78 1 27 0 80 1 26 0 53 1 27 0 79 
1 25 0 77 1 25 0 74 1 24 0 69 1 22 0 64 
1 20 0 58 1 18 0 35 1 16 0 45 1 13 0 36 
1 11 0 27 1 8 1106 1218 300 MP stroke
0 17 1 5 0 8 1 1 0 -1 1 -1 0 -10 1 -4 
0 -20 1 -8 0 -29 1 -11 0 -39 1 -14 0 -47 1 -17 
0 -37 1 -19 0 -61 1 -22 0 -68 1 -24 0 -74 1 -25 
0 -79 1 -27 0 -83 1 -28 0 -56 1 -29 0 -86 1 -29 
0 -87 1 -29 0 -86 1 -29 0 -84 1 -27 0 -81 1 -26 
0 -77 1 -24 0 -48 1 -23 0 -66 1 -21 0 -58 1 -18 
0 -51 1 -15 0 -41 1 -12 0 -32 1 -9 0 -15 1 -6 
0 -14 1 -2 0 -3 1 1 0 8 1 5 0 18 1 9 
0 29 1 12 0 25 1 14 0 48 1 17 0 56 1 20 
0 65 1 23 0 73 1 25 0 79 1 27 0 56 1 29 
0 88 1 30 0 91 1 31 0 93 1 31 0 94 1 32 
0 93 1 31 0 91 1 30 0 59 1 30 0 84 1 28 
0 79 1 25 0 73 1 23 0 64 1 20 0 56 1 17 
0 32 1 15 0 38 1 11 0 28 1 7 0 17 1 3 
0 5 1 -1 0 -7 1 -4 0 -11 1 -8 0 -27 1 -11 
0 -39 1 -14 0 -50 1 -18 0 -60 1 -21 0 -69 1 -24 
0 -51 1 -27 0 -83 1 -28 0 -90 1 -30 0 -95 1 -32 
0 -98 1 -34 0 -100 1 -34 0 -102 1 -34 0 -68 1 -33 
0 -100 1 -33 0 -97 1 -32 0 -93 1 -30 0 -87 1 -27 
0 -80 1 -25 0 -49 1 -23 0 -65 1 -19 0 -55 1 -16 
0 -44 1 -13 0 -32 1 -8 0 -20 1 -5 0 -6 1 -1 
0 -1 0 3 1 3 0 15 1 7 0 27 1 11 0 39 
1 16 0 51 1 19 0 62 1 22 0 48 1 25 0 79 
1 28 0 88 1 30 0 95 1 33 0 100 1 35 0 105 
1 35 0 72 1 36 0 109 1 37 0 109 1 36 0 108 
1 35 0 105 1 34 0 100 1 33 0 63 1 31 0 89 
1 28 0 80 1 25 0 71 1 22 0 60 1 18 0 49 
1 14 0 25 1 11 0 26 1 7 0 13 1 2 0 1 
0 -1 1 -2 0 -14 1 -7 0 -27 1 -12 0 -40 1 -16 
0 -34 1 -19 0 -62 1 -22 0 -73 1 -27 0 -83 1 -30 
0 -92 1 -32 0 -101 1 -34 0 -71 1 -36 0 -111 1 -37 
0 -114 1 -39 0 -116 1 -39 0 -117 1 -38 0 -116 1 -38 
0 -75 1 -37 0 -109 1 -36 0 -103 1 -33 0 -96 1 -31 
0 -87 1 -27 0 -77 1 -24 0 -45 1 -21 0 -57 1 -17 
0 -44 1 -12 0 -30 1 -8 0 -17 1 -3 0 -2 1 2 
0 12 1 7 0 16 1 10 0 37 1 15 0 51 1 19 
0 64 1 23 0 75 1 28 0 86 1 31 0 63 1 33 
0 103 1 36 0 110 958 2640 300 MP stroke
1 38 0 115 1 40 0 120 1 40 0 123 1 41 0 82 
1 41 0 122 1 40 0 120 1 39 0 116 1 37 0 110 
1 35 0 102 1 33 0 63 1 30 0 85 1 27 0 73 
1 23 0 62 1 18 0 48 1 14 0 33 1 9 0 19 
1 4 0 4 1 1 0 -8 1 -4 0 -23 1 -9 0 -37 
1 -15 0 -51 1 -20 0 -65 1 -23 0 -51 1 -27 0 -86 
1 -31 0 -97 1 -34 0 -106 1 -37 0 -114 1 -40 0 -120 
1 -41 0 -83 1 -42 0 -127 1 -42 0 -128 1 -43 0 -128 
1 -42 0 -125 1 -41 0 -121 1 -40 0 -77 1 -38 0 -109 
1 -35 0 -101 1 -32 0 -90 1 -28 0 -79 1 -24 0 -65 
1 -20 0 -52 1 -15 0 -26 1 -11 0 -26 1 -6 0 -11 
1 -1 0 5 1 4 0 21 1 9 0 36 1 15 0 32 
1 19 0 61 1 23 0 75 1 27 0 87 1 31 0 98 
1 35 0 108 1 37 0 77 1 39 0 122 1 41 0 126 
1 43 0 130 1 44 0 131 1 44 0 131 1 43 0 86 
1 43 0 125 1 41 0 121 1 38 0 113 1 37 0 104 
1 32 0 94 1 29 0 82 1 25 0 47 1 22 0 58 
1 17 0 44 1 12 0 28 1 7 0 13 1 2 0 -3 
1 -4 0 -11 1 -8 0 -31 1 -13 0 -46 1 -17 0 -61 
1 -22 0 -75 1 -26 0 -87 1 -31 0 -65 1 -34 0 -106 
1 -36 0 -115 1 -40 0 -122 1 -41 0 -128 1 -43 0 -131 
1 -44 0 -132 873 2138 171 MP stroke
gr

c9

end %%Color Dict

eplot
%%EndObject

epage
end

showpage

%%Trailer
%%EOF
