%!PS-Adobe-3.0 EPSF-3.0
%%Creator: MATLAB, The MathWorks, Inc. Version 8.0.0.783 (R2012b). Operating System: Darwin 13.3.0 Darwin Kernel Version 13.3.0: Tue Jun  3 21:27:35 PDT 2014; root:xnu-2422.110.17~1/RELEASE_X86_64 x86_64.
%%Title: /Users/mattia/Desktop/Example 8/Figure 9.eps
%%CreationDate: 07/29/2014  11:33:54
%%DocumentNeededFonts: Helvetica
%%DocumentProcessColors: Cyan Magenta Yellow Black
%%LanguageLevel: 2
%%Pages: 1
%%BoundingBox:    26   186   585   606
%%EndComments

%%BeginProlog
% MathWorks dictionary
/MathWorks 160 dict begin
% definition operators
/bdef {bind def} bind def
/ldef {load def} bind def
/xdef {exch def} bdef
/xstore {exch store} bdef
% operator abbreviations
/c  /clip ldef
/cc /concat ldef
/cp /closepath ldef
/gr /grestore ldef
/gs /gsave ldef
/mt /moveto ldef
/np /newpath ldef
/cm /currentmatrix ldef
/sm /setmatrix ldef
/rm /rmoveto ldef
/rl /rlineto ldef
/s {show newpath} bdef
/sc {setcmykcolor} bdef
/sr /setrgbcolor ldef
/sg /setgray ldef
/w /setlinewidth ldef
/j /setlinejoin ldef
/cap /setlinecap ldef
/rc {rectclip} bdef
/rf {rectfill} bdef
% page state control
/pgsv () def
/bpage {/pgsv save def} bdef
/epage {pgsv restore} bdef
/bplot /gsave ldef
/eplot {stroke grestore} bdef
% orientation switch
/portraitMode 0 def /landscapeMode 1 def /rotateMode 2 def
% coordinate system mappings
/dpi2point 0 def
% font control
/FontSize 0 def
/FMS {/FontSize xstore findfont [FontSize 0 0 FontSize neg 0 0]
  makefont setfont} bdef
/reencode {exch dup where {pop load} {pop StandardEncoding} ifelse
  exch dup 3 1 roll findfont dup length dict begin
  { 1 index /FID ne {def}{pop pop} ifelse } forall
  /Encoding exch def currentdict end definefont pop} bdef
/isroman {findfont /CharStrings get /Agrave known} bdef
/FMSR {3 1 roll 1 index dup isroman {reencode} {pop pop} ifelse
  exch FMS} bdef
/csm {1 dpi2point div -1 dpi2point div scale neg translate
 dup landscapeMode eq {pop -90 rotate}
  {rotateMode eq {90 rotate} if} ifelse} bdef
% line types: solid, dotted, dashed, dotdash
/SO { [] 0 setdash } bdef
/DO { [.5 dpi2point mul 4 dpi2point mul] 0 setdash } bdef
/DA { [6 dpi2point mul] 0 setdash } bdef
/DD { [.5 dpi2point mul 4 dpi2point mul 6 dpi2point mul 4
  dpi2point mul] 0 setdash } bdef
% macros for lines and objects
/L {lineto stroke} bdef
/MP {3 1 roll moveto 1 sub {rlineto} repeat} bdef
/AP {{rlineto} repeat} bdef
/PDlw -1 def
/W {/PDlw currentlinewidth def setlinewidth} def
/PP {closepath eofill} bdef
/DP {closepath stroke} bdef
/MR {4 -2 roll moveto dup  0 exch rlineto exch 0 rlineto
  neg 0 exch rlineto closepath} bdef
/FR {MR stroke} bdef
/PR {MR fill} bdef
/L1i {{currentfile picstr readhexstring pop} image} bdef
/tMatrix matrix def
/MakeOval {newpath tMatrix currentmatrix pop translate scale
0 0 1 0 360 arc tMatrix setmatrix} bdef
/FO {MakeOval stroke} bdef
/PO {MakeOval fill} bdef
/PD {currentlinewidth 2 div 0 360 arc fill
   PDlw -1 eq not {PDlw w /PDlw -1 def} if} def
/FA {newpath tMatrix currentmatrix pop translate scale
  0 0 1 5 -2 roll arc tMatrix setmatrix stroke} bdef
/PA {newpath tMatrix currentmatrix pop	translate 0 0 moveto scale
  0 0 1 5 -2 roll arc closepath tMatrix setmatrix fill} bdef
/FAn {newpath tMatrix currentmatrix pop translate scale
  0 0 1 5 -2 roll arcn tMatrix setmatrix stroke} bdef
/PAn {newpath tMatrix currentmatrix pop translate 0 0 moveto scale
  0 0 1 5 -2 roll arcn closepath tMatrix setmatrix fill} bdef
/vradius 0 def /hradius 0 def /lry 0 def
/lrx 0 def /uly 0 def /ulx 0 def /rad 0 def
/MRR {/vradius xdef /hradius xdef /lry xdef /lrx xdef /uly xdef
  /ulx xdef newpath tMatrix currentmatrix pop ulx hradius add uly
  vradius add translate hradius vradius scale 0 0 1 180 270 arc 
  tMatrix setmatrix lrx hradius sub uly vradius add translate
  hradius vradius scale 0 0 1 270 360 arc tMatrix setmatrix
  lrx hradius sub lry vradius sub translate hradius vradius scale
  0 0 1 0 90 arc tMatrix setmatrix ulx hradius add lry vradius sub
  translate hradius vradius scale 0 0 1 90 180 arc tMatrix setmatrix
  closepath} bdef
/FRR {MRR stroke } bdef
/PRR {MRR fill } bdef
/MlrRR {/lry xdef /lrx xdef /uly xdef /ulx xdef /rad lry uly sub 2 div def
  newpath tMatrix currentmatrix pop ulx rad add uly rad add translate
  rad rad scale 0 0 1 90 270 arc tMatrix setmatrix lrx rad sub lry rad
  sub translate rad rad scale 0 0 1 270 90 arc tMatrix setmatrix
  closepath} bdef
/FlrRR {MlrRR stroke } bdef
/PlrRR {MlrRR fill } bdef
/MtbRR {/lry xdef /lrx xdef /uly xdef /ulx xdef /rad lrx ulx sub 2 div def
  newpath tMatrix currentmatrix pop ulx rad add uly rad add translate
  rad rad scale 0 0 1 180 360 arc tMatrix setmatrix lrx rad sub lry rad
  sub translate rad rad scale 0 0 1 0 180 arc tMatrix setmatrix
  closepath} bdef
/FtbRR {MtbRR stroke } bdef
/PtbRR {MtbRR fill } bdef
/stri 6 array def /dtri 6 array def
/smat 6 array def /dmat 6 array def
/tmat1 6 array def /tmat2 6 array def /dif 3 array def
/asub {/ind2 exch def /ind1 exch def dup dup
  ind1 get exch ind2 get sub exch } bdef
/tri_to_matrix {
  2 0 asub 3 1 asub 4 0 asub 5 1 asub
  dup 0 get exch 1 get 7 -1 roll astore } bdef
/compute_transform {
  dmat dtri tri_to_matrix tmat1 invertmatrix 
  smat stri tri_to_matrix tmat2 concatmatrix } bdef
/ds {stri astore pop} bdef
/dt {dtri astore pop} bdef
/db {2 copy /cols xdef /rows xdef mul dup 3 mul string
  currentfile 
  3 index 0 eq {/ASCIIHexDecode filter}
  {/ASCII85Decode filter 3 index 2 eq {/RunLengthDecode filter} if }
  ifelse exch readstring pop
  dup 0 3 index getinterval /rbmap xdef
  dup 2 index dup getinterval /gbmap xdef
  1 index dup 2 mul exch getinterval /bbmap xdef pop pop}bdef
/it {gs np dtri aload pop moveto lineto lineto cp c
  cols rows 8 compute_transform 
  rbmap gbmap bbmap true 3 colorimage gr}bdef
/il {newpath moveto lineto stroke}bdef
currentdict end def
%%EndProlog

%%BeginSetup
MathWorks begin

0 cap

end
%%EndSetup

%%Page: 1 1
%%BeginPageSetup
%%PageBoundingBox:    26   186   585   606
MathWorks begin
bpage
%%EndPageSetup

%%BeginObject: obj1
bplot

/dpi2point 12 def
portraitMode 0312 7272 csm

    0     0  6719  5040 rc
85 dict begin %Colortable dictionary
/c0 { 0.000000 0.000000 0.000000 sr} bdef
/c1 { 1.000000 1.000000 1.000000 sr} bdef
/c2 { 0.900000 0.000000 0.000000 sr} bdef
/c3 { 0.000000 0.820000 0.000000 sr} bdef
/c4 { 0.000000 0.000000 0.800000 sr} bdef
/c5 { 0.910000 0.820000 0.320000 sr} bdef
/c6 { 1.000000 0.260000 0.820000 sr} bdef
/c7 { 0.000000 0.820000 0.820000 sr} bdef
c0
1 j
1 sg
   0    0 6720 5041 rf
6 w
0 4108 5208 0 0 -4108 873 4486 4 MP
PP
-5208 0 0 4108 5208 0 0 -4108 873 4486 5 MP stroke
4 w
DO
SO
6 w
0 sg
 873 4486 mt 6081 4486 L
 873 4486 mt  873  378 L
 873 4486 mt  873 4433 L
%%IncludeResource: font Helvetica
/Helvetica /ISOLatin1Encoding 120 FMSR

 840 4631 mt 
(0) s
1393 4486 mt 1393 4433 L
1327 4631 mt 
(20) s
1914 4486 mt 1914 4433 L
1848 4631 mt 
(40) s
2435 4486 mt 2435 4433 L
2369 4631 mt 
(60) s
2956 4486 mt 2956 4433 L
2890 4631 mt 
(80) s
3477 4486 mt 3477 4433 L
3377 4631 mt 
(100) s
3997 4486 mt 3997 4433 L
3897 4631 mt 
(120) s
4518 4486 mt 4518 4433 L
4418 4631 mt 
(140) s
5039 4486 mt 5039 4433 L
4939 4631 mt 
(160) s
5560 4486 mt 5560 4433 L
5460 4631 mt 
(180) s
6081 4486 mt 6081 4433 L
5981 4631 mt 
(200) s
 873 4486 mt  925 4486 L
 635 4530 mt 
(-45) s
 873 4075 mt  925 4075 L
 635 4119 mt 
(-40) s
 873 3664 mt  925 3664 L
 635 3708 mt 
(-35) s
 873 3253 mt  925 3253 L
 635 3297 mt 
(-30) s
 873 2842 mt  925 2842 L
 635 2886 mt 
(-25) s
 873 2432 mt  925 2432 L
 635 2476 mt 
(-20) s
 873 2021 mt  925 2021 L
 635 2065 mt 
(-15) s
 873 1610 mt  925 1610 L
 635 1654 mt 
(-10) s
 873 1199 mt  925 1199 L
 702 1243 mt 
(-5) s
 873  788 mt  925  788 L
 772  832 mt 
(0) s
 873  378 mt  925  378 L
 772  422 mt 
(5) s
gs 873 378 5209 4109 rc
/c8 { 0.000000 0.000000 1.000000 sr} bdef
c8
1 0 1 0 1 0 1 0 1 0 1 0 1 0 1 0 
1 0 1 0 1 0 1 0 1 0 1 0 1 0 1 0 
1 0 1 0 1 0 1 0 1 0 1 0 1 0 1 0 
1 0 1 0 1 0 1 0 1 0 1 0 1 0 1 0 
1 0 1 0 1 0 1 0 1 0 1 0 1 0 1 0 
1 0 1 0 1 0 1 0 1 0 1 0 1 0 1 0 
1 0 1 0 1 0 1 0 1 0 1 0 1 0 1 0 
1 0 1 0 1 0 1 0 1 0 1 0 1 0 1 0 
1 0 1 0 1 0 1 0 1 0 1 0 1 0 1 0 
1 0 1 0 1 0 1 0 1 0 1 0 1 0 1 0 
1 0 1 0 1 0 1 0 1 0 1 0 1 0 1 0 
1 0 1 0 1 0 1 0 1 0 1 0 1 0 1 0 
1 0 1 0 1 0 1 0 1 0 1 0 1 0 1 0 
1 0 1 0 1 0 1 0 1 0 1 0 1 0 1 0 
1 0 1 0 1 0 1 0 1 0 1 0 1 0 1 0 
1 0 1 0 1 0 1 0 1 0 1 0 1 0 1 0 
1 0 1 0 1 0 1 0 1 0 1 0 1 0 1 0 
1 0 1 0 1 0 1 0 1 0 1 0 1 0 1 0 
1 0 1 0 1 0 1 0 1 0 1 0 1 0 1 0 
1 0 1 0 1 0 1 0 1 0 1 0 1 0 1 0 
1 0 1 0 1 0 1 0 1 0 1 0 1 0 1 0 
1 0 1 0 1 0 1 0 1 0 1 0 1 0 1 0 
1 0 1 0 1 0 1 0 1 0 1 0 1 0 1 0 
1 0 1 0 1 0 1 0 1 0 1 0 1 0 1 0 
1 0 1 0 1 0 1 0 1 0 1 0 1 0 1 0 
1 0 1 0 1 0 1 0 1 0 1 0 1 0 1 0 
1 0 1 0 1 0 1 0 1 0 1 0 1 0 1 0 
1 0 1 0 1 0 1 0 1 0 1 0 1 0 1 0 
1 0 1 0 1 0 1 0 1 0 1 0 1 0 1 0 
1 0 1 0 1 0 1 0 1 0 1 0 1 0 1 0 
1 0 1 0 1 0 1 0 1 0 1 0 1 0 1 0 
1 0 1 0 1 0 1 0 1 0 1 0 1 0 1 0 
1 0 1 0 1 0 1 0 1 0 1 0 1 0 1 0 
1 0 1 0 1 0 1 0 1 0 1 0 1 0 1 0 
1 0 1 0 1 0 1 0 1 0 1 0 1 0 1 0 
1 0 1 0 1 0 1 0 1 0 1 0 1 0 1 0 
1 0 1 0 1 0 1 0 1 0 1 0 1 0 1 0 
1 0 1 0 1 0 5782 788 300 MP stroke
1 0 1 0 1 0 1 0 1 0 1 0 1 0 1 0 
1 0 1 0 1 0 1 0 1 0 1 0 1 0 1 0 
1 0 1 0 1 0 1 0 1 0 1 0 1 0 1 0 
1 0 1 0 1 0 1 0 1 0 1 0 1 0 1 0 
1 0 1 0 1 0 1 0 1 0 1 0 1 0 1 0 
1 0 1 0 1 0 1 0 1 0 1 0 1 0 1 0 
1 0 1 0 1 0 1 0 1 0 1 0 1 0 1 0 
1 0 1 0 1 0 1 0 1 0 1 0 1 0 1 0 
1 0 1 0 1 0 1 0 1 0 1 0 1 0 1 0 
1 0 1 0 1 0 1 0 1 0 1 0 1 0 1 0 
1 0 1 0 1 0 1 0 1 0 1 0 1 0 1 0 
1 0 1 0 1 0 1 0 1 0 1 0 1 0 1 0 
1 0 1 0 1 0 1 0 1 0 1 0 1 0 1 0 
1 0 1 0 1 0 1 0 1 0 1 0 1 0 1 0 
1 0 1 0 1 0 1 0 1 0 1 0 1 0 1 0 
1 0 1 0 1 0 1 0 1 0 1 0 1 0 1 0 
1 0 1 0 1 0 1 0 1 0 1 0 1 0 1 0 
1 0 1 -1 1 0 1 -1 1 0 1 1 1 1 1 1 
1 0 1 0 1 0 1 0 1 0 1 0 1 0 1 0 
1 0 1 0 1 0 1 0 1 0 1 0 1 0 1 0 
1 0 1 0 1 0 1 0 1 -1 1 0 1 0 1 0 
1 -1 1 0 1 0 1 0 1 0 1 -1 1 0 1 0 
1 0 1 0 1 0 1 0 1 0 1 0 1 0 1 0 
1 0 1 0 1 0 1 0 1 0 1 1 1 0 1 1 
1 -1 1 0 1 -1 1 1 1 0 1 1 1 0 1 0 
1 0 1 0 1 0 1 1 1 0 1 0 1 0 1 0 
1 0 1 0 1 0 1 0 1 0 1 0 1 0 1 0 
1 0 1 0 1 0 1 0 1 -1 1 0 1 0 1 0 
1 0 1 0 1 -1 1 0 1 -1 1 0 1 0 1 0 
1 0 1 0 1 0 1 0 1 0 1 0 1 -1 1 0 
1 0 1 1 1 0 1 0 1 0 1 0 1 0 1 0 
1 1 1 0 1 0 1 0 1 0 1 0 1 1 1 0 
1 1 1 -1 1 0 1 1 1 0 1 0 1 0 1 0 
1 1 1 0 1 -1 1 0 1 -1 1 0 1 1 1 0 
1 1 1 0 1 -1 1 -1 1 0 1 0 1 0 1 0 
1 0 1 -1 1 0 1 -1 1 0 1 0 1 0 1 -1 
1 0 1 0 1 0 1 0 1 0 1 0 1 1 1 0 
1 0 1 0 1 0 5483 790 300 MP stroke
1 0 1 0 1 0 1 0 1 0 1 1 1 0 1 1 
1 0 1 0 1 0 1 0 1 0 1 0 1 1 1 0 
1 0 1 0 1 0 1 1 1 0 1 0 1 0 1 0 
1 0 1 0 1 -1 1 0 1 0 1 -1 1 0 1 0 
1 0 1 0 1 -1 1 0 1 0 1 -1 1 0 1 -1 
1 0 1 0 1 0 1 1 1 0 1 0 1 -1 1 0 
1 0 1 0 1 1 1 0 1 0 1 0 1 0 1 -1 
1 1 1 0 1 0 1 0 1 1 1 0 1 0 1 0 
1 1 1 0 1 0 1 0 1 0 1 0 1 0 1 1 
1 0 1 0 1 0 1 0 1 0 1 0 1 0 1 0 
1 0 1 0 1 0 1 -1 1 0 1 0 1 0 1 0 
1 0 1 -1 1 0 1 0 1 0 1 -1 1 0 1 0 
1 0 1 0 1 0 1 0 1 -1 1 0 1 0 1 0 
1 0 1 1 1 0 1 0 1 0 1 0 1 0 1 0 
1 0 1 0 1 1 1 0 1 0 1 0 1 1 1 0 
1 0 1 0 1 1 1 0 1 0 1 0 1 0 1 0 
1 0 1 1 1 0 1 0 1 0 1 -1 1 0 1 -1 
1 0 1 0 1 0 1 0 1 0 1 0 1 0 1 -1 
1 0 1 0 1 0 1 -1 1 0 1 0 1 -1 1 0 
1 0 1 0 1 0 1 0 1 0 1 1 1 -1 1 0 
1 0 1 0 1 0 1 0 1 1 1 0 1 1 1 0 
1 0 1 -1 1 1 1 0 1 1 1 1 1 0 1 0 
1 -1 1 0 1 0 1 0 1 1 1 0 1 0 1 0 
1 0 1 0 1 0 1 1 1 -1 1 0 1 0 1 -1 
1 0 1 0 1 0 1 0 1 0 1 0 1 -1 1 0 
1 -1 1 -1 1 0 1 0 1 0 1 0 1 1 1 0 
1 0 1 -1 1 0 1 0 1 0 1 0 1 0 1 0 
1 1 1 0 1 0 1 0 1 0 1 0 1 0 1 0 
1 1 1 0 1 1 1 0 1 0 1 0 1 -1 1 0 
1 1 1 0 1 1 1 0 1 0 1 0 1 0 1 0 
1 0 1 0 1 0 1 1 1 0 1 -1 1 0 1 -1 
1 0 1 0 1 0 1 0 1 0 1 -1 1 0 1 0 
1 -1 1 0 1 0 1 -1 1 0 1 0 1 0 1 0 
1 0 1 0 1 1 1 0 1 0 1 0 1 -1 1 0 
1 0 1 0 1 0 1 1 1 0 1 1 1 0 1 1 
1 0 1 0 1 0 1 1 1 0 1 0 1 0 1 0 
1 -1 1 0 1 0 1 1 1 0 1 0 1 0 1 0 
1 0 1 0 1 0 5184 787 300 MP stroke
1 0 1 0 1 -1 1 0 1 0 1 0 1 -1 1 0 
1 0 1 0 1 0 1 -1 1 0 1 -1 1 0 1 0 
1 0 1 0 1 0 1 0 1 0 1 0 1 0 1 1 
1 0 1 0 1 -1 1 1 1 0 1 0 1 0 1 0 
1 1 1 0 1 0 1 0 1 0 1 1 1 0 1 -1 
1 1 1 0 1 0 1 1 1 0 1 0 1 0 1 0 
1 0 1 0 1 0 1 0 1 0 1 0 1 0 1 0 
1 0 1 0 1 -1 1 0 1 -1 1 0 1 0 1 0 
1 0 1 0 1 0 1 -1 1 0 1 0 1 0 1 -1 
1 0 1 0 1 0 1 0 1 0 1 -1 1 0 1 0 
1 1 1 0 1 0 1 1 1 0 1 1 1 0 1 -1 
1 1 1 0 1 0 1 1 1 0 1 0 1 0 1 1 
1 0 1 0 1 0 1 0 1 0 1 0 1 0 1 0 
1 0 1 0 1 0 1 -1 1 0 1 1 1 0 1 0 
1 -1 1 0 1 0 1 0 1 0 1 0 1 0 1 -1 
1 0 1 -1 1 -1 1 0 1 0 1 0 1 1 1 0 
1 0 1 0 1 0 1 0 1 0 1 -1 1 0 1 0 
1 0 1 1 1 0 1 1 1 0 1 -1 1 0 1 0 
1 1 1 0 1 1 1 0 1 1 1 0 1 0 1 0 
1 0 1 0 1 0 1 0 1 1 1 0 1 -1 1 0 
1 0 1 0 1 0 1 0 1 0 1 0 1 0 1 0 
1 0 1 -1 1 0 1 0 1 0 1 -1 1 0 1 -1 
1 0 1 0 1 1 1 0 1 0 1 -1 1 -1 1 0 
1 0 1 0 1 0 1 0 1 0 1 0 1 0 1 0 
1 1 1 0 1 0 1 0 1 0 1 1 1 0 1 0 
1 1 1 0 1 0 1 1 1 0 1 0 1 0 1 1 
1 0 1 0 1 0 1 0 1 0 1 -1 1 0 1 0 
1 1 1 0 1 -1 1 0 1 0 1 0 1 0 1 0 
1 0 1 -1 1 0 1 0 1 -1 1 0 1 0 1 -1 
1 0 1 0 1 0 1 0 1 0 1 0 1 0 1 0 
1 0 1 0 1 0 1 0 1 0 1 0 1 0 1 0 
1 0 1 0 1 0 1 0 1 1 1 0 1 0 1 1 
1 0 1 0 1 0 1 0 1 0 1 0 1 1 1 0 
1 1 1 0 1 0 1 0 1 0 1 0 1 0 1 0 
1 -1 1 0 1 0 1 1 1 0 1 0 1 0 1 -1 
1 0 1 -1 1 0 1 -1 1 0 1 0 1 0 1 0 
1 -1 1 0 1 -1 1 -1 1 0 1 0 1 1 1 0 
1 0 1 0 1 0 4885 791 300 MP stroke
1 0 1 1 1 1 1 0 1 0 1 -1 1 0 1 1 
1 0 1 1 1 1 1 0 1 1 1 0 1 0 1 -1 
1 0 1 0 1 1 1 0 1 0 1 0 1 0 1 0 
1 0 1 0 1 0 1 0 1 0 1 0 1 0 1 0 
1 -1 1 0 1 -1 1 0 1 0 1 0 1 0 1 0 
1 -1 1 0 1 0 1 0 1 -1 1 0 1 0 1 0 
1 0 1 0 1 0 1 0 1 0 1 0 1 0 1 0 
1 0 1 1 1 0 1 -1 1 1 1 0 1 1 1 0 
1 1 1 0 1 0 1 0 1 0 1 0 1 0 1 0 
1 1 1 0 1 0 1 0 1 0 1 0 1 1 1 0 
1 0 1 0 1 -1 1 0 1 -1 1 0 1 1 1 -1 
1 0 1 0 1 -1 1 0 1 -1 1 1 1 -1 1 0 
1 0 1 0 1 -1 1 0 1 0 1 0 1 0 1 0 
1 0 1 0 1 0 1 0 1 0 1 0 1 0 1 0 
1 1 1 0 1 1 1 0 1 0 1 0 1 1 1 0 
1 0 1 0 1 0 1 1 1 1 1 0 1 0 1 0 
1 0 1 0 1 0 1 0 1 0 1 0 1 0 1 0 
1 0 1 -1 1 0 1 0 1 0 1 0 1 -1 1 0 
1 0 1 0 1 -1 1 0 1 -1 1 0 1 0 1 0 
1 0 1 0 1 0 1 0 1 0 1 -1 1 0 1 -1 
1 1 1 0 1 1 1 0 1 0 1 0 1 0 1 0 
1 0 1 0 1 1 1 0 1 1 1 0 1 0 1 0 
1 0 1 1 1 0 1 0 1 1 1 0 1 0 1 0 
1 0 1 0 1 0 1 0 1 0 1 0 1 0 1 0 
1 -1 1 0 1 0 1 -1 1 0 1 0 1 1 1 -1 
1 0 1 0 1 -1 1 -1 1 0 1 0 1 -1 1 0 
1 0 1 -1 1 1 1 0 1 0 1 1 1 -1 1 0 
1 0 1 0 1 0 1 1 1 0 1 0 1 0 1 0 
1 1 1 0 1 1 1 0 1 0 1 0 1 1 1 0 
1 0 1 0 1 1 1 0 1 0 1 0 1 0 1 0 
1 0 1 0 1 0 1 0 1 0 1 0 1 0 1 -1 
1 0 1 0 1 0 1 0 1 -1 1 0 1 0 1 -1 
1 0 1 0 1 0 1 0 1 0 1 0 1 -1 1 0 
1 0 1 -1 1 0 1 0 1 0 1 0 1 0 1 0 
1 0 1 0 1 0 1 1 1 0 1 0 1 1 1 0 
1 0 1 0 1 1 1 0 1 0 1 1 1 0 1 1 
1 0 1 0 1 1 1 0 1 0 1 0 1 0 1 0 
1 0 1 0 1 0 4586 784 300 MP stroke
1 -1 1 0 1 0 1 0 1 0 1 -1 1 0 1 -1 
1 0 1 0 1 -1 1 0 1 0 1 0 1 0 1 -1 
1 0 1 0 1 0 1 0 1 -1 1 0 1 -1 1 1 
1 0 1 1 1 0 1 0 1 -1 1 0 1 1 1 0 
1 1 1 0 1 0 1 0 1 0 1 1 1 0 1 1 
1 0 1 0 1 1 1 0 1 0 1 0 1 0 1 0 
1 1 1 0 1 0 1 0 1 0 1 0 1 0 1 0 
1 0 1 0 1 -1 1 0 1 -1 1 0 1 -1 1 0 
1 -1 1 0 1 0 1 0 1 0 1 0 1 0 1 -1 
1 0 1 -1 1 0 1 0 1 0 1 0 1 0 1 0 
1 0 1 0 1 1 1 0 1 0 1 0 1 1 1 0 
1 0 1 0 1 0 1 1 1 0 1 1 1 0 1 0 
1 0 1 0 1 1 1 1 1 0 1 0 1 -1 1 0 
1 0 1 0 1 1 1 0 1 0 1 0 1 -1 1 0 
1 0 1 0 1 -1 1 0 1 0 1 0 1 -1 1 0 
1 -1 1 0 1 0 1 0 1 -1 1 0 1 -1 1 0 
1 0 1 0 1 0 1 0 1 1 1 0 1 0 1 0 
1 -1 1 0 1 0 1 0 1 1 1 0 1 0 1 1 
1 0 1 0 1 1 1 0 1 1 1 0 1 0 1 0 
1 0 1 0 1 0 1 1 1 0 1 1 1 0 1 -1 
1 0 1 0 1 0 1 0 1 1 1 0 1 -1 1 0 
1 -1 1 0 1 0 1 0 1 0 1 -1 1 -1 1 0 
1 0 1 0 1 0 1 0 1 -1 1 0 1 -1 1 0 
1 0 1 0 1 0 1 0 1 0 1 0 1 1 1 0 
1 0 1 0 1 0 1 0 1 0 1 1 1 0 1 0 
1 1 1 0 1 0 1 0 1 0 1 1 1 0 1 0 
1 0 1 0 1 1 1 0 1 0 1 0 1 0 1 0 
1 0 1 0 1 0 1 0 1 0 1 -1 1 0 1 -1 
1 0 1 0 1 0 1 0 1 0 1 -1 1 0 1 -1 
1 0 1 0 1 0 1 0 1 0 1 0 1 -1 1 0 
1 0 1 0 1 0 1 0 1 0 1 0 1 0 1 0 
1 0 1 0 1 1 1 0 1 0 1 1 1 0 1 1 
1 0 1 0 1 1 1 0 1 0 1 0 1 1 1 0 
1 0 1 1 1 0 1 0 1 0 1 0 1 0 1 0 
1 0 1 -1 1 0 1 0 1 0 1 -1 1 0 1 -1 
1 0 1 -1 1 0 1 0 1 0 1 -1 1 0 1 0 
1 -1 1 0 1 -1 1 0 1 0 1 0 1 0 1 0 
1 0 1 0 1 0 4287 791 300 MP stroke
1 1 1 0 1 0 1 0 1 1 1 0 1 0 1 0 
1 0 1 0 1 1 1 0 1 1 1 0 1 1 1 0 
1 0 1 1 1 0 1 0 1 0 1 0 1 0 1 0 
1 0 1 0 1 0 1 0 1 0 1 0 1 0 1 -1 
1 0 1 0 1 0 1 0 1 -1 1 0 1 -1 1 -1 
1 0 1 0 1 -1 1 0 1 0 1 -1 1 0 1 0 
1 0 1 0 1 0 1 0 1 0 1 0 1 0 1 0 
1 0 1 1 1 0 1 0 1 1 1 0 1 0 1 0 
1 0 1 1 1 0 1 1 1 0 1 1 1 0 1 0 
1 1 1 0 1 0 1 1 1 0 1 0 1 -1 1 0 
1 0 1 0 1 0 1 0 1 0 1 0 1 -1 1 0 
1 -1 1 -1 1 0 1 0 1 1 1 -1 1 0 1 -1 
1 -1 1 0 1 -1 1 0 1 0 1 1 1 0 1 0 
1 -1 1 0 1 0 1 -1 1 1 1 0 1 0 1 0 
1 0 1 0 1 1 1 0 1 0 1 1 1 0 1 1 
1 0 1 1 1 0 1 0 1 1 1 0 1 0 1 0 
1 0 1 0 1 1 1 0 1 0 1 0 1 0 1 0 
1 0 1 0 1 0 1 -1 1 0 1 -1 1 0 1 0 
1 -1 1 0 1 0 1 0 1 0 1 0 1 -1 1 -1 
1 -1 1 -1 1 0 1 0 1 0 1 1 1 0 1 -1 
1 0 1 0 1 0 1 0 1 1 1 0 1 0 1 0 
1 1 1 0 1 0 1 0 1 1 1 1 1 1 1 0 
1 0 1 0 1 0 1 0 1 1 1 0 1 0 1 0 
1 0 1 0 1 0 1 1 1 0 1 0 1 -1 1 0 
1 0 1 0 1 0 1 0 1 0 1 0 1 -1 1 0 
1 -1 1 -1 1 0 1 0 1 -1 1 0 1 0 1 0 
1 -1 1 0 1 0 1 -1 1 0 1 0 1 0 1 0 
1 0 1 0 1 0 1 0 1 0 1 0 1 1 1 0 
1 0 1 1 1 0 1 0 1 1 1 0 1 0 1 1 
1 0 1 1 1 0 1 0 1 1 1 0 1 0 1 0 
1 1 1 0 1 0 1 0 1 -1 1 0 1 0 1 0 
1 -1 1 0 1 0 1 0 1 -1 1 0 1 0 1 0 
1 -1 1 0 1 -1 1 -1 1 0 1 0 1 0 1 -1 
1 0 1 -1 1 0 1 1 1 0 1 0 1 0 1 0 
1 0 1 -1 1 0 1 1 1 0 1 1 1 0 1 1 
1 0 1 0 1 0 1 0 1 1 1 0 1 1 1 0 
1 1 1 0 1 1 1 0 1 0 1 0 1 1 1 0 
1 0 1 0 1 -1 3988 786 300 MP stroke
1 0 1 0 1 -1 1 0 1 0 1 0 1 0 1 -1 
1 0 1 0 1 -1 1 0 1 -1 1 0 1 0 1 -1 
1 0 1 -1 1 0 1 -1 1 0 1 0 1 0 1 0 
1 0 1 0 1 0 1 0 1 0 1 0 1 0 1 0 
1 0 1 1 1 1 1 0 1 1 1 0 1 1 1 0 
1 0 1 0 1 1 1 0 1 1 1 1 1 0 1 0 
1 0 1 0 1 0 1 0 1 0 1 0 1 0 1 0 
1 0 1 0 1 0 1 -1 1 0 1 0 1 -1 1 0 
1 -1 1 0 1 0 1 -1 1 0 1 -1 1 0 1 -1 
1 0 1 0 1 0 1 0 1 -1 1 0 1 0 1 -1 
1 0 1 0 1 0 1 1 1 0 1 1 1 0 1 0 
1 0 1 0 1 0 1 1 1 0 1 1 1 1 1 1 
1 0 1 0 1 0 1 0 1 1 1 0 1 0 1 0 
1 0 1 0 1 1 1 0 1 0 1 0 1 0 1 0 
1 -1 1 0 1 0 1 -1 1 0 1 0 1 -1 1 0 
1 -1 1 0 1 0 1 -1 1 0 1 0 1 -1 1 0 
1 -1 1 0 1 -1 1 0 1 1 1 0 1 -1 1 0 
1 0 1 0 1 0 1 0 1 0 1 1 1 0 1 1 
1 0 1 1 1 0 1 1 1 0 1 1 1 0 1 0 
1 0 1 1 1 0 1 0 1 1 1 0 1 1 1 0 
1 0 1 0 1 0 1 0 1 0 1 0 1 -1 1 0 
1 -1 1 0 1 0 1 -1 1 0 1 0 1 0 1 -1 
1 -1 1 0 1 -1 1 0 1 0 1 0 1 -1 1 0 
1 0 1 -1 1 0 1 0 1 0 1 0 1 0 1 0 
1 0 1 0 -1 0 2 0 1 0 1 0 1 1 1 0 
1 1 1 0 1 1 1 0 1 1 1 0 1 1 1 1 
1 1 1 0 1 0 1 0 1 0 1 0 1 0 1 0 
1 0 1 0 1 0 1 0 1 0 1 0 1 0 1 -1 
1 -1 1 0 1 0 1 0 1 0 1 -1 1 0 1 -1 
1 0 1 -1 1 0 1 0 1 0 1 -1 1 0 1 -1 
1 0 1 0 1 0 1 0 1 0 1 -1 1 1 1 0 
1 0 1 0 1 1 1 0 1 0 1 0 1 1 1 0 
1 1 1 0 1 0 1 1 1 0 1 1 1 0 1 1 
1 0 1 1 1 0 1 0 1 0 1 0 1 0 1 1 
1 0 1 0 1 0 1 0 1 -1 1 0 1 -1 1 0 
1 0 1 0 1 -1 1 0 0 -1 2 -2 1 -1 1 0 
1 0 1 1 1 0 1 -1 1 0 1 -1 1 0 1 0 
1 0 1 -1 1 0 3690 795 300 MP stroke
1 0 1 1 1 0 1 0 1 0 1 1 1 0 1 0 
1 0 1 0 1 1 1 1 1 0 1 0 1 0 1 1 
1 1 1 0 1 1 1 0 1 0 1 0 1 1 1 0 
1 1 1 0 1 0 1 -1 1 0 1 0 1 0 1 1 
1 -1 1 0 1 0 1 -1 1 -1 1 0 1 -1 1 0 
1 0 1 -1 1 0 1 0 1 -1 1 -1 1 0 1 -1 
1 0 1 -1 1 0 1 0 1 0 1 0 1 0 1 0 
1 0 1 0 1 1 1 0 1 0 1 1 1 0 1 0 
1 0 1 1 1 0 1 1 1 1 1 0 1 1 1 0 
1 0 1 0 1 0 1 1 1 0 1 1 1 0 1 1 
1 0 1 0 1 0 1 0 1 0 1 -1 1 0 1 0 
1 0 1 0 1 -1 1 -1 1 -1 1 -1 1 0 1 0 
1 0 1 -1 1 0 1 -1 1 0 1 -1 1 0 1 -1 
1 0 1 0 1 0 1 0 1 1 1 0 1 0 1 0 
1 0 1 0 1 0 1 0 1 1 1 0 1 0 1 0 
1 0 1 1 1 1 1 0 1 1 1 0 1 1 1 0 
1 1 1 1 1 0 1 1 1 0 1 0 1 0 1 -1 
1 0 1 0 1 0 1 0 1 1 1 0 1 0 1 -1 
1 -1 1 0 1 -1 1 0 1 -1 1 0 1 -1 1 0 
1 -1 1 0 1 -1 1 0 1 -1 1 0 1 0 1 0 
1 -1 1 0 1 0 1 0 1 0 1 0 1 0 1 1 
1 0 1 1 1 0 1 0 1 0 1 0 1 0 1 1 
1 1 1 1 1 1 1 0 1 0 1 0 1 1 1 1 
1 0 1 1 1 0 1 0 1 0 1 0 1 0 1 0 
1 0 1 0 1 0 1 0 1 -1 1 0 1 0 1 0 
1 -1 1 0 1 -1 1 -1 1 -1 1 -1 1 0 1 0 
1 0 1 0 1 -1 1 0 1 -1 1 0 1 0 1 0 
1 -1 1 0 1 0 1 0 1 1 1 0 1 0 1 0 
1 1 1 0 1 0 1 0 1 0 1 1 1 1 1 1 
1 1 1 0 1 1 1 0 1 1 1 0 1 1 1 0 
1 0 1 0 1 0 1 0 1 0 1 0 1 1 1 0 
1 0 1 0 1 -1 1 0 1 -1 1 0 1 0 1 0 
1 -1 1 -1 1 -1 1 -1 1 0 1 0 1 -1 1 0 
1 -1 1 0 1 -1 1 0 1 1 1 -1 1 0 1 -1 
1 0 1 0 1 0 1 1 1 0 1 0 1 1 1 0 
1 1 1 0 1 1 1 0 1 1 1 0 1 0 1 1 
1 0 1 1 1 1 1 1 1 0 1 1 1 0 1 0 
1 0 1 0 1 1 3391 784 300 MP stroke
1 0 1 0 1 0 1 0 1 -1 1 0 1 0 1 0 
1 0 1 -1 1 -1 1 -1 1 -1 1 0 1 -1 1 0 
1 0 1 0 1 0 -1 0 2 -2 1 -1 1 -1 1 0 
1 1 1 0 1 0 1 -1 1 0 1 0 1 0 1 1 
1 0 1 0 1 -1 1 0 1 1 1 1 1 1 1 1 
1 1 1 0 1 0 1 1 1 1 1 0 1 0 1 1 
1 0 1 0 1 1 1 0 1 1 1 0 1 0 1 0 
1 0 1 0 1 0 1 0 1 0 1 0 1 0 1 -1 
1 0 1 0 1 0 0 -1 2 -2 1 0 1 -1 1 0 
1 -1 1 0 1 0 1 -1 1 0 1 -1 1 0 1 0 
1 -1 1 0 1 0 1 0 1 -1 1 0 1 0 1 1 
1 1 1 0 1 1 1 0 1 0 1 0 1 1 1 1 
1 1 1 0 1 1 1 1 1 1 1 0 1 1 1 0 
1 0 1 1 1 0 1 0 1 0 1 0 1 0 1 0 
1 1 1 0 1 0 1 -1 1 0 1 -1 1 0 1 0 
1 0 1 -1 1 0 1 0 1 -1 1 -1 1 -1 1 -1 
1 -1 1 -1 1 0 1 0 1 0 1 0 1 -1 1 0 
1 -1 1 0 1 0 1 0 1 0 1 1 1 0 1 1 
1 0 1 0 1 0 1 0 0 1 2 2 1 1 1 1 
1 0 1 1 1 0 1 1 1 0 1 1 1 0 1 1 
1 0 1 0 1 0 1 1 1 0 1 0 1 0 1 0 
1 0 1 0 1 0 1 -1 1 0 1 0 1 -1 1 0 
1 -1 1 -1 1 0 1 -1 1 -1 1 -1 1 0 1 -1 
1 0 1 -1 1 0 1 -1 1 -1 1 0 1 0 1 0 
1 0 1 0 1 0 1 0 1 1 1 0 1 1 1 0 
1 1 1 0 1 1 1 0 1 1 1 1 1 0 1 0 
1 1 1 1 1 0 1 1 1 1 1 1 1 1 1 0 
1 0 1 0 1 0 1 0 1 0 1 0 1 0 1 0 
1 0 1 0 1 0 1 -1 1 0 1 -1 1 0 1 -1 
1 -1 1 -1 1 0 1 -1 1 0 1 -1 1 -1 1 -1 
1 0 1 0 1 -1 1 0 1 -1 1 0 1 0 1 0 
1 0 1 0 1 0 1 1 1 1 1 0 1 1 1 0 
1 1 1 1 1 0 1 1 1 0 1 1 1 1 1 1 
1 1 1 1 1 0 1 1 1 0 1 0 1 1 1 0 
1 0 1 0 1 0 1 0 1 0 1 0 1 0 1 0 
1 0 1 -1 1 -1 1 -1 1 -1 1 0 1 -1 1 0 
1 -1 1 -1 1 0 1 -1 1 -1 1 0 1 -1 1 0 
1 0 1 0 1 -1 3093 789 300 MP stroke
1 -1 1 0 1 0 1 1 1 0 1 0 1 1 1 0 
1 0 1 1 1 0 1 0 1 1 1 1 1 1 1 1 
1 1 1 0 1 1 1 1 1 0 1 1 1 1 1 0 
1 1 1 0 1 1 1 0 1 0 1 0 1 0 1 0 
1 0 1 -1 1 0 1 0 1 0 1 -1 1 0 1 -1 
1 -1 1 -1 1 -1 1 0 1 0 1 -1 1 -1 1 -1 
1 -1 1 0 1 0 1 0 1 0 1 -1 1 -1 1 0 
1 0 1 0 1 1 1 0 1 0 1 0 1 0 1 0 
1 1 1 1 1 1 1 0 1 1 1 1 1 0 1 0 
1 1 0 1 2 2 1 1 1 1 1 1 1 0 1 0 
1 0 1 0 1 0 1 0 1 0 1 0 1 0 1 0 
1 0 1 0 1 -1 1 -1 1 0 1 0 1 0 1 0 
1 -1 1 -1 0 -1 2 -2 1 -1 1 0 1 -1 1 0 
1 -1 1 -1 1 0 1 -1 1 0 1 0 1 0 1 0 
1 0 1 0 1 1 1 0 1 1 1 0 1 0 1 1 
1 0 1 1 1 1 1 1 1 0 1 1 1 0 1 1 
1 1 1 1 1 1 1 1 1 0 1 1 1 0 1 0 
1 0 1 0 1 1 1 0 1 0 1 0 1 0 1 0 
1 0 1 -1 1 0 1 -1 1 -1 1 -1 1 -1 1 0 
1 0 1 0 1 -1 0 -1 2 -2 1 -1 1 0 1 -1 
1 0 1 -1 1 0 1 -1 1 0 1 0 1 0 1 0 
1 0 1 0 1 1 1 0 1 1 1 1 1 0 1 1 
1 1 1 1 1 1 1 1 1 1 1 0 1 1 1 0 
1 1 1 1 1 0 1 1 1 1 1 0 1 0 1 1 
1 0 1 0 1 0 1 0 1 0 1 0 1 -1 1 -1 
1 0 1 -1 1 -1 1 -1 1 -1 1 0 1 -1 1 -1 
1 0 1 0 1 -1 1 0 0 -1 2 -2 1 -1 1 0 
1 -1 1 -1 1 0 1 0 1 0 1 1 1 0 1 0 
1 1 1 0 1 0 1 1 1 1 1 1 1 1 1 1 
1 1 1 0 1 0 1 1 0 1 2 2 1 1 1 0 
1 1 1 0 1 1 1 0 1 1 1 0 1 1 1 -1 
1 0 1 1 1 0 1 0 1 0 1 -1 1 -1 1 -1 
1 -1 1 -1 1 -1 1 0 1 -1 1 -1 1 -1 1 0 
1 0 1 -1 1 -1 1 -1 1 -1 1 -1 1 -1 1 0 
1 0 1 0 1 0 1 0 1 0 1 0 1 1 1 1 
1 0 1 0 1 1 1 0 1 1 1 0 1 1 1 1 
1 1 1 1 1 1 1 1 1 1 1 1 1 1 1 1 
1 0 1 0 1 1 2794 769 300 MP stroke
1 0 1 0 1 0 1 0 1 1 1 0 1 0 1 0 
1 -1 1 0 1 -1 1 -1 1 -1 1 -1 1 -1 1 -1 
1 -1 1 -1 1 0 1 -1 1 0 1 -1 1 -1 1 -1 
1 -1 1 0 1 -1 1 0 1 -1 1 0 1 0 1 0 
1 0 1 0 1 1 1 0 1 1 1 1 1 1 1 1 
1 1 1 1 1 1 1 0 1 0 1 1 1 1 1 1 
1 0 1 1 1 1 1 1 1 1 1 1 1 1 1 0 
1 0 1 0 1 0 1 0 1 -1 1 0 1 0 1 -1 
1 -1 1 -1 1 -1 1 -1 1 0 1 -1 1 0 1 -1 
1 -1 1 -1 1 -1 1 -1 1 -1 1 -1 1 -1 1 0 
1 0 1 -1 1 0 1 0 1 -1 1 0 1 0 1 1 
1 0 1 1 1 0 1 1 1 0 1 1 1 0 1 1 
1 1 0 1 2 2 1 1 1 1 1 1 1 1 1 1 
1 0 1 0 1 1 1 0 1 1 1 0 1 0 1 1 
1 0 1 0 1 0 1 0 1 -1 1 -1 1 -1 1 0 
1 0 1 -1 1 0 0 -1 2 -2 0 -1 2 -2 1 -1 
1 -1 1 -1 1 -1 1 0 1 -1 1 -1 1 0 1 0 
1 -1 1 0 1 -1 1 -1 1 1 1 0 1 1 1 0 
1 0 1 1 1 0 0 1 2 2 1 1 1 0 1 0 
1 1 1 1 1 1 1 1 1 1 1 1 1 0 1 1 
1 0 -1 0 2 2 1 1 1 0 1 1 1 0 1 0 
1 0 1 0 1 -1 1 0 1 -1 1 -1 1 0 1 -1 
1 0 1 -1 0 -1 2 -2 1 -1 1 -1 1 0 1 -1 
1 -1 1 -1 0 -2 2 -2 1 -1 1 -1 1 0 1 0 
1 0 1 0 1 0 1 0 1 0 1 0 1 -1 1 1 
1 0 1 1 1 1 1 1 1 1 1 1 1 1 1 1 
1 1 1 1 1 0 1 1 1 0 1 1 1 1 1 1 
1 1 1 1 1 0 1 1 1 0 1 0 1 0 1 0 
1 0 1 0 1 -1 1 -1 1 0 1 -1 1 -1 1 -1 
1 -1 0 -1 2 -2 0 -1 2 -2 1 -1 1 -1 1 -1 
1 -1 1 -1 1 -1 1 -1 1 0 1 0 1 -1 1 -1 
1 0 1 0 1 0 1 0 1 0 1 1 1 0 1 0 
1 0 1 1 1 0 1 1 1 1 0 1 2 2 1 1 
0 1 2 2 1 1 1 0 1 0 1 1 1 0 1 1 
1 0 1 1 1 0 1 1 1 0 1 0 1 0 1 -1 
1 0 1 -1 1 -1 1 -1 0 -1 2 -2 1 -1 1 -1 
1 0 0 -1 2 -2 1 -1 0 -2 2 -2 1 -1 1 0 
0 -1 2 -2 1 -1 2496 798 300 MP stroke
1 -1 1 -1 1 0 1 -1 1 0 1 0 1 0 1 0 
1 0 1 0 1 1 1 0 1 1 1 0 1 1 1 1 
1 1 1 1 1 1 1 1 1 1 1 1 1 1 1 1 
1 1 1 1 1 0 1 1 1 0 1 0 1 0 1 0 
1 0 1 0 1 0 1 -1 1 -1 1 -1 1 -1 1 -1 
1 -1 0 -1 2 -2 1 -1 0 -1 2 -2 1 -1 1 -1 
0 -2 2 -2 0 -2 1 -1 1 -1 1 -1 1 -1 1 0 
1 0 0 -1 2 -2 1 -1 1 0 1 0 1 0 1 0 
1 0 1 0 1 1 1 0 1 1 1 0 1 1 1 1 
1 1 1 1 1 0 1 1 1 1 1 1 1 1 1 0 
1 1 1 1 1 0 1 1 1 -1 1 0 1 0 1 -1 
1 0 1 -1 1 0 1 -1 1 -1 1 -1 1 -1 0 -1 
2 -2 0 -1 2 -2 0 -1 1 -1 0 -1 1 -1 0 -1 
1 -1 0 -1 1 -1 0 -1 2 -2 0 -1 2 -2 0 -1 
2 -2 1 -1 0 -1 2 -2 1 -1 1 -1 1 0 1 -1 
1 0 1 0 1 0 1 -1 1 0 1 0 1 1 1 0 
1 1 1 1 1 1 1 0 1 1 1 0 1 1 1 0 
1 1 1 1 1 1 1 0 1 1 1 0 1 -1 1 -1 
1 -1 1 0 1 0 1 0 1 0 -1 0 2 -2 0 -1 
1 -1 0 -1 1 -1 0 -1 1 -1 0 -1 1 -1 1 -1 
0 -2 2 -2 1 -1 0 -2 2 -2 0 -1 2 -2 0 -2 
1 -1 0 -3 1 -1 0 -2 1 -1 0 -2 1 -1 1 -1 
1 -1 1 -1 1 -1 0 -1 2 -2 1 -1 1 -1 1 -1 
1 -1 1 0 1 -1 1 0 1 0 1 -1 1 0 1 0 
1 1 1 1 1 1 1 0 1 0 1 -1 1 0 1 1 
1 0 1 1 1 0 1 0 1 0 1 -1 1 0 1 0 
0 -1 2 -2 1 -1 0 -1 2 -2 1 -1 0 -2 2 -2 
0 -2 1 -1 0 -1 1 -1 0 -1 1 -1 0 -2 1 -1 
0 -1 1 -1 0 -2 1 -1 0 -2 1 -1 0 -2 1 -1 
0 -2 1 -1 0 -2 1 -1 0 -2 1 -1 0 -1 1 -1 
0 -1 1 -1 0 -1 1 -1 0 -1 1 -1 0 -1 1 -1 
0 -2 1 -1 0 -1 1 -1 0 -2 1 -1 0 -1 2 -2 
1 -1 1 -1 0 -1 2 -2 1 -1 1 0 1 0 1 0 
1 0 1 0 1 0 1 0 1 -1 1 0 1 1 1 -1 
1 0 1 -1 1 0 1 0 1 1 1 0 1 0 1 -1 
0 -1 2 -2 0 -1 1 -1 0 -1 1 -1 0 -1 1 -1 
0 -1 1 -1 1 -1 0 -1 2 -2 0 -2 2 -2 0 -2 
1 -1 0 -2 1 -1 2236 975 300 MP stroke
0 -3 1 -1 0 -3 1 -1 0 -2 1 -1 0 -3 1 -1 
0 -2 1 -1 0 -1 1 -1 0 -1 1 -1 0 -2 2 -2 
0 -2 1 -1 0 -3 1 -1 0 -2 1 -1 0 -2 1 -1 
0 -2 1 -1 0 -1 1 -1 0 -1 1 -1 1 -1 1 -1 
1 -1 1 -1 1 -1 1 0 1 -1 1 0 1 0 1 0 
1 0 1 -1 1 0 1 1 1 0 1 1 1 1 1 1 
1 0 1 0 1 0 1 0 1 0 1 -1 1 1 1 0 
1 0 1 0 1 -1 0 -1 2 -2 0 -1 2 -2 0 -1 
2 -2 1 -1 0 -2 2 -2 0 -2 1 -1 0 -1 1 -1 
0 -1 1 -1 0 -2 1 -1 0 -1 1 -1 0 -1 1 -1 
0 -2 1 -1 0 -2 2 -2 0 -1 1 -1 1 -1 1 -1 
1 -1 1 -1 0 -1 2 -2 1 0 1 -1 1 0 1 1 
1 1 1 1 1 1 1 1 1 1 1 0 -1 0 2 2 
0 1 1 1 0 2 1 1 0 2 2 2 0 1 2 2 
0 1 2 2 0 2 1 1 0 1 1 1 0 2 1 1 
0 1 1 1 0 1 2 2 1 0 1 1 1 1 1 1 
1 1 1 0 1 1 1 0 1 0 1 0 1 0 1 -1 
1 -1 1 -1 1 0 0 -1 2 -2 1 -1 1 0 1 -1 
1 0 1 0 1 0 1 -1 1 -1 1 0 1 -1 1 0 
1 1 1 1 1 1 1 1 0 2 2 2 0 1 2 2 
0 1 1 1 0 1 1 1 0 2 1 1 0 2 1 1 
0 2 1 1 0 2 1 1 0 2 1 1 0 2 1 1 
0 2 1 1 0 2 1 1 0 2 1 1 0 2 1 1 
0 1 1 1 0 2 1 1 0 2 1 1 0 3 1 1 
0 3 1 1 0 1 1 1 1 0 0 1 2 2 0 1 
1 1 0 2 1 1 1 1 1 1 1 0 1 0 1 0 
1 0 1 0 1 0 1 0 1 -1 1 0 1 -1 1 0 
1 0 1 -1 1 -1 1 -1 1 -1 1 -1 1 1 1 0 
1 0 1 1 1 0 1 1 1 1 0 1 2 2 1 1 
0 1 2 2 0 1 1 1 0 3 1 1 0 2 1 1 
0 2 1 1 0 2 1 1 0 1 1 1 0 1 1 1 
0 2 1 1 0 1 1 1 0 2 1 1 0 3 1 1 
0 3 1 1 0 3 1 2 0 2 1 1 0 1 1 1 
0 2 2 2 0 1 1 1 0 1 1 1 0 1 1 1 
0 1 1 1 0 1 1 1 0 1 2 2 1 0 -1 0 
2 0 1 0 1 0 1 0 1 0 1 0 1 -1 1 -1 
1 0 1 -1 0 -2 2 -2 1 -1 1 -1 1 0 1 -1 
1 -1 1 -1 1 -1 2007 914 300 MP stroke
1 -1 1 0 1 1 1 0 1 1 1 0 1 1 0 1 
2 2 0 1 1 1 0 1 1 1 0 1 1 1 0 1 
1 1 0 2 1 1 0 1 1 1 0 2 1 1 0 2 
1 1 0 2 1 1 0 1 1 1 0 2 1 1 0 1 
1 1 0 2 1 1 0 3 1 1 0 3 1 1 0 1 
1 1 0 2 1 1 0 1 1 1 0 1 2 2 0 2 
2 2 1 1 1 1 1 1 1 0 1 1 1 0 1 0 
1 -1 0 -1 2 -2 1 -1 1 -1 1 -1 1 -1 0 -1 
2 -2 0 -2 2 -2 0 -1 2 -2 1 -1 1 -1 1 -1 
1 -1 1 -1 1 -1 1 -1 1 0 1 0 1 1 1 1 
0 1 2 2 0 1 2 2 0 1 1 1 0 1 1 1 
0 1 1 1 0 2 1 1 0 2 1 1 0 2 1 1 
0 1 1 1 0 2 1 1 0 2 1 1 0 2 1 1 
0 2 1 1 0 2 1 1 0 2 1 1 0 1 1 1 
0 2 1 1 0 1 1 1 0 1 1 1 1 1 1 1 
0 1 2 2 1 1 1 0 1 0 1 -1 1 -1 1 -1 
1 -1 1 -1 1 -1 1 -1 0 -2 2 -2 0 -2 1 -1 
0 -1 1 -1 0 -1 2 -2 0 -1 1 -1 0 -1 1 -1 
1 -1 0 -2 2 -2 1 -1 1 -1 1 -1 1 -1 1 0 
1 0 1 0 1 0 1 1 1 1 0 1 2 2 1 1 
0 2 1 1 0 1 1 1 0 2 1 1 0 1 1 1 
0 1 1 1 0 2 1 1 0 2 1 1 0 3 1 1 
0 2 1 1 0 2 1 1 0 2 1 1 0 2 2 2 
0 2 1 1 0 1 1 1 0 2 2 2 1 1 1 1 
1 1 1 1 1 1 1 0 1 -1 1 0 1 -1 0 -2 
2 -2 0 -1 1 -1 0 -1 1 -1 0 -1 1 -1 1 -1 
0 -2 1 -1 0 -1 1 -1 0 -2 1 -1 0 -1 1 -1 
0 -2 2 -2 0 -1 1 -1 0 -2 1 -1 0 -1 1 -1 
0 -2 2 -2 1 0 1 0 1 0 1 -1 1 0 1 -1 
1 1 1 0 1 1 0 2 2 2 0 1 1 1 0 2 
1 1 0 1 1 1 0 2 1 1 0 2 1 1 0 1 
1 1 0 2 1 1 0 2 1 1 0 1 1 1 0 3 
1 1 0 2 1 1 0 2 1 1 0 2 1 1 0 1 
1 1 0 1 2 2 0 2 1 1 0 1 1 1 1 1 
1 1 1 0 1 0 1 0 1 0 1 -1 1 -1 0 -1 
2 -2 0 -1 1 -1 1 -1 0 -2 2 -2 0 -2 1 -1 
0 -1 1 -1 0 -3 1 -1 0 -2 1 -1 0 -2 1 -1 
0 -1 1 -1 0 -2 1794 812 300 MP stroke
2 -2 0 -2 1 -1 0 -1 1 -1 0 -2 1 -1 1 -1 
1 -1 1 -1 1 -1 1 0 1 0 1 1 1 1 1 1 
1 1 0 2 2 2 0 1 1 1 0 1 1 1 0 2 
2 2 0 3 1 1 0 2 1 1 0 4 1 1 0 2 
1 1 0 2 1 1 0 1 1 1 0 1 1 1 0 2 
1 1 0 2 1 1 0 3 1 1 0 1 1 1 0 2 
2 2 0 1 2 2 1 1 1 0 1 0 1 -1 1 -1 
0 -1 2 -2 1 0 0 -2 2 -2 0 -2 1 -1 0 -2 
1 -1 0 -2 1 -1 0 -2 1 -1 0 -2 1 -1 0 -1 
1 -1 0 -2 1 -1 0 -3 1 -1 0 -2 1 -1 0 -2 
1 -1 0 -1 1 -1 0 -2 1 -1 0 -1 1 -1 0 -1 
1 -1 0 -1 2 -2 1 -1 1 0 1 0 1 1 1 0 
1 1 0 1 2 2 1 1 0 2 1 1 0 2 1 1 
0 2 1 1 0 2 1 1 0 3 1 1 0 1 1 1 
0 2 1 1 0 2 1 1 0 3 1 1 0 3 1 1 
0 3 1 1 0 2 1 1 0 1 1 1 0 2 1 1 
0 2 2 2 0 2 2 2 1 1 1 1 1 0 1 0 
1 0 1 -1 0 -1 2 -2 0 -1 2 -2 0 -2 1 -1 
0 -2 1 -1 0 -2 1 -1 0 -2 1 -1 0 -3 1 -1 
0 -2 1 -1 0 -3 1 -1 0 -2 1 -1 0 -2 1 -1 
0 -2 1 -1 0 -2 1 -1 0 -3 1 -1 0 -2 1 -1 
0 -1 1 -1 0 -2 2 -2 1 -1 1 -1 1 -1 1 -1 
1 -1 1 1 1 1 0 1 2 2 0 2 1 1 0 2 
1 1 0 2 1 1 0 2 1 1 0 2 1 1 0 3 
1 1 0 3 1 1 0 2 1 1 0 2 1 1 0 2 
1 1 0 3 1 1 0 3 1 1 0 2 1 1 0 3 
1 1 0 2 1 1 0 2 1 1 0 2 2 2 0 2 
2 2 1 0 1 1 1 0 1 0 1 0 1 -1 1 -1 
0 -1 1 -1 0 -1 1 -1 0 -2 1 -1 0 -2 1 -1 
0 -3 1 -1 0 -3 1 -1 0 -3 1 -1 0 -1 1 -1 
0 -2 1 -1 0 -3 1 -1 0 -3 1 -1 0 -4 1 -1 
0 -3 1 -1 0 -2 1 -1 0 -2 1 -1 0 -2 1 -1 
0 -2 1 -1 0 -2 1 -1 0 -2 2 -2 1 -1 1 0 
1 0 1 0 0 1 2 2 1 1 0 2 1 1 0 1 
1 1 0 2 1 1 0 2 1 1 0 2 1 1 0 1 
1 1 0 3 1 1 0 3 1 1 0 4 1 1 0 3 
1 1 0 3 1 1 0 2 1 1 0 4 1 1 0 3 
1 1 0 3 1 1 1601 762 300 MP stroke
0 2 1 1 0 3 2 2 0 2 1 1 0 1 1 1 
0 1 2 2 1 0 1 0 1 0 -1 0 2 -2 0 -1 
2 -2 0 -1 1 -1 0 -1 1 -1 0 -2 1 -1 0 -3 
1 -1 0 -3 1 -1 0 -3 1 -1 0 -3 1 -1 0 -3 
1 -1 0 -2 1 -1 0 -3 1 -2 0 -3 1 -1 0 -4 
1 -1 0 -3 1 -1 0 -4 1 -1 0 -1 1 -1 0 -3 
1 -1 0 -2 1 -1 0 -1 1 -1 0 -2 2 -2 1 -1 
1 0 1 0 0 1 2 2 0 1 2 2 1 1 0 2 
1 1 0 2 1 1 0 3 1 1 0 3 1 1 0 3 
1 1 0 3 1 1 0 3 1 1 0 3 1 1 0 4 
1 1 0 4 1 2 0 3 1 2 0 2 1 1 0 3 
1 1 0 2 1 1 0 2 1 1 0 3 1 1 0 2 
1 1 0 2 1 1 1 1 1 1 1 0 1 0 1 0 
-1 0 2 0 1 -1 0 -1 1 -1 0 -3 1 -1 0 -2 
1 -1 0 -2 1 -1 0 -2 1 -1 0 -2 1 -1 0 -2 
1 -1 0 -3 1 -2 0 -3 1 -1 0 -4 1 -1 0 -3 
1 -1 0 -4 1 -1 0 -2 1 -1 0 -3 1 -2 0 -3 
1 -1 0 -4 1 -1 0 -4 1 -1 0 -2 1 -1 0 -1 
1 -1 0 -1 1 -1 0 -2 1 -1 0 -2 2 -2 1 0 
1 0 0 1 2 2 1 1 0 1 2 2 0 1 1 1 
0 3 1 1 0 4 1 1 0 4 1 1 0 4 1 1 
0 4 1 1 0 4 1 1 0 3 1 2 0 5 1 1 
0 5 1 2 0 4 1 1 0 4 1 1 0 2 1 1 
0 2 1 1 0 3 1 1 0 3 1 1 0 3 1 1 
0 1 1 1 1 1 1 0 1 0 1 1 1 -1 1 -1 
0 -1 2 -2 0 -3 1 -1 0 -2 1 -1 0 -4 1 -1 
0 -3 1 -2 0 -4 1 -1 0 -4 1 -1 0 -3 1 -1 
0 -4 1 -2 0 -4 1 -2 0 -4 1 -2 0 -4 1 -1 
0 -5 1 -1 0 -3 1 -1 0 -4 1 -1 0 -4 1 -1 
0 -3 1 -1 0 -3 1 -1 0 -2 1 -1 0 -1 1 -1 
0 -2 2 -2 1 0 1 0 0 2 2 2 0 1 1 1 
0 2 1 1 0 3 1 1 0 3 1 1 0 3 1 2 
0 4 1 1 0 2 1 2 0 4 1 1 0 3 1 2 
0 3 1 2 0 4 1 1 0 5 1 1 0 3 1 2 
0 4 1 1 0 5 1 1 0 4 1 1 0 4 1 1 
0 3 1 1 0 1 1 1 0 2 1 1 0 2 1 1 
0 1 1 1 0 1 2 2 1 0 1 0 1 0 1 -1 
0 -2 1 -1 0 -2 1425 737 300 MP stroke
1 -1 0 -2 1 -1 0 -2 1 -2 0 -3 1 -1 0 -4 
1 -2 0 -4 1 -2 0 -4 1 -2 0 -5 1 -1 0 -4 
1 -1 0 -5 1 -2 0 -5 1 -1 0 -5 1 -2 0 -4 
1 -2 0 -5 1 -1 0 -3 1 -2 0 -4 1 -1 0 -4 
1 -1 0 -4 1 -1 0 -2 1 -1 0 -2 1 -1 1 -1 
1 -1 1 0 1 0 1 1 0 1 1 1 0 2 1 1 
0 2 1 1 0 3 1 1 0 4 1 2 0 4 1 2 
0 5 1 1 0 6 1 1 0 4 1 2 0 6 1 2 
0 5 1 2 0 5 1 1 0 5 1 1 0 5 1 1 
0 3 1 1 0 5 1 1 0 4 1 1 0 4 1 1 
0 4 1 1 0 4 1 1 0 2 1 1 0 2 1 1 
0 2 1 1 0 1 2 2 1 1 1 0 1 -1 0 -2 
1 -1 0 -4 1 -1 0 -4 1 -2 0 -4 1 -2 0 -4 
1 -2 0 -4 1 -1 0 -6 1 -2 0 -5 1 -2 0 -6 
1 -2 0 -6 1 -2 0 -6 1 -2 0 -4 1 -2 0 -6 
1 -1 0 -5 1 -1 0 -4 1 -1 0 -3 1 -2 0 -2 
1 -1 0 -3 1 -1 0 -1 1 -1 0 -1 1 -1 0 -2 
1 -1 0 -1 2 -2 0 -2 2 -2 1 -1 1 0 0 2 
1 1 0 4 1 1 0 3 1 1 1 1 1 1 0 2 
1 1 0 3 1 2 0 7 1 3 0 8 1 3 0 5 
1 2 0 6 1 2 0 4 1 1 0 5 1 1 0 6 
1 2 0 7 1 2 0 7 1 2 0 5 1 2 0 5 
1 2 0 4 1 2 0 4 1 2 0 4 1 2 0 4 
1 1 0 3 1 1 1 1 1 -1 0 -3 1 -1 0 -3 
1 -1 0 -2 1 -1 0 -1 1 -1 0 -4 1 -1 0 -5 
1 -2 0 -7 1 -3 0 -8 1 -2 0 -6 1 -2 0 -3 
1 -1 0 -3 1 -1 0 -4 1 -2 0 -6 1 -2 0 -8 
1 -3 0 -8 1 -3 0 -7 1 -3 0 -4 1 -3 0 -6 
1 -2 0 -5 1 -2 0 -4 1 -1 0 -3 1 -1 0 -2 
1 -1 0 -1 1 -1 0 -2 2 -2 1 -1 1 -1 1 0 
1 1 0 2 1 1 0 4 1 2 0 4 1 2 0 4 
1 1 0 4 1 1 0 3 1 1 0 5 1 2 0 5 
1 2 0 7 1 2 0 7 1 2 0 6 1 2 0 5 
1 2 0 4 1 2 0 6 1 2 0 7 1 2 0 7 
1 3 0 6 1 2 0 6 1 2 0 3 1 2 0 4 
1 2 0 4 1 1 0 4 1 1 0 3 1 1 0 3 
1 1 0 1 1 1 0 1 1 1 1 -1 0 -3 1 -1 
0 -6 1 -2 0 -7 1262 714 300 MP stroke
1 -2 0 -3 1 -2 0 -5 1 -1 0 -4 1 -2 0 -6 
1 -2 0 -8 1 -3 0 -10 1 -3 0 -9 1 -3 0 -5 
1 -2 0 -7 1 -2 0 -5 1 -2 0 -6 1 -2 0 -7 
1 -2 0 -8 1 -3 0 -4 1 -3 0 -6 1 -2 0 -5 
1 -1 0 -5 1 -1 0 -3 1 -1 0 -3 2 -2 0 -1 
2 -2 1 0 1 1 0 2 1 1 0 3 1 1 0 5 
1 1 0 5 1 1 0 5 1 1 0 4 1 2 0 6 
1 2 0 7 1 3 0 6 1 3 0 10 1 3 0 8 
1 3 0 7 1 2 0 7 1 2 0 6 1 3 0 4 
1 3 0 7 1 2 0 7 1 2 0 6 1 2 0 5 
1 1 0 5 1 1 0 3 1 2 0 4 1 1 0 5 
1 1 0 2 1 1 1 1 1 -1 0 -2 2 -2 0 -1 
1 -1 0 -1 1 -1 0 -3 1 -1 0 -4 1 -2 0 -5 
1 -2 0 -5 1 -2 0 -9 1 -4 0 -11 1 -4 0 -11 
1 -4 0 -9 1 -2 0 -7 1 -2 0 -3 1 -2 0 -7 
1 -3 0 -10 1 -4 0 -12 1 -4 0 -11 1 -3 0 -7 
1 -2 0 -3 1 -1 0 -1 1 -1 0 -2 1 -1 0 -4 
1 -1 0 -4 1 -1 0 -2 1 -1 1 -1 0 1 2 2 
0 2 1 1 0 1 1 1 0 2 1 1 0 3 1 2 
0 3 1 2 0 7 1 2 0 8 1 2 0 8 1 3 
0 9 1 3 0 9 1 3 0 6 1 3 0 9 1 3 
0 8 1 3 0 9 1 3 0 8 1 3 0 8 1 3 
0 5 1 3 0 9 1 3 0 9 1 3 0 9 1 3 
0 6 1 2 0 3 1 1 1 1 1 0 1 1 1 1 
1 1 -1 0 2 -2 0 -1 1 -1 0 -2 1 -1 0 -4 
1 -2 0 -5 1 -1 0 -6 1 -2 0 -8 1 -2 0 -10 
1 -3 0 -7 1 -4 0 -13 1 -4 0 -12 1 -4 0 -12 
1 -4 0 -11 1 -4 0 -9 1 -3 0 -5 1 -2 0 -6 
1 -2 0 -4 1 -2 0 -7 1 -3 0 -10 1 -3 0 -12 
1 -3 0 -9 1 -3 0 -5 1 -2 0 -6 1 -2 0 -2 
1 -1 1 -1 0 2 1 1 0 4 1 1 0 2 1 2 
0 3 1 1 0 4 1 2 0 5 1 2 0 7 1 3 
0 9 1 4 0 6 1 4 0 8 1 3 0 7 1 2 
0 7 1 2 0 9 1 3 0 10 1 4 0 9 1 5 
0 12 1 4 0 11 1 3 0 9 1 2 0 8 1 2 
0 8 1 3 0 8 1 3 0 6 1 3 0 8 1 3 
0 7 1 2 0 6 1 2 0 5 1 1 0 3 1 1 
0 1 1 1 1 1 1102 651 300 MP stroke
0 -2 1 -1 0 -4 1 -2 0 -7 1 -3 0 -8 1 -3 
0 -6 1 -4 0 -10 1 -4 0 -11 1 -3 0 -10 1 -2 
0 -8 1 -3 0 -6 1 -3 0 -6 1 -3 0 -12 1 -5 
0 -15 1 -6 0 -15 1 -5 0 -13 1 -3 0 -10 1 -3 
0 -8 1 -2 0 -6 1 -3 0 -10 1 -4 0 -11 1 -4 
0 -8 1 -3 0 -5 1 -1 0 -1 1 -1 1 1 1 0 
1 0 1 -1 -1 0 2 2 0 2 1 1 0 3 1 1 
0 5 1 2 0 5 1 2 0 5 1 2 0 7 1 2 
0 8 1 4 0 6 1 3 0 12 1 4 0 12 1 5 
0 13 1 5 0 15 1 5 0 15 1 5 0 15 1 5 
0 10 1 5 0 14 1 4 0 13 1 4 0 11 1 3 
0 9 1 3 0 8 1 2 0 5 1 2 0 7 1 2 
0 6 1 1 0 2 1 1 1 -1 0 -4 1 -1 0 -3 
1 -1 0 -5 1 -1 0 -5 1 -2 0 -5 1 -2 0 -6 
1 -2 0 -6 1 -2 0 -4 1 -3 0 -11 1 -4 0 -16 
1 -6 0 -21 1 -7 0 -19 1 -5 0 -13 1 -3 0 -7 
1 -1 0 -3 1 -2 0 -9 1 -4 0 -14 1 -6 0 -20 
1 -6 0 -16 1 -4 0 -12 1 -2 0 -5 1 -2 0 -4 
1 -2 0 -5 1 -3 0 -6 1 -3 0 -7 1 -3 0 -5 
1 -2 0 -2 1 -1 0 -2 1 -1 1 1 0 3 1 1 
0 6 1 2 0 7 1 2 0 6 1 3 0 4 1 2 
0 7 1 3 0 11 1 4 0 17 1 6 0 22 1 8 
0 21 1 6 0 10 1 4 0 10 1 2 0 6 1 2 
0 10 1 4 0 16 1 6 0 20 1 7 0 11 1 6 
0 12 1 4 0 7 1 1 0 4 1 2 0 8 1 3 
0 10 1 4 0 9 1 4 0 8 1 2 0 2 1 -1 
0 -4 1 -2 0 -4 1 -1 0 -1 1 1 0 4 1 2 
0 3 1 1 0 -5 1 -3 0 -15 1 -6 0 -25 1 -8 
0 -21 1 -5 0 -12 1 -3 0 -2 1 -1 0 -2 1 -2 
0 -13 1 -6 0 -23 1 -9 0 -31 1 -9 0 -21 1 -5 
0 -7 1 -3 0 -2 0 1 1 1 0 -3 1 -2 0 -14 
1 -7 0 -25 1 -10 0 -30 1 -7 0 -12 1 -4 0 -5 
1 -1 0 7 1 3 0 6 1 1 1 1 0 -5 1 -2 
0 -3 1 -1 0 2 1 1 0 8 1 4 0 13 1 3 
0 9 1 2 1 3 -1 0 2 -2 0 2 1 2 0 12 
1 6 0 22 1 9 0 29 1 8 0 24 1 6 0 18 
1 5 0 8 1 4 0 12 1 4 0 12 1 4 0 12 
1 3 0 13 1 5 949 701 300 MP stroke
0 16 1 5 0 12 1 6 0 20 1 6 0 14 1 4 
0 9 1 2 0 3 1 1 0 2 1 1 0 3 1 1 
0 2 1 1 1 3 -1 0 2 -2 0 -5 1 -3 0 -9 
1 -3 0 -10 1 -3 0 -8 1 -3 0 -12 1 -4 0 -13 
1 -5 0 -14 1 -5 0 -15 1 -5 0 -16 1 -6 0 -11 
1 -6 0 -17 1 -6 0 -18 1 -6 0 -19 1 -7 0 -19 
1 -7 0 -20 1 -7 0 -14 1 -6 0 -19 1 -6 0 -16 
1 -5 0 -15 1 -5 0 -12 1 -3 0 -10 1 -2 0 -7 
1 -2 0 -3 1 -1 0 -1 1 -1 0 1 1 1 0 3 
1 1 0 4 1 2 0 5 1 2 0 3 1 2 0 8 
1 4 0 11 1 4 0 15 1 5 0 18 1 6 0 20 
1 7 0 15 1 8 0 24 1 8 0 23 1 7 0 20 
1 6 0 17 1 5 0 16 1 5 0 11 1 5 0 16 
1 5 0 15 1 4 0 14 1 4 0 11 1 3 0 10 
1 3 0 9 1 4 0 6 1 3 0 10 1 3 0 8 
1 2 0 2 1 1 0 -2 1 -1 0 -5 1 -1 0 -1 
1 1 0 3 1 2 0 7 1 -14 0 -226 1 -137 0 -596 
1 -260 0 -963 1 -383 0 -670 1 -245 0 -379 1 -7 0 336 
1 231 0 1004 1 335 0 829 1 218 0 480 1 102 0 131 
873 788 153 MP stroke
/c9 { 1.000000 0.000000 0.000000 sr} bdef
c9
1 0 1 0 1 1 1 0 1 0 1 0 1 0 1 0 
1 0 1 1 1 0 1 0 1 0 1 0 1 0 1 0 
1 0 1 0 1 -1 1 0 1 0 1 0 1 0 1 0 
1 0 1 -1 1 0 1 0 1 0 1 0 1 -1 1 0 
1 0 1 0 1 0 1 0 1 -1 1 0 1 0 1 0 
1 0 1 0 1 0 1 0 1 0 1 1 1 0 1 0 
1 0 1 0 1 0 1 0 1 1 1 0 1 0 1 0 
1 0 1 1 1 0 1 0 1 0 1 0 1 0 1 0 
1 1 1 0 1 0 1 0 1 0 1 0 1 0 1 0 
1 0 1 -1 1 0 1 0 1 0 1 0 1 0 1 -1 
1 0 1 0 1 0 1 0 1 -1 1 0 1 0 1 0 
1 0 1 0 1 -1 1 0 1 0 1 0 1 0 1 0 
1 0 1 0 1 0 1 0 1 1 1 0 1 0 1 0 
1 0 1 0 1 0 1 1 1 0 1 0 1 0 1 0 
1 1 1 0 1 0 1 0 1 0 1 0 1 1 1 0 
1 0 1 0 1 0 1 0 1 0 1 0 1 0 1 -1 
1 0 1 0 1 0 1 0 1 0 1 0 1 -1 1 0 
1 0 1 0 1 0 1 -1 1 0 1 0 1 0 1 0 
1 -1 1 0 1 0 1 0 1 0 1 0 1 0 1 0 
1 0 1 0 1 0 1 0 1 1 1 0 1 0 1 0 
1 0 1 0 1 1 1 0 1 0 1 0 1 0 1 1 
1 0 1 0 1 0 1 0 1 0 1 1 1 0 1 0 
1 0 1 0 1 0 1 0 1 0 1 -1 1 0 1 0 
1 0 1 0 1 0 1 0 1 -1 1 0 1 0 1 0 
1 0 1 -1 1 0 1 0 1 0 1 0 1 -1 1 0 
1 0 1 0 1 0 1 0 1 0 1 0 1 0 1 0 
1 0 1 0 1 0 1 1 1 0 1 0 1 0 1 0 
1 0 1 1 1 0 1 0 1 0 1 1 1 0 1 0 
1 0 1 0 1 0 1 0 1 1 1 0 1 0 1 0 
1 0 1 0 1 0 1 -1 1 0 1 0 1 0 1 0 
1 0 1 0 1 -1 1 0 1 0 1 0 1 0 1 -1 
1 0 1 0 1 0 1 0 1 -1 1 0 1 0 1 0 
1 0 1 0 1 0 1 0 1 0 1 0 1 0 1 0 
1 0 1 0 1 1 1 0 1 0 1 0 1 0 1 0 
1 1 1 0 1 0 1 0 1 1 1 0 1 0 1 0 
1 0 1 0 1 0 1 0 1 1 1 0 1 0 1 0 
1 0 1 -1 1 0 1 0 1 0 1 0 1 0 1 0 
1 -1 1 0 1 0 5782 788 300 MP stroke
1 0 1 0 1 -1 1 0 1 0 1 0 1 0 1 -1 
1 0 1 0 1 0 1 0 1 0 1 0 1 0 1 0 
1 0 1 0 1 0 1 0 1 0 1 0 1 0 1 1 
1 0 1 0 1 0 1 0 1 1 1 0 1 0 1 0 
1 1 1 0 1 0 1 0 1 0 1 0 1 0 1 0 
1 1 1 0 1 0 1 -1 1 0 1 0 1 0 1 0 
1 0 1 0 1 0 1 -1 1 0 1 0 1 0 1 0 
1 -1 1 0 1 0 1 0 1 0 1 -1 1 0 1 0 
1 0 1 0 1 0 1 0 1 0 1 0 1 0 1 0 
1 0 1 0 1 0 1 0 1 0 1 0 1 1 1 0 
1 0 1 0 1 1 1 0 1 0 1 0 1 0 1 1 
1 0 1 0 1 0 1 0 1 0 1 0 1 0 1 0 
1 0 1 0 1 0 1 0 1 0 1 0 1 0 1 0 
1 0 1 -1 1 0 1 0 1 0 1 0 1 -1 1 0 
1 0 1 0 1 0 1 -1 1 0 1 0 1 0 1 0 
1 0 1 0 1 0 1 0 1 0 1 0 1 0 1 0 
1 0 1 0 1 0 1 0 1 0 1 1 1 0 1 0 
1 0 1 1 1 0 1 0 1 0 1 0 1 1 1 0 
1 0 1 0 1 0 1 0 1 0 1 0 1 0 1 0 
1 0 1 0 1 0 1 0 1 0 1 0 1 0 1 0 
1 -1 1 0 1 0 1 0 1 -1 1 0 1 0 1 0 
1 0 1 -1 1 0 1 0 1 0 1 0 1 0 1 0 
1 -1 1 0 1 0 1 0 1 0 1 1 1 0 1 0 
1 0 1 0 1 0 1 0 1 1 1 0 1 0 1 0 
1 1 1 0 1 0 1 0 1 0 1 1 1 0 1 0 
1 0 1 0 1 0 1 0 1 0 1 0 1 0 1 0 
1 0 1 0 1 0 1 0 1 0 1 0 1 -1 1 0 
1 0 1 0 1 -1 1 0 1 0 1 0 1 0 1 -1 
1 0 1 0 1 0 1 0 1 0 1 -1 1 0 1 0 
1 0 1 0 1 0 1 0 1 0 1 1 1 0 1 0 
1 0 1 0 1 0 1 1 1 0 1 0 1 0 1 1 
1 0 1 0 1 0 1 0 1 1 1 0 1 0 1 0 
1 0 1 0 1 0 1 0 1 0 1 0 1 0 1 0 
1 0 1 0 1 0 1 0 1 -1 1 0 1 0 1 0 
1 0 1 -1 1 0 1 0 1 0 1 -1 1 0 1 0 
1 0 1 0 1 -1 1 0 1 0 1 0 1 0 1 0 
1 0 1 0 1 0 1 0 1 1 1 0 1 0 1 0 
1 0 1 0 1 1 5483 789 300 MP stroke
1 0 1 0 1 0 1 1 1 0 1 0 1 0 1 0 
1 1 1 0 1 0 1 0 1 0 1 0 1 0 1 0 
1 0 1 0 1 0 1 0 1 0 1 0 1 0 1 -1 
1 0 1 0 1 0 1 0 1 -1 1 0 1 0 1 0 
1 -1 1 0 1 0 1 0 1 0 1 -1 1 0 1 0 
1 0 1 0 1 0 1 0 1 0 1 0 1 0 1 0 
1 1 1 0 1 0 1 0 1 0 1 1 1 0 1 0 
1 0 1 0 1 1 1 0 1 0 1 0 1 1 1 0 
1 0 1 0 1 0 1 0 1 0 1 0 1 0 1 0 
1 0 1 0 1 0 1 0 1 0 1 0 1 -1 1 0 
1 0 1 0 1 -1 1 0 1 0 1 0 1 0 1 -1 
1 0 1 0 1 0 1 0 1 -1 1 0 1 0 1 0 
1 0 1 0 1 0 1 0 1 0 1 0 1 0 1 1 
1 0 1 0 1 0 1 0 1 1 1 0 1 0 1 0 
1 1 1 0 1 0 1 0 1 0 1 1 1 0 1 0 
1 0 1 0 1 0 1 0 1 0 1 0 1 0 1 0 
1 0 1 0 1 0 1 0 1 -1 1 0 1 0 1 0 
1 0 1 -1 1 0 1 0 1 0 1 -1 1 0 1 0 
1 0 1 0 1 -1 1 0 1 0 1 0 1 0 1 0 
1 0 1 0 1 0 1 0 1 0 1 0 1 1 1 0 
1 0 1 0 1 0 1 1 1 0 1 0 1 0 1 1 
1 0 1 0 1 0 1 1 1 0 1 0 1 0 1 0 
1 0 1 0 1 0 1 0 1 0 1 0 1 0 1 0 
1 0 1 0 1 0 1 -1 1 0 1 0 1 0 1 0 
1 -1 1 0 1 0 1 -1 1 0 1 0 1 0 1 0 
1 -1 1 0 1 0 1 0 1 0 1 0 1 0 1 0 
1 0 1 0 1 0 1 0 1 0 1 1 1 0 1 0 
1 0 1 0 1 1 1 0 1 0 1 1 1 0 1 0 
1 0 1 0 1 1 1 0 1 0 1 0 1 0 1 0 
1 0 1 0 1 0 1 0 1 0 1 0 1 0 1 0 
1 0 1 0 1 -1 1 0 1 0 1 0 1 -1 1 0 
1 0 1 0 1 -1 1 0 1 0 1 0 1 0 1 -1 
1 0 1 0 1 0 1 0 1 0 1 0 1 0 1 0 
1 0 1 0 1 0 1 1 1 0 1 0 1 0 1 0 
1 1 1 0 1 0 1 0 1 1 1 0 1 0 1 0 
1 1 1 0 1 0 1 0 1 0 1 0 1 0 1 1 
1 0 1 0 1 -1 1 0 1 0 1 0 1 0 1 0 
1 0 1 -1 1 0 5184 788 300 MP stroke
1 0 1 0 1 -1 1 0 1 0 1 0 1 -1 1 0 
1 0 1 0 1 -1 1 0 1 0 1 0 1 0 1 0 
1 0 1 0 1 0 1 0 1 0 1 0 1 0 1 1 
1 0 1 0 1 0 1 1 1 0 1 0 1 0 1 1 
1 0 1 0 1 0 1 1 1 0 1 0 1 0 1 0 
1 0 1 1 1 0 1 0 1 0 1 0 1 0 1 -1 
1 0 1 0 1 0 1 0 1 0 1 -1 1 0 1 0 
1 0 1 -1 1 0 1 0 1 -1 1 0 1 0 1 0 
1 0 1 -1 1 0 1 0 1 0 1 0 1 0 1 0 
1 0 1 0 1 0 1 0 1 0 1 1 1 0 1 0 
1 0 1 1 1 0 1 0 1 0 1 1 1 0 1 0 
1 0 1 1 1 0 1 0 1 0 1 0 1 1 1 0 
1 0 1 0 1 0 1 0 1 0 1 0 1 0 1 -1 
1 0 1 0 1 0 1 0 1 -1 1 0 1 0 1 0 
1 -1 1 0 1 0 1 -1 1 0 1 0 1 0 1 0 
1 -1 1 0 1 0 1 0 1 0 1 0 1 0 1 0 
1 0 1 0 1 0 1 1 1 0 1 0 1 0 1 1 
1 0 1 0 1 0 1 1 1 0 1 0 1 0 1 1 
1 0 1 0 1 0 1 1 1 0 1 0 1 0 1 0 
1 0 1 0 1 0 1 0 1 0 1 0 1 -1 1 0 
1 0 1 0 1 0 1 -1 1 0 1 0 1 0 1 -1 
1 0 1 0 1 -1 1 0 1 0 1 0 1 0 1 -1 
1 0 1 0 1 0 1 0 1 0 1 0 1 0 1 0 
1 0 1 1 1 0 1 0 1 0 1 0 1 1 1 0 
1 0 1 1 1 0 1 0 1 0 1 1 1 0 1 0 
1 0 1 1 1 0 1 0 1 0 1 0 1 0 1 0 
1 0 1 0 1 0 1 0 1 0 1 0 1 -1 1 0 
1 0 1 0 1 -1 1 0 1 0 1 0 1 -1 1 0 
1 0 1 -1 1 0 1 0 1 0 1 0 1 0 1 -1 
1 0 1 0 1 0 1 0 1 0 1 0 1 0 1 1 
1 0 1 0 1 0 1 0 1 1 1 0 1 0 1 1 
1 0 1 0 1 0 1 1 1 0 1 0 1 0 1 1 
1 0 1 0 1 0 1 0 1 0 1 0 1 0 1 0 
1 0 1 0 1 0 1 0 1 0 1 -1 1 0 1 0 
1 0 1 -1 1 0 1 0 1 0 1 -1 1 0 1 0 
1 0 1 -1 1 0 1 0 1 0 1 0 1 -1 1 0 
1 0 1 0 1 0 1 0 1 1 1 0 1 0 1 0 
1 0 1 0 1 1 4885 789 300 MP stroke
1 0 1 0 1 1 1 0 1 0 1 0 1 1 1 0 
1 0 1 1 1 0 1 0 1 0 1 0 1 0 1 1 
1 0 1 0 1 0 1 0 1 -1 1 0 1 0 1 0 
1 0 1 0 1 -1 1 0 1 0 1 -1 1 0 1 0 
1 0 1 -1 1 0 1 0 1 -1 1 0 1 0 1 0 
1 0 1 0 1 -1 1 0 1 0 1 0 1 0 1 1 
1 0 1 0 1 0 1 0 1 0 1 1 1 0 1 0 
1 0 1 1 1 0 1 0 1 1 1 0 1 0 1 1 
1 0 1 0 1 0 1 0 1 1 1 0 1 0 1 0 
1 0 1 0 1 0 1 0 1 -1 1 0 1 0 1 0 
1 0 1 -1 1 0 1 0 1 0 1 -1 1 0 1 0 
1 -1 1 0 1 0 1 0 1 -1 1 0 1 0 1 0 
1 0 1 0 1 0 1 0 1 0 1 0 1 0 1 0 
1 0 1 0 1 0 1 1 1 0 1 0 1 1 1 0 
1 0 1 0 1 1 1 0 1 0 1 1 1 0 1 0 
1 0 1 1 1 0 1 0 1 0 1 0 1 0 1 0 
1 0 1 0 1 0 1 0 1 -1 1 0 1 0 1 0 
1 -1 1 0 1 0 1 0 1 -1 1 0 1 0 1 -1 
1 0 1 0 1 0 1 -1 1 0 1 0 1 0 1 0 
1 0 1 0 1 0 1 0 1 0 1 0 1 0 1 0 
1 0 1 1 1 0 1 0 1 0 1 1 1 0 1 0 
1 1 1 0 1 0 1 1 1 0 1 0 1 0 1 1 
1 0 1 0 1 0 1 0 1 0 1 0 1 0 1 0 
1 0 1 0 1 0 1 -1 1 0 1 0 1 0 1 -1 
1 0 1 0 1 0 1 -1 1 0 1 0 1 -1 1 0 
1 0 1 0 1 -1 1 0 1 0 1 0 1 0 1 0 
1 0 1 0 1 0 1 0 1 0 1 0 1 0 1 1 
1 0 1 0 1 0 1 1 1 0 1 0 1 1 1 0 
1 0 1 1 1 0 1 0 1 0 1 1 1 0 1 0 
1 0 1 0 1 0 1 0 1 0 1 0 1 0 1 0 
1 0 1 0 1 0 1 -1 1 0 1 0 1 -1 1 0 
1 0 1 -1 1 0 1 0 1 0 1 -1 1 0 1 0 
1 -1 1 0 1 0 1 0 1 0 1 0 1 0 1 0 
1 0 1 0 1 0 1 0 1 0 1 0 1 1 1 0 
1 0 1 1 1 0 1 0 1 1 1 0 1 0 1 1 
1 0 1 0 1 0 1 1 1 0 1 0 1 0 1 0 
1 0 1 1 1 0 1 0 1 -1 1 0 1 0 1 0 
1 0 1 0 1 -1 4586 786 300 MP stroke
1 0 1 0 1 -1 1 0 1 0 1 -1 1 0 1 0 
1 -1 1 0 1 0 1 0 1 -1 1 0 1 0 1 0 
1 0 1 0 1 0 1 0 1 0 1 0 1 0 1 0 
1 0 1 1 1 0 1 0 1 0 1 1 1 0 1 1 
1 0 1 0 1 0 1 1 1 0 1 0 1 1 1 0 
1 0 1 0 1 0 1 1 1 0 1 0 1 0 1 0 
1 0 1 -1 1 0 1 0 1 0 1 0 1 -1 1 0 
1 0 1 -1 1 0 1 0 1 -1 1 0 1 0 1 -1 
1 0 1 0 1 -1 1 0 1 0 1 0 1 0 1 0 
1 0 1 0 1 0 1 0 1 0 1 0 1 0 1 0 
1 1 1 0 1 0 1 1 1 0 1 0 1 1 1 0 
1 0 1 1 1 0 1 0 1 1 1 0 1 0 1 0 
1 0 1 1 1 0 1 0 1 0 1 0 1 0 1 0 
1 -1 1 0 1 0 1 0 1 0 1 -1 1 0 1 0 
1 -1 1 0 1 0 1 -1 1 0 1 -1 1 0 1 0 
1 0 1 -1 1 0 1 0 1 0 1 0 1 0 1 0 
1 0 1 0 1 0 1 0 1 0 1 0 1 1 1 0 
1 0 1 0 1 1 1 0 1 0 1 1 1 0 1 1 
1 0 1 0 1 0 1 1 1 0 1 0 1 0 1 1 
1 0 1 0 1 0 1 0 1 0 1 0 1 0 1 -1 
1 0 1 0 1 0 1 -1 1 0 1 0 1 -1 1 0 
1 0 1 -1 1 0 1 0 1 -1 1 0 1 0 1 -1 
1 0 1 0 1 0 1 0 1 0 1 -1 1 0 1 1 
1 0 1 0 1 0 1 0 1 0 1 1 1 0 1 0 
1 0 1 1 1 0 1 1 1 0 1 0 1 1 1 0 
1 0 1 1 1 0 1 0 1 0 1 1 1 0 1 0 
1 0 1 0 1 0 1 0 1 0 1 -1 1 0 1 0 
1 0 1 -1 1 0 1 0 1 -1 1 0 1 0 1 -1 
1 0 1 0 1 -1 1 0 1 0 1 -1 1 0 1 0 
1 0 1 0 1 -1 1 0 1 0 1 0 1 0 1 0 
1 1 1 0 1 0 1 0 1 1 1 0 1 0 1 0 
1 1 1 0 1 1 1 0 1 0 1 1 1 0 1 0 
1 1 1 0 1 0 1 0 1 1 1 0 1 0 1 0 
1 0 1 0 1 0 1 -1 1 0 1 0 1 0 1 0 
1 -1 1 0 1 0 1 -1 1 0 1 -1 1 0 1 0 
1 -1 1 0 1 0 1 -1 1 0 1 0 1 0 1 -1 
1 0 1 0 1 0 1 0 1 0 1 0 1 0 1 0 
1 1 1 0 1 0 4287 790 300 MP stroke
1 0 1 1 1 0 1 0 1 1 1 0 1 1 1 0 
1 0 1 1 1 0 1 0 1 1 1 0 1 0 1 0 
1 0 1 1 1 0 1 0 1 0 1 0 1 -1 1 0 
1 0 1 0 1 0 1 -1 1 0 1 0 1 -1 1 0 
1 -1 1 0 1 0 1 -1 1 0 1 0 1 -1 1 0 
1 0 1 -1 1 0 1 0 1 0 1 0 1 0 1 0 
1 0 1 0 1 0 1 0 1 0 1 1 1 0 1 0 
1 1 1 0 1 0 1 1 1 0 1 1 1 0 1 0 
1 1 1 0 1 0 1 1 1 0 1 0 1 0 1 0 
1 0 1 1 1 -1 1 0 1 0 1 0 1 0 1 0 
1 0 1 -1 1 0 1 0 1 -1 1 0 1 -1 1 0 
1 0 1 -1 1 0 1 -1 1 0 1 0 1 -1 1 0 
1 0 1 0 1 0 1 -1 1 0 1 0 1 0 1 1 
1 0 1 0 1 0 1 0 1 1 1 0 1 0 1 1 
1 0 1 0 1 1 1 0 1 0 1 1 1 0 1 1 
1 0 1 0 1 1 1 0 1 0 1 0 1 0 1 0 
1 0 1 0 1 0 1 0 1 0 1 0 1 0 1 -1 
1 0 1 0 1 -1 1 0 1 -1 1 0 1 0 1 -1 
1 0 1 -1 1 0 1 0 1 -1 1 0 1 0 1 -1 
1 0 1 0 1 0 1 0 1 0 1 0 1 0 1 0 
1 1 1 0 1 0 1 0 1 1 1 0 1 0 1 1 
1 0 1 1 1 0 1 0 1 1 1 0 1 1 1 0 
1 0 1 0 1 1 1 0 1 0 1 0 1 0 1 0 
1 0 1 0 1 0 1 0 1 -1 1 0 1 0 1 -1 
1 0 1 0 1 -1 1 0 1 -1 1 0 1 0 1 -1 
1 0 1 -1 1 0 1 0 1 -1 1 0 1 0 1 0 
1 0 1 0 1 0 1 0 1 0 1 0 1 0 1 0 
1 0 1 1 1 0 1 0 1 1 1 0 1 1 1 0 
1 0 1 1 1 0 1 1 1 0 1 0 1 1 1 0 
1 0 1 1 1 0 1 0 1 0 1 0 1 0 1 0 
1 0 1 0 1 -1 1 0 1 0 1 -1 1 0 1 0 
1 -1 1 0 1 -1 1 0 1 -1 1 0 1 0 1 -1 
1 0 1 -1 1 0 1 0 1 0 1 -1 1 0 1 0 
1 0 1 0 1 0 1 0 1 0 1 1 1 0 1 0 
1 0 1 1 1 0 1 1 1 0 1 1 1 0 1 0 
1 1 1 0 1 1 1 0 1 0 1 1 1 0 1 0 
1 0 1 0 1 1 1 0 1 0 1 0 1 -1 1 0 
1 0 1 0 1 0 3988 786 300 MP stroke
1 -1 1 0 1 0 1 -1 1 0 1 -1 1 0 1 -1 
1 0 1 -1 1 0 1 0 1 -1 1 0 1 0 1 -1 
1 0 1 0 1 0 1 0 1 0 1 0 1 0 1 0 
1 0 1 0 1 1 1 0 1 0 1 1 1 0 1 0 
1 1 1 0 1 1 1 0 1 1 1 0 1 0 1 1 
1 0 1 1 1 0 1 0 1 0 1 0 1 0 1 0 
1 0 1 0 1 0 1 0 1 0 1 -1 1 0 1 0 
1 -1 1 0 1 0 1 -1 1 0 1 -1 1 0 1 -1 
1 0 1 -1 1 0 1 0 1 -1 1 0 1 0 1 0 
1 -1 1 0 1 0 1 0 1 0 1 0 1 1 1 0 
1 0 1 0 1 1 1 0 1 0 1 1 1 0 1 1 
1 0 1 1 1 0 1 1 1 0 1 0 1 1 1 0 
1 0 1 1 1 0 1 0 1 0 1 0 1 0 1 0 
1 0 1 0 1 0 1 -1 1 0 1 0 1 -1 1 0 
1 0 1 -1 1 0 1 -1 1 0 1 -1 1 0 1 -1 
1 0 1 -1 1 0 1 0 1 0 1 -1 1 0 1 0 
1 0 1 0 1 0 1 0 1 0 1 0 1 0 1 1 
1 0 1 0 1 1 1 0 1 1 1 0 1 1 1 0 
1 1 1 0 1 1 1 0 1 0 1 1 1 0 1 0 
1 1 1 0 1 0 1 0 1 0 1 0 1 0 1 0 
1 0 1 -1 1 0 1 0 1 -1 1 0 1 0 1 -1 
1 0 1 -1 1 0 1 -1 1 0 1 -1 1 0 1 -1 
1 0 1 0 1 -1 1 0 1 0 1 0 1 -1 1 0 
1 0 1 0 1 1 1 0 1 0 1 0 1 1 1 0 
1 0 1 1 1 0 1 1 1 0 1 1 1 0 1 1 
1 0 1 0 1 1 1 0 1 1 1 0 1 0 1 1 
1 0 1 0 1 0 1 0 1 0 1 0 1 0 1 -1 
1 0 1 0 1 -1 1 0 1 0 1 -1 1 0 1 -1 
1 0 1 -1 1 0 1 -1 1 0 1 -1 1 0 1 -1 
1 0 1 0 1 0 1 -1 1 0 1 0 1 0 1 0 
1 0 1 0 1 0 1 1 1 0 1 0 1 1 1 0 
1 1 1 0 1 1 1 0 1 1 1 0 1 1 1 0 
1 1 1 0 1 0 1 1 1 0 1 0 1 1 1 0 
1 0 1 0 1 0 1 0 1 0 1 -1 1 0 1 0 
1 0 1 -1 1 0 1 -1 1 0 1 -1 1 0 1 -1 
1 0 1 -1 1 0 1 -1 1 0 1 -1 1 0 1 0 
1 -1 1 0 1 0 1 0 1 0 1 0 1 0 1 0 
1 0 1 0 1 1 3689 794 300 MP stroke
1 0 1 0 1 1 1 0 1 1 1 0 1 1 1 0 
1 1 1 0 1 1 1 0 1 1 1 0 1 1 1 0 
1 0 1 0 1 1 1 0 1 0 1 0 1 0 1 0 
1 0 1 -1 1 0 1 0 1 -1 1 0 1 0 1 -1 
1 0 1 -1 1 0 1 -1 1 -1 1 0 1 -1 1 0 
1 0 1 -1 1 0 1 -1 1 0 1 0 1 0 1 0 
1 0 1 0 1 0 1 0 1 0 1 0 1 1 1 0 
1 0 1 1 1 0 1 1 1 0 1 1 1 0 1 1 
1 1 1 0 1 1 1 0 1 1 1 0 1 0 1 0 
1 1 1 0 1 0 1 0 1 0 1 0 1 0 1 0 
1 -1 1 0 1 0 1 -1 1 0 1 -1 1 0 1 -1 
1 0 1 -1 1 0 1 -1 1 0 1 -1 1 0 1 -1 
1 0 1 0 1 -1 1 0 1 0 1 0 1 0 1 0 
1 0 1 0 1 0 1 0 1 0 1 1 1 0 1 1 
1 0 1 1 1 0 1 1 1 0 1 1 1 0 1 1 
1 0 1 1 1 0 1 1 1 0 1 1 1 0 1 0 
1 0 1 0 1 0 1 0 1 0 1 0 1 0 1 0 
1 -1 1 0 1 -1 1 0 1 -1 1 0 1 -1 1 0 
1 -1 1 0 1 -1 1 0 1 -1 1 0 1 -1 1 0 
1 -1 1 0 1 0 1 0 1 0 1 0 1 0 1 0 
1 0 1 0 1 0 1 1 1 0 1 1 1 0 1 1 
1 0 1 1 1 0 1 1 1 0 1 1 1 1 1 0 
1 1 1 0 1 0 1 1 1 0 1 0 1 1 1 0 
1 0 1 0 1 0 1 0 1 -1 1 0 1 0 1 -1 
1 0 1 0 1 -1 1 0 1 -1 1 -1 1 0 1 -1 
1 0 1 -1 1 0 1 -1 1 0 1 -1 1 0 1 0 
1 -1 1 0 1 0 1 0 1 0 1 0 1 0 1 0 
1 0 1 1 1 0 1 1 1 0 1 1 1 0 1 1 
1 0 1 1 1 0 1 1 1 1 1 0 1 1 1 0 
1 1 1 0 1 1 1 0 1 0 1 0 1 0 1 0 
1 0 1 0 1 0 1 0 1 0 1 -1 1 0 1 -1 
1 0 1 -1 1 0 1 -1 1 0 1 -1 1 -1 1 0 
1 -1 1 0 1 -1 1 0 1 -1 1 0 1 0 1 -1 
1 0 1 0 1 0 1 0 1 0 1 0 1 1 1 0 
1 0 1 1 1 0 1 1 1 0 1 1 1 0 1 1 
1 1 1 0 1 1 1 1 1 0 1 1 1 0 1 1 
1 0 1 0 1 1 1 0 1 0 1 0 1 0 1 0 
1 0 1 0 1 -1 3390 785 300 MP stroke
1 0 1 0 1 -1 1 0 1 -1 1 0 1 -1 1 0 
1 -1 1 -1 1 0 1 -1 1 0 1 -1 1 0 1 -1 
1 0 1 -1 1 0 1 0 1 0 1 0 1 0 1 0 
1 0 1 0 1 0 1 1 1 0 1 0 1 1 1 1 
1 0 1 1 1 0 1 1 1 1 1 0 1 1 1 1 
1 0 1 1 1 0 1 1 1 0 1 0 1 1 1 0 
1 0 1 0 1 0 1 0 1 0 1 0 1 -1 1 0 
1 -1 1 0 1 0 1 -1 1 -1 1 0 1 -1 1 -1 
1 0 1 -1 1 0 1 -1 1 -1 1 0 1 0 1 -1 
1 0 1 0 1 -1 1 0 1 0 1 0 1 0 1 1 
1 0 1 0 1 1 1 0 1 0 1 1 1 1 1 0 
1 1 1 0 1 1 1 1 1 1 1 0 1 1 1 0 
1 1 1 0 1 1 1 0 1 1 1 0 1 0 1 0 
1 0 1 0 1 0 1 0 1 0 1 -1 1 0 1 -1 
1 0 1 -1 1 0 1 -1 1 -1 1 0 1 -1 1 -1 
1 0 1 -1 1 0 1 -1 1 0 1 -1 1 0 1 0 
1 -1 1 0 1 0 1 0 1 0 1 0 1 0 1 1 
1 0 1 1 1 0 1 1 1 0 1 1 1 0 1 1 
1 1 1 0 1 1 1 1 1 1 1 0 1 1 1 0 
1 1 1 0 1 1 1 0 1 0 1 0 1 0 1 0 
1 0 1 0 1 0 1 0 1 -1 1 0 1 -1 1 0 
1 -1 1 -1 1 0 1 -1 1 0 1 -1 1 -1 1 0 
1 -1 1 -1 1 0 1 -1 1 0 1 0 1 -1 1 0 
1 0 1 0 1 0 1 0 1 0 1 0 1 1 1 0 
1 1 1 0 1 1 1 0 1 1 1 1 1 1 1 0 
1 1 1 1 1 0 1 1 1 1 1 0 1 1 1 1 
1 0 1 0 1 1 1 0 1 0 1 0 1 0 1 0 
1 0 1 -1 1 0 1 -1 1 0 1 -1 1 0 1 -1 
1 0 1 -1 1 -1 1 0 1 -1 1 -1 1 -1 1 0 
1 -1 1 0 1 -1 1 0 1 -1 1 0 1 0 1 0 
1 0 1 0 1 0 1 0 1 1 1 0 1 1 1 0 
1 1 1 0 1 1 1 1 1 0 1 1 1 1 1 1 
1 1 1 0 1 1 1 1 1 0 1 1 1 0 1 1 
1 0 1 0 1 0 1 0 1 0 1 0 1 0 1 0 
1 0 1 -1 1 0 1 -1 1 0 1 -1 1 -1 1 0 
1 -1 1 -1 1 -1 1 0 1 -1 1 -1 1 0 1 -1 
1 0 1 -1 1 0 1 0 1 -1 1 0 1 0 1 0 
1 0 1 0 1 1 3091 789 300 MP stroke
1 0 1 1 1 0 1 1 1 0 1 1 1 1 1 0 
1 1 1 1 1 1 1 1 1 0 1 1 1 1 1 0 
1 1 1 1 1 0 1 0 1 1 1 0 1 0 1 0 
1 0 1 0 1 0 1 -1 1 0 1 0 1 -1 1 0 
1 -1 1 -1 1 0 1 -1 1 -1 1 -1 1 -1 1 0 
1 -1 1 -1 1 0 1 -1 1 0 1 -1 1 0 1 0 
1 -1 1 0 1 0 1 0 1 1 1 0 1 0 1 1 
1 0 1 1 1 0 1 1 1 1 1 0 1 1 1 1 
1 1 1 1 1 0 1 1 1 1 1 1 1 0 1 1 
1 0 1 1 1 0 1 1 1 0 1 0 1 0 1 0 
1 0 1 -1 1 0 1 0 1 -1 1 0 1 -1 1 -1 
1 -1 1 0 1 -1 1 -1 1 -1 1 0 1 -1 1 -1 
1 0 1 -1 1 -1 1 0 1 -1 1 0 1 0 1 0 
1 -1 1 0 1 1 1 0 1 0 1 0 1 1 1 1 
1 0 1 1 1 1 1 0 1 1 1 1 1 1 1 1 
1 1 1 1 1 0 1 1 1 1 1 0 1 1 1 0 
1 1 1 0 1 0 1 1 1 0 1 0 1 0 1 -1 
1 0 1 0 1 -1 1 -1 1 0 1 -1 1 -1 1 0 
1 -1 1 -1 1 -1 1 0 1 -1 1 -1 1 -1 1 -1 
1 0 1 -1 1 0 1 -1 1 0 1 0 1 0 1 0 
1 0 1 0 1 0 1 0 1 1 1 0 1 1 1 1 
1 0 1 1 1 1 1 1 1 1 1 1 1 1 1 0 
1 1 1 1 1 1 1 1 1 0 1 1 1 0 1 1 
1 0 1 0 1 0 1 0 1 0 1 0 1 0 1 -1 
1 0 1 -1 1 0 1 -1 1 -1 1 0 1 -1 1 -1 
1 -1 1 -1 1 -1 1 0 1 -1 1 -1 1 -1 1 0 
1 -1 1 0 1 -1 1 0 1 0 1 0 1 0 1 0 
1 0 1 0 1 1 1 0 1 1 1 1 1 0 1 1 
1 1 1 1 1 1 1 1 1 0 1 1 1 1 1 1 
1 1 1 1 1 0 1 1 1 1 1 0 1 0 1 1 
1 0 1 0 1 0 1 0 1 0 1 -1 1 0 1 -1 
1 0 1 -1 1 -1 1 -1 1 -1 1 0 1 -1 1 -1 
1 -1 1 -1 1 -1 1 -1 1 0 1 -1 1 -1 1 0 
1 -1 1 0 1 0 1 -1 1 0 1 0 1 1 1 0 
1 0 1 1 1 0 1 1 1 1 1 0 1 1 1 1 
1 1 1 1 1 1 1 1 1 1 1 1 1 1 1 1 
1 0 1 1 1 1 1 0 1 1 1 0 1 0 1 0 
1 0 1 0 1 0 2792 768 300 MP stroke
1 0 1 -1 1 0 1 -1 1 -1 1 0 1 -1 1 -1 
1 -1 1 -1 1 -1 1 -1 1 -1 1 -1 1 -1 1 0 
1 -1 1 -1 1 0 1 -1 1 -1 1 0 1 0 1 0 
1 0 1 0 1 0 1 0 1 1 1 0 1 1 1 1 
1 0 1 1 1 1 1 1 1 1 1 1 1 1 1 1 
1 1 1 1 1 1 1 1 1 0 1 1 1 1 1 0 
1 1 1 0 1 0 1 0 1 0 1 0 1 0 1 -1 
1 0 1 -1 1 -1 1 0 1 -1 1 -1 1 -1 1 -1 
1 -1 1 -1 1 -1 1 -1 1 -1 1 -1 1 -1 1 -1 
1 0 1 -1 1 0 1 -1 1 0 1 0 1 0 -1 0 
2 0 1 0 1 0 1 0 1 1 1 0 1 1 1 1 
1 1 1 0 1 1 0 1 2 2 1 0 1 1 1 1 
1 1 1 1 1 1 1 1 1 1 1 1 1 0 1 1 
1 0 1 0 1 0 1 0 1 0 1 0 1 -1 1 0 
1 -1 1 0 1 -1 1 -1 1 -1 1 -1 1 -1 1 -1 
1 -1 1 -1 1 -1 1 -1 1 -1 1 -1 1 -1 1 -1 
1 -1 1 0 1 -1 1 0 1 0 1 -1 1 0 1 0 
1 1 1 0 1 0 1 1 1 0 1 1 1 1 1 1 
1 1 1 1 1 1 1 1 1 1 1 1 1 1 1 1 
1 1 1 1 1 1 1 0 1 1 1 0 1 1 1 0 
1 0 1 0 1 0 1 0 1 0 1 -1 1 0 1 -1 
1 -1 1 -1 1 -1 1 -1 1 -1 1 -1 1 -1 1 -1 
0 -1 2 -2 1 -1 1 -1 1 -1 1 -1 1 0 1 -1 
1 -1 1 0 1 -1 1 0 1 0 1 0 1 0 1 0 
1 0 1 1 1 0 1 1 1 1 1 1 1 1 1 0 
0 1 2 2 1 1 1 1 1 1 1 1 1 1 1 1 
1 1 1 0 1 1 1 1 1 0 1 0 1 1 1 0 
1 0 1 -1 1 0 1 0 1 -1 1 -1 1 -1 1 0 
1 -1 0 -1 2 -2 1 -1 1 -1 1 -1 0 -1 2 -2 
1 -1 1 -1 0 -1 2 -2 1 -1 1 0 1 -1 1 -1 
1 0 1 -1 1 0 1 0 1 0 1 0 1 0 1 1 
1 0 1 1 1 0 1 1 1 1 1 1 1 1 1 1 
1 1 1 1 1 1 1 1 1 1 1 1 1 1 1 1 
1 1 1 0 1 1 1 0 1 0 1 0 1 0 1 0 
1 0 1 -1 1 0 1 -1 1 -1 1 -1 1 -1 1 -1 
1 -1 0 -1 2 -2 0 -1 2 -2 0 -1 2 -2 1 -1 
1 -1 1 -1 0 -1 2 -2 1 -1 1 0 1 -1 1 -1 
1 0 1 0 1 -1 2494 802 300 MP stroke
1 0 1 0 1 1 1 0 1 1 1 0 1 1 1 1 
1 1 1 1 1 1 1 1 1 1 1 1 1 1 1 1 
1 1 1 1 1 0 1 1 1 1 1 0 1 1 1 0 
1 0 1 0 1 0 1 -1 1 0 1 -1 1 -1 1 -1 
1 -1 1 -1 0 -1 2 -2 0 -1 2 -2 0 -1 2 -2 
0 -1 2 -2 0 -1 2 -2 0 -1 2 -2 1 -1 1 -1 
1 -1 1 -1 1 -1 1 -1 1 0 1 -1 1 0 1 0 
1 0 1 0 1 1 1 0 1 1 1 0 1 1 1 1 
1 1 1 1 1 1 1 1 1 1 1 0 1 1 1 1 
1 1 1 1 1 0 1 1 1 0 1 0 1 0 1 0 
1 0 1 -1 1 0 1 -1 1 -1 1 -1 0 -1 2 -2 
0 -1 2 -2 0 -1 2 -2 0 -2 2 -2 1 -1 0 -2 
2 -2 0 -2 2 -2 0 -1 1 -1 1 -1 0 -1 2 -2 
1 -1 0 -1 2 -2 1 0 1 -1 1 -1 1 0 1 0 
1 0 1 0 1 0 1 0 1 1 1 0 1 1 1 1 
1 0 1 1 1 1 1 1 1 0 1 1 1 1 1 0 
1 1 1 0 1 0 1 1 1 0 1 -1 1 0 1 0 
1 -1 1 -1 1 -1 1 -1 0 -1 2 -2 0 -1 1 -1 
1 -1 0 -2 2 -2 0 -1 1 -1 0 -1 1 -1 0 -2 
1 -1 0 -1 1 -1 0 -2 2 -2 0 -1 1 -1 0 -2 
1 -1 0 -1 1 -1 0 -1 1 -1 0 -2 2 -2 1 -1 
0 -2 2 -2 1 -1 1 -1 1 -1 1 -1 1 -1 1 0 
1 -1 1 0 1 0 1 0 1 0 1 1 1 0 1 0 
1 1 1 0 1 1 1 0 1 1 1 0 1 0 1 0 
1 0 1 0 1 0 1 0 1 -1 1 0 1 -1 1 -1 
1 -1 1 -1 0 -2 2 -2 0 -1 2 -2 0 -2 1 -1 
0 -1 1 -1 0 -2 1 -1 0 -1 1 -1 0 -3 2 -2 
0 -2 1 -1 0 -2 1 -1 0 -2 1 -1 0 -2 1 -1 
0 -2 1 -1 0 -1 1 -1 0 -2 1 -1 0 -1 1 -1 
0 -2 1 -1 0 -1 1 -1 0 -2 1 -1 0 -1 2 -2 
0 -2 2 -2 1 -1 1 -1 1 -1 1 -1 1 -1 1 0 
1 -1 1 0 1 0 1 0 1 0 1 0 1 0 1 0 
1 0 1 0 1 0 1 0 1 0 1 0 1 0 1 -1 
1 0 1 -1 1 -1 1 -1 1 -1 1 -1 0 -2 2 -2 
0 -1 1 -1 0 -1 1 -1 0 -2 1 -1 0 -1 1 -1 
0 -1 1 -1 0 -2 1 -1 0 -2 1 -1 0 -2 1 -1 
0 -2 1 -1 0 -2 1 -1 0 -2 1 -1 0 -2 1 -1 
0 -2 1 -1 0 -2 2234 995 300 MP stroke
1 -1 0 -2 1 -1 0 -2 1 -1 0 -2 1 -1 0 -1 
1 -1 0 -2 1 -1 0 -2 1 -1 0 -1 1 -1 0 -2 
2 -2 0 -1 2 -2 1 -1 1 -1 1 -1 1 -1 1 0 
1 -1 1 0 1 0 1 0 1 1 1 0 1 0 1 1 
1 0 1 1 1 0 1 1 1 0 1 1 1 0 1 0 
1 0 1 0 1 0 1 0 1 -1 1 -1 1 -1 1 -1 
1 -1 0 -1 2 -2 0 -1 2 -2 0 -2 2 -2 0 -2 
2 -2 0 -2 1 -1 0 -2 2 -2 0 -2 2 -2 0 -2 
1 -1 0 -1 1 -1 0 -1 1 -1 0 -1 1 -1 1 -1 
0 -1 2 -2 1 -1 1 -1 1 0 1 -1 1 0 1 0 
1 1 1 0 1 1 1 1 0 1 2 2 0 1 2 2 
0 1 1 1 0 1 1 1 1 1 0 2 1 1 0 1 
1 1 0 1 1 1 0 2 2 2 0 2 2 2 0 1 
1 1 0 1 1 1 0 1 2 2 1 1 1 1 1 1 
1 1 1 0 1 1 1 0 1 0 1 0 1 -1 1 0 
1 -1 1 0 1 -1 1 -1 1 -1 1 -1 1 -1 1 -1 
1 -1 1 0 1 -1 1 -1 1 0 1 0 1 0 1 0 
1 0 1 1 1 0 0 1 2 2 1 1 1 1 0 2 
2 2 0 2 1 1 0 2 2 2 0 2 1 1 0 2 
1 1 0 2 1 1 0 3 1 1 0 2 1 1 0 2 
1 1 0 2 1 1 0 2 1 1 0 2 1 1 0 2 
1 1 0 2 1 1 0 3 2 2 0 2 1 1 0 1 
1 1 0 2 1 1 0 1 1 1 0 1 2 2 1 1 
1 1 1 1 1 1 1 0 1 0 1 0 1 0 1 0 
1 -1 1 0 1 -1 1 -1 1 0 1 -1 1 -1 1 0 
1 -1 1 0 1 -1 1 0 1 0 1 0 1 0 1 1 
1 0 0 1 2 2 0 1 2 2 0 1 2 2 0 2 
1 1 0 1 1 1 0 2 1 1 0 2 1 1 0 2 
1 1 0 1 1 1 0 2 1 1 0 3 1 1 0 2 
1 1 0 2 1 1 0 3 1 1 0 1 1 1 0 2 
1 1 0 2 1 1 0 2 1 1 0 2 1 1 0 2 
1 1 1 1 0 2 1 1 0 1 1 1 0 1 2 2 
1 1 1 1 1 1 1 0 1 0 1 0 1 0 1 0 
1 -1 1 -1 1 0 0 -1 2 -2 1 -1 1 -1 1 -1 
1 -1 1 -1 1 -1 1 -1 1 -1 1 0 1 -1 1 0 
1 0 1 0 1 1 1 0 1 1 0 1 2 2 0 1 
1 1 0 1 1 1 1 1 0 2 1 1 0 1 1 1 
0 2 1 1 0 2 1995 894 300 MP stroke
1 1 0 2 1 1 0 1 1 1 0 2 1 1 0 2 
1 1 0 2 1 1 0 2 1 1 0 2 1 1 0 2 
1 1 0 1 1 1 0 2 1 1 0 2 1 1 0 1 
1 1 0 1 1 1 0 1 1 1 1 1 1 1 1 1 
1 1 1 1 1 0 1 0 1 -1 1 0 1 -1 1 -1 
1 -1 0 -1 2 -2 0 -1 2 -2 0 -1 2 -2 1 -1 
0 -2 2 -2 0 -1 2 -2 1 -1 1 -1 1 0 1 -1 
1 0 1 0 1 0 1 1 1 0 0 1 2 2 0 1 
2 2 0 2 2 2 0 1 1 1 0 2 1 1 0 2 
1 1 0 2 1 1 0 2 1 1 0 1 1 1 0 2 
1 1 0 2 1 1 0 2 1 1 0 2 1 1 0 2 
1 1 0 1 1 1 0 1 1 1 0 2 2 2 0 2 
2 2 1 1 1 1 1 0 1 1 1 0 1 -1 1 0 
1 -1 1 -1 1 -1 1 -1 0 -2 2 -2 1 -1 0 -2 
2 -2 0 -2 1 -1 0 -1 1 -1 0 -1 1 -1 0 -1 
1 -1 1 -1 0 -2 2 -2 1 -1 1 -1 1 -1 1 -1 
1 0 1 -1 1 1 1 0 1 1 1 1 1 1 1 1 
0 2 2 2 0 2 1 1 0 1 1 1 0 1 1 1 
0 2 1 1 0 2 1 1 0 2 1 1 0 2 1 1 
0 2 1 1 0 1 1 1 0 2 1 1 0 2 1 1 
0 2 1 1 0 1 1 1 0 2 1 1 1 1 0 2 
2 2 1 1 1 1 1 1 1 0 1 0 1 0 1 -1 
1 -1 1 -1 1 -1 1 -1 0 -2 2 -2 0 -2 1 -1 
0 -1 1 -1 0 -2 2 -2 0 -2 1 -1 0 -1 1 -1 
0 -2 1 -1 0 -1 1 -1 0 -2 2 -2 0 -1 1 -1 
0 -1 2 -2 1 -1 1 -1 1 0 1 0 1 0 1 0 
1 1 0 1 2 2 1 1 0 1 1 1 0 1 1 1 
0 2 1 1 0 1 1 1 0 2 1 1 0 1 1 1 
0 2 1 1 0 3 1 1 0 2 1 1 0 2 1 1 
0 2 1 1 0 1 1 1 0 2 1 1 0 2 1 1 
0 1 1 1 0 2 1 1 0 1 1 1 1 1 0 1 
2 2 1 0 1 1 1 0 1 0 1 -1 1 -1 1 -1 
0 -1 2 -2 0 -2 2 -2 0 -1 1 -1 0 -2 1 -1 
0 -2 1 -1 0 -2 1 -1 0 -1 1 -1 0 -2 1 -1 
0 -1 1 -1 0 -2 1 -1 0 -2 1 -1 0 -1 1 -1 
0 -2 2 -2 0 -1 1 -1 0 -1 2 -2 1 0 1 -1 
1 0 1 0 1 1 1 1 1 1 1 1 0 2 2 2 
0 1 1 1 0 2 1778 814 300 MP stroke
1 1 0 2 1 1 0 2 1 1 0 2 1 1 0 2 
1 1 0 2 1 1 0 2 1 1 0 3 1 1 0 2 
1 1 0 2 1 1 0 1 1 1 0 2 1 1 0 2 
1 1 0 1 1 1 0 1 1 1 0 1 1 1 1 1 
1 1 1 0 1 0 1 0 1 0 1 -1 0 -1 2 -2 
1 -1 0 -2 1 -1 0 -1 1 -1 0 -2 1 -1 0 -1 
1 -1 0 -2 1 -1 0 -2 1 -1 0 -2 1 -1 0 -2 
1 -1 0 -3 1 -1 0 -1 1 -1 0 -2 1 -1 0 -2 
1 -1 0 -2 1 -1 0 -1 1 -1 0 -2 2 -2 1 -1 
1 -1 1 -1 1 -1 1 0 1 1 1 0 0 1 2 2 
1 1 0 2 1 1 0 1 1 1 0 1 1 1 0 2 
1 1 0 2 1 1 0 3 1 1 0 2 1 1 0 3 
1 1 0 1 1 1 0 3 1 1 0 2 1 1 0 3 
1 1 0 2 1 1 0 2 1 1 0 2 1 1 0 1 
1 1 0 1 1 1 0 2 2 2 1 1 1 1 1 0 
1 0 1 0 1 -1 0 -1 2 -2 0 -1 2 -2 0 -2 
1 -1 0 -2 1 -1 0 -2 1 -1 0 -2 1 -1 0 -2 
1 -1 0 -2 1 -1 0 -3 1 -1 0 -2 1 -1 0 -3 
1 -1 0 -2 1 -1 0 -3 1 -1 0 -1 1 -1 0 -2 
1 -1 0 -2 1 -1 0 -1 1 -1 0 -1 1 -1 1 -1 
1 -1 1 -1 1 -1 1 1 1 0 1 1 0 1 2 2 
0 1 1 1 0 1 1 1 0 2 1 1 0 2 1 1 
0 3 1 1 0 1 1 1 0 3 1 1 0 3 1 1 
0 3 1 1 0 3 1 1 0 2 1 1 0 2 1 1 
0 3 1 1 0 2 1 1 0 3 1 1 0 2 1 1 
0 2 2 2 0 2 2 2 1 1 1 0 1 1 1 -1 
1 0 0 -1 2 -2 0 -1 1 -1 0 -1 1 -1 0 -2 
1 -1 0 -1 1 -1 0 -3 1 -1 0 -2 1 -1 0 -3 
1 -1 0 -3 1 -1 0 -3 1 -1 0 -2 1 -1 0 -3 
1 -1 0 -3 1 -1 0 -2 1 -1 0 -3 1 -1 0 -2 
1 -1 0 -2 1 -1 0 -1 1 -1 0 -2 1 -1 0 -1 
1 -1 0 -1 1 -1 1 -1 1 0 1 -1 1 1 1 0 
-1 0 2 2 1 1 0 2 2 2 0 2 1 1 0 2 
1 1 0 3 1 1 0 3 1 1 0 3 1 1 0 2 
1 1 0 3 1 1 0 3 1 1 0 4 1 1 0 3 
1 1 0 3 1 1 0 2 1 1 0 3 1 1 0 2 
1 1 0 2 1 1 0 2 1 1 0 2 2 2 1 1 
1 1 1 1 1 0 1594 746 300 MP stroke
1 -1 1 -1 0 -1 2 -2 0 -1 1 -1 0 -2 1 -1 
0 -2 1 -1 0 -3 1 -1 0 -2 1 -1 0 -3 1 -1 
0 -3 1 -1 0 -3 1 -2 0 -3 1 -1 0 -3 1 -1 
0 -3 1 -1 0 -3 1 -1 0 -3 1 -1 0 -3 1 -1 
0 -3 1 -1 0 -2 1 -1 0 -1 1 -1 0 -2 1 -1 
0 -2 2 -2 1 -1 1 0 1 0 1 0 0 1 2 2 
0 1 1 1 0 1 1 1 0 2 1 1 0 2 1 1 
0 2 1 1 0 3 1 1 0 4 1 1 0 3 1 1 
0 4 1 1 0 2 1 1 0 4 1 1 0 4 1 1 
0 3 1 2 0 3 1 1 0 3 1 1 0 2 1 1 
0 3 1 1 0 2 1 1 0 2 1 1 0 2 1 1 
0 1 2 2 1 0 1 1 1 -1 1 0 -1 0 2 -2 
0 -1 1 -1 0 -1 1 -1 0 -2 1 -1 0 -2 1 -1 
0 -3 1 -1 0 -3 1 -1 0 -3 1 -1 0 -3 1 -1 
0 -3 1 -2 0 -3 1 -2 0 -3 1 -2 0 -3 1 -2 
0 -3 1 -2 0 -3 1 -1 0 -3 1 -1 0 -3 1 -1 
0 -3 1 -1 0 -3 1 -1 0 -2 1 -1 0 -2 2 -2 
1 -1 1 -1 1 -1 1 0 1 1 0 1 2 2 0 2 
1 1 0 2 1 1 0 2 1 1 0 3 1 1 0 2 
1 1 0 4 1 1 0 4 1 1 0 4 1 1 0 4 
1 1 0 4 1 2 0 4 1 1 0 3 1 1 0 4 
1 1 0 4 1 1 0 4 1 1 0 3 1 1 0 3 
1 1 0 1 1 1 0 2 1 1 0 2 1 1 0 1 
1 1 1 1 1 1 1 0 1 -1 0 -1 2 -2 0 -2 
1 -1 0 -2 1 -1 0 -1 1 -1 0 -3 1 -1 0 -4 
1 -1 0 -3 1 -2 0 -3 1 -2 0 -4 1 -1 0 -4 
1 -2 0 -3 1 -1 0 -4 1 -2 0 -4 1 -1 0 -4 
1 -2 0 -4 1 -1 0 -4 1 -1 0 -2 1 -2 0 -3 
1 -1 0 -3 1 -1 0 -2 1 -1 0 -2 1 -1 0 -1 
1 -1 1 -1 1 -1 1 0 1 1 1 1 0 1 1 1 
1 1 0 3 1 1 0 2 1 1 0 3 1 1 0 4 
1 1 0 4 1 1 0 4 1 1 0 3 1 2 0 4 
1 2 0 4 1 2 0 4 1 2 0 4 1 2 0 4 
1 1 0 3 1 2 0 4 1 1 0 4 1 1 0 4 
1 1 0 3 1 1 0 3 1 1 0 1 1 1 0 2 
1 1 1 1 1 1 1 1 1 -1 1 0 0 -2 2 -2 
0 -3 1 -1 0 -2 1 -1 0 -3 1 -2 0 -3 1 -1 
0 -3 1 -1 0 -5 1422 758 300 MP stroke
1 -1 0 -4 1 -2 0 -5 1 -1 0 -5 1 -2 0 -4 
1 -2 0 -3 1 -2 0 -5 1 -1 0 -5 1 -1 0 -5 
1 -1 0 -4 1 -2 0 -4 1 -1 0 -2 1 -1 0 -3 
1 -1 0 -3 1 -1 0 -2 1 -1 0 -1 1 -1 1 -1 
1 -1 1 0 0 1 2 2 0 1 1 1 0 3 1 1 
0 2 1 1 0 3 1 1 0 3 1 2 0 4 1 1 
0 5 1 1 0 5 1 1 0 5 1 2 0 3 1 2 
0 5 1 2 0 5 1 2 0 5 1 2 0 5 1 1 
0 5 1 1 0 4 1 1 0 4 1 2 0 4 1 1 
0 3 1 1 0 3 1 1 0 2 1 1 0 2 2 2 
1 1 1 0 0 -1 2 -2 0 -1 1 -1 0 -1 1 -1 
0 -3 1 -1 0 -4 1 -1 0 -4 1 -1 0 -4 1 -2 
0 -4 1 -2 0 -3 1 -2 0 -5 1 -2 0 -5 1 -2 
0 -6 1 -1 0 -6 1 -2 0 -5 1 -2 0 -4 1 -1 
0 -6 1 -1 0 -5 1 -2 0 -5 1 -1 0 -4 1 -2 
0 -4 1 -1 0 -3 1 -1 0 -2 1 -1 0 -2 1 -1 
0 -1 1 -1 1 -1 1 0 1 0 -1 0 2 2 0 1 
1 1 0 2 1 1 0 3 1 1 0 3 1 1 0 5 
1 1 0 3 1 1 0 5 1 2 0 5 1 2 0 5 
1 2 0 6 1 2 0 6 1 2 0 4 1 2 0 6 
1 2 0 5 1 2 0 6 1 2 0 5 1 2 0 5 
1 2 0 4 1 2 0 2 1 2 0 4 1 1 0 3 
1 1 0 2 1 1 0 2 2 2 1 0 1 0 0 -1 
2 -2 0 -3 1 -1 0 -3 1 -1 0 -2 1 -1 0 -4 
1 -2 0 -4 1 -2 0 -5 1 -2 0 -6 1 -1 0 -6 
1 -2 0 -4 1 -2 0 -7 1 -2 0 -6 1 -2 0 -7 
1 -2 0 -6 1 -2 0 -6 1 -2 0 -6 1 -2 0 -4 
1 -2 0 -5 1 -2 0 -4 1 -2 0 -4 1 -1 0 -4 
1 -1 0 -3 1 -1 0 -1 1 -1 0 -1 1 -1 1 -1 
1 0 -1 0 2 2 0 1 1 1 0 1 1 1 0 3 
1 1 0 4 1 1 0 4 1 2 0 4 1 2 0 6 
1 1 0 4 1 2 0 6 1 3 0 6 1 2 0 7 
1 2 0 7 1 2 0 7 1 2 0 7 1 3 0 4 
1 2 0 7 1 2 0 6 1 2 0 5 1 2 0 5 
1 2 0 5 1 1 0 3 1 1 0 3 1 1 0 3 
1 1 0 1 1 1 1 1 1 1 0 -1 2 -2 0 -2 
1 -1 0 -3 1 -1 0 -4 1 -1 0 -5 1 -1 0 -4 
1 -2 0 -5 1 -2 1259 736 300 MP stroke
0 -6 1 -2 0 -7 1 -2 0 -7 1 -3 0 -7 1 -2 
0 -8 1 -2 0 -5 1 -3 0 -7 1 -2 0 -8 1 -2 
0 -7 1 -2 0 -7 1 -2 0 -7 1 -2 0 -3 1 -2 
0 -6 1 -1 0 -5 1 -1 0 -4 1 -1 0 -3 1 -1 
0 -2 1 -1 1 -1 1 -1 1 1 1 1 0 2 1 1 
0 4 1 1 0 2 1 2 0 4 1 2 0 5 1 2 
0 6 1 2 0 6 1 3 0 7 1 2 0 7 1 3 
0 5 1 3 0 8 1 2 0 8 1 3 0 8 1 3 
0 7 1 3 0 8 1 2 0 5 1 3 0 7 1 2 
0 6 1 2 0 6 1 2 0 5 1 2 0 4 1 1 
0 2 1 2 0 2 1 1 0 1 1 1 1 1 1 0 
-1 0 2 -2 0 -1 1 -1 0 -3 1 -1 0 -4 1 -1 
0 -5 1 -2 0 -5 1 -2 0 -7 1 -2 0 -7 1 -2 
0 -5 1 -3 0 -8 1 -2 0 -9 1 -3 0 -8 1 -3 
0 -9 1 -3 0 -8 1 -3 0 -6 1 -3 0 -8 1 -3 
0 -8 1 -3 0 -7 1 -3 0 -7 1 -2 0 -7 1 -2 
0 -4 1 -2 0 -5 1 -1 0 -4 1 -2 0 -3 1 -1 
0 -2 2 -2 1 0 1 1 0 2 1 1 0 3 1 1 
0 4 1 2 0 5 1 1 0 6 1 2 0 5 1 2 
0 7 1 3 0 8 1 2 0 9 1 3 0 9 1 3 
0 9 1 3 0 6 1 3 0 10 1 3 0 9 1 3 
0 10 1 3 0 9 1 2 0 9 1 3 0 5 1 2 
0 8 1 2 0 7 1 2 0 5 1 2 0 5 1 1 
0 4 1 1 0 2 1 1 1 1 1 1 1 -1 0 -2 
1 -1 0 -3 1 -1 0 -4 1 -2 0 -3 1 -2 0 -6 
1 -2 0 -7 1 -2 0 -8 1 -3 0 -8 1 -3 0 -9 
1 -4 0 -6 1 -3 0 -10 1 -3 0 -11 1 -3 0 -10 
1 -4 0 -10 1 -3 0 -11 1 -3 0 -6 1 -4 0 -9 
1 -3 0 -9 1 -3 0 -8 1 -2 0 -8 1 -2 0 -6 
1 -2 0 -6 1 -1 0 -3 1 -1 0 -4 1 -1 0 -1 
1 -1 1 -1 1 1 0 1 1 1 0 2 1 1 0 4 
1 2 0 5 1 2 0 6 1 2 0 8 1 2 0 8 
1 3 0 6 1 3 0 10 1 3 0 11 1 3 0 11 
1 3 0 11 1 4 0 11 1 4 0 7 1 4 0 11 
1 4 0 10 1 4 0 10 1 4 0 9 1 3 0 9 
1 3 0 8 1 3 0 5 1 2 0 6 1 2 0 5 
1 2 0 3 1 1 0 3 1 1 1 1 1 0 -1 0 
2 -2 0 -3 1 -1 1101 661 300 MP stroke
0 -4 1 -2 0 -5 1 -2 0 -7 1 -2 0 -5 1 -3 
0 -9 1 -3 0 -9 1 -4 0 -10 1 -4 0 -11 1 -3 
0 -12 1 -4 0 -8 1 -4 0 -12 1 -4 0 -12 1 -4 
0 -12 1 -4 0 -12 1 -4 0 -11 1 -4 0 -10 1 -4 
0 -7 1 -3 0 -9 1 -3 0 -8 1 -3 0 -7 1 -2 
0 -6 1 -1 0 -5 1 -1 0 -2 1 -1 0 -1 1 -1 
1 -1 -1 0 2 2 0 3 1 1 0 4 1 2 0 3 
1 2 0 7 1 2 0 8 1 3 0 9 1 3 0 11 
1 3 0 11 1 4 0 8 1 4 0 12 1 4 0 13 
1 4 0 13 1 5 0 13 1 4 0 13 1 5 0 13 
1 4 0 8 1 4 0 12 1 4 0 11 1 3 0 11 
1 3 0 9 1 3 0 8 1 2 0 4 1 2 0 6 
1 1 0 4 1 1 0 2 1 1 1 1 -1 0 2 -2 
0 -2 1 -1 0 -3 1 -2 0 -5 1 -2 0 -7 1 -3 
0 -8 1 -3 0 -10 1 -3 0 -7 1 -4 0 -12 1 -4 
0 -12 1 -5 0 -13 1 -4 0 -14 1 -5 0 -14 1 -5 
0 -14 1 -5 0 -9 1 -5 0 -14 1 -4 0 -14 1 -4 
0 -13 1 -5 0 -12 1 -4 0 -11 1 -3 0 -7 1 -3 
0 -9 1 -3 0 -8 1 -2 0 -6 1 -2 0 -4 1 -2 
0 -2 1 -1 1 -1 1 1 0 2 1 1 0 3 1 2 
0 5 1 3 0 7 1 2 0 9 1 3 0 7 1 3 
0 12 1 3 0 13 1 4 0 13 1 5 0 14 1 5 
0 14 1 5 0 10 1 6 0 15 1 5 0 15 1 5 
0 15 1 5 0 15 1 5 0 14 1 4 0 9 1 4 
0 13 1 4 0 11 1 4 0 10 1 3 0 8 1 3 
0 6 1 2 0 4 1 1 0 4 1 1 0 1 1 1 
1 0 0 -2 1 -1 0 -4 1 -2 0 -5 1 -2 0 -5 
1 -3 0 -8 1 -4 0 -10 1 -4 0 -11 1 -4 0 -13 
1 -5 0 -14 1 -5 0 -10 1 -5 0 -15 1 -5 0 -16 
1 -6 0 -16 1 -6 0 -16 1 -5 0 -16 1 -6 0 -10 
1 -5 0 -16 1 -5 0 -14 1 -5 0 -13 1 -5 0 -12 
1 -4 0 -10 1 -4 0 -6 1 -3 0 -8 1 -2 0 -6 
1 -2 0 -4 1 -1 0 -2 1 -1 0 -1 0 1 2 2 
0 3 1 1 0 5 1 2 0 7 1 3 0 9 1 3 
0 11 1 4 0 12 1 4 0 9 1 5 0 14 1 5 
0 15 1 6 0 16 1 5 0 17 1 6 0 17 1 6 
0 11 1 6 0 17 1 6 0 17 1 5 0 16 1 5 
0 16 1 5 0 14 949 668 300 MP stroke
1 5 0 8 1 5 0 12 1 3 0 11 1 3 0 8 
1 3 0 7 1 2 0 4 1 2 0 2 1 1 1 0 
1 -1 0 -3 1 -2 0 -5 1 -2 0 -7 1 -3 0 -9 
1 -3 0 -7 1 -4 0 -12 1 -5 0 -13 1 -5 0 -15 
1 -5 0 -16 1 -5 0 -17 1 -6 0 -12 1 -5 0 -18 
1 -6 0 -18 1 -6 0 -18 1 -6 0 -17 1 -6 0 -17 
1 -6 0 -11 1 -5 0 -15 1 -5 0 -14 1 -5 0 -12 
1 -4 0 -11 1 -4 0 -9 1 -2 0 -8 1 -2 0 -3 
1 -2 0 -4 1 -1 1 -1 1 1 0 3 1 1 0 5 
1 2 0 5 1 3 0 8 1 3 0 11 1 4 0 12 
1 4 0 14 1 5 0 15 1 5 0 11 1 5 0 17 
1 6 0 18 1 6 0 18 1 6 0 18 1 7 0 18 
1 6 0 12 1 6 0 18 1 5 0 17 1 6 0 15 
1 5 0 15 1 5 0 13 1 4 0 11 1 4 0 6 
1 3 0 9 1 2 0 6 1 2 0 4 1 1 0 1 
1 1 1 -1 0 -2 1 -1 0 -4 1 -2 0 -6 1 -3 
0 -8 1 -3 0 -11 1 -4 0 -12 1 -4 0 -9 1 -5 
0 -15 1 -5 0 -16 1 -6 0 -17 1 -5 0 -18 1 -6 
0 -19 1 -6 0 -18 873 788 148 MP stroke
gr

c9

end %%Color Dict

eplot
%%EndObject

epage
end

showpage

%%Trailer
%%EOF
